Lab 7/lab7_task1/simulation/qsim/lab7_task1.msim.vcd
$comment
	File created using the following command:
		vcd file lab7_task1.msim.vcd -direction
$end
$date
	Wed Apr 04 21:00:12 2018
$end
$version
	ModelSim Version 10.5b
$end
$timescale
	1ps
$end

$scope module log_shifter_4bit_vhd_vec_tst $end
$var wire 1 ! A [3] $end
$var wire 1 " A [2] $end
$var wire 1 # A [1] $end
$var wire 1 $ A [0] $end
$var wire 1 % arith $end
$var wire 1 & cnt [1] $end
$var wire 1 ' cnt [0] $end
$var wire 1 ( F [3] $end
$var wire 1 ) F [2] $end
$var wire 1 * F [1] $end
$var wire 1 + F [0] $end
$var wire 1 , lin $end
$var wire 1 - right $end

$scope module i1 $end
$var wire 1 . gnd $end
$var wire 1 / vcc $end
$var wire 1 0 unknown $end
$var wire 1 1 devoe $end
$var wire 1 2 devclrn $end
$var wire 1 3 devpor $end
$var wire 1 4 ww_devoe $end
$var wire 1 5 ww_devclrn $end
$var wire 1 6 ww_devpor $end
$var wire 1 7 ww_arith $end
$var wire 1 8 ww_lin $end
$var wire 1 9 ww_right $end
$var wire 1 : ww_A [3] $end
$var wire 1 ; ww_A [2] $end
$var wire 1 < ww_A [1] $end
$var wire 1 = ww_A [0] $end
$var wire 1 > ww_cnt [1] $end
$var wire 1 ? ww_cnt [0] $end
$var wire 1 @ ww_F [3] $end
$var wire 1 A ww_F [2] $end
$var wire 1 B ww_F [1] $end
$var wire 1 C ww_F [0] $end
$var wire 1 D \F[0]~output_o\ $end
$var wire 1 E \F[1]~output_o\ $end
$var wire 1 F \F[2]~output_o\ $end
$var wire 1 G \F[3]~output_o\ $end
$var wire 1 H \cnt[1]~input_o\ $end
$var wire 1 I \right~input_o\ $end
$var wire 1 J \A[3]~input_o\ $end
$var wire 1 K \arith~input_o\ $end
$var wire 1 L \lin~input_o\ $end
$var wire 1 M \mux2[3]~0_combout\ $end
$var wire 1 N \A[2]~input_o\ $end
$var wire 1 O \A[1]~input_o\ $end
$var wire 1 P \cnt[0]~input_o\ $end
$var wire 1 Q \mux2[3]~4_combout\ $end
$var wire 1 R \mux2[3]~5_combout\ $end
$var wire 1 S \A[0]~input_o\ $end
$var wire 1 T \mux1[3]~2_combout\ $end
$var wire 1 U \mux2[3]~6_combout\ $end
$var wire 1 V \mux1[2]~0_combout\ $end
$var wire 1 W \mux1[2]~1_combout\ $end
$var wire 1 X \mux2[2]~1_combout\ $end
$var wire 1 Y \mux2[0]~2_combout\ $end
$var wire 1 Z \mux2[0]~3_combout\ $end
$var wire 1 [ \F~6_combout\ $end
$var wire 1 \ \mux2[1]~7_combout\ $end
$var wire 1 ] \mux2[1]~8_combout\ $end
$var wire 1 ^ \mux2[2]~9_combout\ $end
$var wire 1 _ \mux2[2]~10_combout\ $end
$var wire 1 ` \F~4_combout\ $end
$var wire 1 a \F~5_combout\ $end
$var wire 1 b \F~7_combout\ $end
$upscope $end
$upscope $end
$enddefinitions $end
#0
$dumpvars
0%
0,
0-
0.
1/
x0
11
12
13
14
15
16
07
08
09
0D
0E
0F
0G
0H
0I
0J
0K
0L
0M
0N
0O
0P
0Q
0R
0S
0T
0U
0V
0W
0X
0Y
0Z
0[
0\
0]
0^
0_
0`
0a
0b
0!
0"
0#
0$
0&
0'
0:
0;
0<
0=
0>
0?
0@
0A
0B
0C
0(
0)
0*
0+
$end
#31250
1$
1=
1S
1U
1[
1D
1C
1+
#62500
0$
1#
0=
1<
1O
0S
0U
1V
1W
0[
1_
1`
0D
0C
0+
1E
1B
1*
#93750
1$
1=
1S
1U
1[
1D
1C
1+
#125000
0$
0#
1"
0=
0<
1;
1N
0O
0S
0U
1Q
0V
1\
1]
0W
0[
0_
1a
0`
0D
0C
1F
0+
1A
0E
1)
0B
0*
#156250
1$
1=
1S
1U
1[
1D
1C
1+
#187500
0$
1#
0=
1<
1O
0S
0U
1V
1W
0[
1_
1`
0D
0C
0+
1E
1B
1*
#218750
1$
1=
1S
1U
1[
1D
1C
1+
#250000
0$
0#
0"
1!
0=
0<
0;
1:
1J
0N
0O
0S
0Q
0V
0\
0U
1X
1^
1Y
0[
0]
0W
0_
0a
1Z
1b
0`
0D
0C
0F
0+
0A
0E
1G
0)
0B
1@
0*
1(
#281250
1$
1=
1S
1U
1[
1D
1C
1+
#312500
0$
1#
0=
1<
1O
0S
0U
1V
1W
0[
1_
1`
0D
0C
0+
1E
1B
1*
#343750
1$
1=
1S
1U
1[
1D
1C
1+
#375000
0$
0#
1"
0=
0<
1;
1N
0O
0S
0U
1Q
0V
1\
1]
0W
0[
0_
1a
0`
0D
0C
1F
0+
1A
0E
1)
0B
0*
#406250
1$
1=
1S
1U
1[
1D
1C
1+
#437500
0$
1#
0=
1<
1O
0S
0U
1V
1W
0[
1_
1`
0D
0C
0+
1E
1B
1*
#468750
1$
1=
1S
1U
1[
1D
1C
1+
#500000
0$
0#
0"
0!
1'
0=
0<
0;
0:
1?
1P
0J
0N
0O
0S
0\
0U
0X
0^
0Q
1T
0V
0W
0_
0Y
0[
0]
0Z
0`
0a
0b
0D
0C
0F
0E
0+
0A
0B
0G
0*
0)
0@
0(
#531250
1$
1=
1S
1W
1_
1`
1E
1B
1*
#562500
0$
1#
0=
1<
1O
0S
0W
1Q
1\
1]
0_
0`
1a
1F
0E
1A
0B
0*
1)
#593750
1$
1=
1S
1W
1_
1`
1E
1B
1*
#625000
0$
0#
1"
0=
0<
1;
1N
0O
0S
0W
0Q
0\
0]
0_
0`
0a
0F
0E
0A
0B
0*
0)
#656250
1$
1=
1S
1W
1_
1`
1E
1B
1*
#687500
0$
1#
0=
1<
1O
0S
0W
1Q
1\
1]
0_
0`
1a
1F
0E
1A
0B
0*
1)
#718750
1$
1=
1S
1W
1_
1`
1E
1B
1*
#750000
0$
0#
0"
1!
0=
0<
0;
1:
1J
0N
0O
0S
0Q
0\
1U
0W
1X
1^
1Y
0_
1[
0]
0`
0a
1Z
1b
1D
1C
0F
0E
1+
0A
0B
1G
0*
0)
1@
1(
#781250
1$
1=
1S
1W
1_
1`
1E
1B
1*
#812500
0$
1#
0=
1<
1O
0S
0W
1Q
1\
1]
0_
0`
1a
1F
0E
1A
0B
0*
1)
#843750
1$
1=
1S
1W
1_
1`
1E
1B
1*
#875000
0$
0#
1"
0=
0<
1;
1N
0O
0S
0W
0Q
0\
0]
0_
0`
0a
0F
0E
0A
0B
0*
0)
#906250
1$
1=
1S
1W
1_
1`
1E
1B
1*
#937500
0$
1#
0=
1<
1O
0S
0W
1Q
1\
1]
0_
0`
1a
1F
0E
1A
0B
0*
1)
#968750
1$
1=
1S
1W
1_
1`
1E
1B
1*
#1000000
0$
0#
0"
0!
0'
1&
0=
0<
0;
0:
0?
1>
1H
0P
0J
0N
0O
0S
0X
0^
0Q
0T
0W
1R
0U
0]
0a
0Z
0\
0R
0_
0Y
0`
0[
0b
0F
0A
0G
0D
0E
0)
0@
0C
0B
0+
0*
0(
#1031250
1$
1=
1S
1]
1a
1F
1A
1)
#1062500
0$
1#
0=
1<
1O
0S
0]
1V
1W
0a
1Z
1b
0F
0A
0)
1G
1@
1(
#1093750
1$
1=
1S
1]
1a
1F
1A
1)
#1125000
0$
0#
1"
0=
0<
1;
1N
0O
0S
0]
1Q
0V
0W
1R
0a
1[
0Z
0b
0F
0A
1D
0)
1C
0G
1+
0@
0(
#1156250
1$
1=
1S
1]
1a
1F
1A
1)
#1187500
0$
1#
0=
1<
1O
0S
0]
1V
1W
0a
1Z
1b
0F
0A
0)
1G
1@
1(
#1218750
1$
1=
1S
1]
1a
1F
1A
1)
#1250000
0$
0#
0"
1!
0=
0<
0;
1:
1J
0N
0O
0S
0Q
0V
1X
0]
1^
1_
0a
1Y
0W
0R
0[
0Z
1`
0b
0F
0A
1E
0D
0)
1B
0C
0G
0+
1*
0@
0(
#1281250
1$
1=
1S
1]
1a
1F
1A
1)
#1312500
0$
1#
0=
1<
1O
0S
0]
1V
1W
0a
1Z
1b
0F
0A
0)
1G
1@
1(
#1343750
1$
1=
1S
1]
1a
1F
1A
1)
#1375000
0$
0#
1"
0=
0<
1;
1N
0O
0S
0]
1Q
0V
0W
1R
0a
1[
0Z
0b
0F
0A
1D
0)
1C
0G
1+
0@
0(
#1406250
1$
1=
1S
1]
1a
1F
1A
1)
#1437500
0$
1#
0=
1<
1O
0S
0]
1V
1W
0a
1Z
1b
0F
0A
0)
1G
1@
1(
#1468750
1$
1=
1S
1]
1a
1F
1A
1)
#1500000
0$
0#
0"
0!
1'
0=
0<
0;
0:
1?
1P
0J
0N
0O
0S
0X
0]
0^
0Q
1T
0V
0W
0Z
1\
0R
0_
0a
0Y
0`
0[
0b
0F
0A
0G
0D
0E
0)
0@
0C
0B
0+
0*
0(
#1531250
1$
1=
1S
1W
1Z
1b
1G
1@
1(
#1562500
0$
1#
0=
1<
1O
0S
0W
1Q
1R
0Z
1[
0b
0G
1D
0@
1C
1+
0(
#1593750
1$
1=
1S
1W
1Z
1b
1G
1@
1(
#1625000
0$
0#
1"
0=
0<
1;
1N
0O
0S
0W
0Q
0R
0Z
0[
0b
0G
0D
0@
0C
0+
0(
#1656250
1$
1=
1S
1W
1Z
1b
1G
1@
1(
#1687500
0$
1#
0=
1<
1O
0S
0W
1Q
1R
0Z
1[
0b
0G
1D
0@
1C
1+
0(
#1718750
1$
1=
1S
1W
1Z
1b
1G
1@
1(
#1750000
0$
0#
0"
1!
0=
0<
0;
1:
1J
0N
0O
0S
0Q
0W
1X
1]
1^
1a
1Y
0Z
1_
0R
1`
0[
0b
1F
1A
0G
0D
1E
1)
0@
0C
1B
0+
1*
0(
#1781250
1$
1=
1S
1W
1Z
1b
1G
1@
1(
#1812500
0$
1#
0=
1<
1O
0S
0W
1Q
1R
0Z
1[
0b
0G
1D
0@
1C
1+
0(
#1843750
1$
1=
1S
1W
1Z
1b
1G
1@
1(
#1875000
0$
0#
1"
0=
0<
1;
1N
0O
0S
0W
0Q
0R
0Z
0[
0b
0G
0D
0@
0C
0+
0(
#1906250
1$
1=
1S
1W
1Z
1b
1G
1@
1(
#1937500
0$
1#
0=
1<
1O
0S
0W
1Q
1R
0Z
1[
0b
0G
1D
0@
1C
1+
0(
#1968750
1$
1=
1S
1W
1Z
1b
1G
1@
1(
#2000000
0$
0#
0"
0!
0'
0&
1%
0=
0<
0;
0:
0?
0>
17
1K
0H
0P
0J
0N
0O
0S
0X
0^
0Q
0T
0W
0R
0\
0]
0[
0_
0Y
0Z
0`
0a
0b
0D
0C
0F
0E
0+
0A
0B
0G
0*
0)
0@
0(
#2031250
1$
1=
1S
1U
1[
1D
1C
1+
#2062500
0$
1#
0=
1<
1O
0S
0U
1V
1W
0[
1_
1`
0D
0C
0+
1E
1B
1*
#2093750
1$
1=
1S
1U
1[
1D
1C
1+
#2125000
0$
0#
1"
0=
0<
1;
1N
0O
0S
0U
1Q
0V
1\
1]
0W
0[
0_
1a
0`
0D
0C
1F
0+
1A
0E
1)
0B
0*
#2156250
1$
1=
1S
1U
1[
1D
1C
1+
#2187500
0$
1#
0=
1<
1O
0S
0U
1V
1W
0[
1_
1`
0D
0C
0+
1E
1B
1*
#2218750
1$
1=
1S
1U
1[
1D
1C
1+
#2250000
0$
0#
0"
1!
0=
0<
0;
1:
1J
0N
0O
0S
0Q
0V
0\
0U
1X
1^
1Y
0[
0]
0W
0_
0a
1Z
1b
0`
0D
0C
0F
0+
0A
0E
1G
0)
0B
1@
0*
1(
#2281250
1$
1=
1S
1U
1[
1D
1C
1+
#2312500
0$
1#
0=
1<
1O
0S
0U
1V
1W
0[
1_
1`
0D
0C
0+
1E
1B
1*
#2343750
1$
1=
1S
1U
1[
1D
1C
1+
#2375000
0$
0#
1"
0=
0<
1;
1N
0O
0S
0U
1Q
0V
1\
1]
0W
0[
0_
1a
0`
0D
0C
1F
0+
1A
0E
1)
0B
0*
#2406250
1$
1=
1S
1U
1[
1D
1C
1+
#2437500
0$
1#
0=
1<
1O
0S
0U
1V
1W
0[
1_
1`
0D
0C
0+
1E
1B
1*
#2468750
1$
1=
1S
1U
1[
1D
1C
1+
#2500000
0$
0#
0"
0!
1'
0=
0<
0;
0:
1?
1P
0J
0N
0O
0S
0\
0U
0X
0^
0Q
1T
0V
0W
0_
0Y
0[
0]
0Z
0`
0a
0b
0D
0C
0F
0E
0+
0A
0B
0G
0*
0)
0@
0(
#2531250
1$
1=
1S
1W
1_
1`
1E
1B
1*
#2562500
0$
1#
0=
1<
1O
0S
0W
1Q
1\
1]
0_
0`
1a
1F
0E
1A
0B
0*
1)
#2593750
1$
1=
1S
1W
1_
1`
1E
1B
1*
#2625000
0$
0#
1"
0=
0<
1;
1N
0O
0S
0W
0Q
0\
0]
0_
0`
0a
0F
0E
0A
0B
0*
0)
#2656250
1$
1=
1S
1W
1_
1`
1E
1B
1*
#2687500
0$
1#
0=
1<
1O
0S
0W
1Q
1\
1]
0_
0`
1a
1F
0E
1A
0B
0*
1)
#2718750
1$
1=
1S
1W
1_
1`
1E
1B
1*
#2750000
0$
0#
0"
1!
0=
0<
0;
1:
1J
0N
0O
0S
0Q
0\
1U
0W
1X
1^
1Y
0_
1[
0]
0`
0a
1Z
1b
1D
1C
0F
0E
1+
0A
0B
1G
0*
0)
1@
1(
#2781250
1$
1=
1S
1W
1_
1`
1E
1B
1*
#2812500
0$
1#
0=
1<
1O
0S
0W
1Q
1\
1]
0_
0`
1a
1F
0E
1A
0B
0*
1)
#2843750
1$
1=
1S
1W
1_
1`
1E
1B
1*
#2875000
0$
0#
1"
0=
0<
1;
1N
0O
0S
0W
0Q
0\
0]
0_
0`
0a
0F
0E
0A
0B
0*
0)
#2906250
1$
1=
1S
1W
1_
1`
1E
1B
1*
#2937500
0$
1#
0=
1<
1O
0S
0W
1Q
1\
1]
0_
0`
1a
1F
0E
1A
0B
0*
1)
#2968750
1$
1=
1S
1W
1_
1`
1E
1B
1*
#3000000
0$
0#
0"
0!
0'
1&
0=
0<
0;
0:
0?
1>
1H
0P
0J
0N
0O
0S
0X
0^
0Q
0T
0W
1R
0U
0]
0a
0Z
0\
0R
0_
0Y
0`
0[
0b
0F
0A
0G
0D
0E
0)
0@
0C
0B
0+
0*
0(
#3031250
1$
1=
1S
1]
1a
1F
1A
1)
#3062500
0$
1#
0=
1<
1O
0S
0]
1V
1W
0a
1Z
1b
0F
0A
0)
1G
1@
1(
#3093750
1$
1=
1S
1]
1a
1F
1A
1)
#3125000
0$
0#
1"
0=
0<
1;
1N
0O
0S
0]
1Q
0V
0W
1R
0a
1[
0Z
0b
0F
0A
1D
0)
1C
0G
1+
0@
0(
#3156250
1$
1=
1S
1]
1a
1F
1A
1)
#3187500
0$
1#
0=
1<
1O
0S
0]
1V
1W
0a
1Z
1b
0F
0A
0)
1G
1@
1(
#3218750
1$
1=
1S
1]
1a
1F
1A
1)
#3250000
0$
0#
0"
1!
0=
0<
0;
1:
1J
0N
0O
0S
0Q
0V
1X
0]
1^
1_
0a
1Y
0W
0R
0[
0Z
1`
0b
0F
0A
1E
0D
0)
1B
0C
0G
0+
1*
0@
0(
#3281250
1$
1=
1S
1]
1a
1F
1A
1)
#3312500
0$
1#
0=
1<
1O
0S
0]
1V
1W
0a
1Z
1b
0F
0A
0)
1G
1@
1(
#3343750
1$
1=
1S
1]
1a
1F
1A
1)
#3375000
0$
0#
1"
0=
0<
1;
1N
0O
0S
0]
1Q
0V
0W
1R
0a
1[
0Z
0b
0F
0A
1D
0)
1C
0G
1+
0@
0(
#3406250
1$
1=
1S
1]
1a
1F
1A
1)
#3437500
0$
1#
0=
1<
1O
0S
0]
1V
1W
0a
1Z
1b
0F
0A
0)
1G
1@
1(
#3468750
1$
1=
1S
1]
1a
1F
1A
1)
#3500000
0$
0#
0"
0!
1'
0=
0<
0;
0:
1?
1P
0J
0N
0O
0S
0X
0]
0^
0Q
1T
0V
0W
0Z
1\
0R
0_
0a
0Y
0`
0[
0b
0F
0A
0G
0D
0E
0)
0@
0C
0B
0+
0*
0(
#3531250
1$
1=
1S
1W
1Z
1b
1G
1@
1(
#3562500
0$
1#
0=
1<
1O
0S
0W
1Q
1R
0Z
1[
0b
0G
1D
0@
1C
1+
0(
#3593750
1$
1=
1S
1W
1Z
1b
1G
1@
1(
#3625000
0$
0#
1"
0=
0<
1;
1N
0O
0S
0W
0Q
0R
0Z
0[
0b
0G
0D
0@
0C
0+
0(
#3656250
1$
1=
1S
1W
1Z
1b
1G
1@
1(
#3687500
0$
1#
0=
1<
1O
0S
0W
1Q
1R
0Z
1[
0b
0G
1D
0@
1C
1+
0(
#3718750
1$
1=
1S
1W
1Z
1b
1G
1@
1(
#3750000
0$
0#
0"
1!
0=
0<
0;
1:
1J
0N
0O
0S
0Q
0W
1X
1]
1^
1a
1Y
0Z
1_
0R
1`
0[
0b
1F
1A
0G
0D
1E
1)
0@
0C
1B
0+
1*
0(
#3781250
1$
1=
1S
1W
1Z
1b
1G
1@
1(
#3812500
0$
1#
0=
1<
1O
0S
0W
1Q
1R
0Z
1[
0b
0G
1D
0@
1C
1+
0(
#3843750
1$
1=
1S
1W
1Z
1b
1G
1@
1(
#3875000
0$
0#
1"
0=
0<
1;
1N
0O
0S
0W
0Q
0R
0Z
0[
0b
0G
0D
0@
0C
0+
0(
#3906250
1$
1=
1S
1W
1Z
1b
1G
1@
1(
#3937500
0$
1#
0=
1<
1O
0S
0W
1Q
1R
0Z
1[
0b
0G
1D
0@
1C
1+
0(
#3968750
1$
1=
1S
1W
1Z
1b
1G
1@
1(
#4000000
0$
0#
0"
0!
0'
0&
0%
1,
0=
0<
0;
0:
0?
0>
07
18
1L
0K
0H
0P
0J
0N
0O
0S
0X
0Q
0T
0W
0\
0R
0^
0[
0]
0_
0Y
0Z
0`
0a
0b
0D
0C
0F
0E
0+
0A
0B
0G
0*
0)
0@
0(
#4031250
1$
1=
1S
1U
1[
1D
1C
1+
#4062500
0$
1#
0=
1<
1O
0S
0U
1V
1W
0[
1_
1`
0D
0C
0+
1E
1B
1*
#4093750
1$
1=
1S
1U
1[
1D
1C
1+
#4125000
0$
0#
1"
0=
0<
1;
1N
0O
0S
0U
1Q
0V
1\
1]
0W
0[
0_
1a
0`
0D
0C
1F
0+
1A
0E
1)
0B
0*
#4156250
1$
1=
1S
1U
1[
1D
1C
1+
#4187500
0$
1#
0=
1<
1O
0S
0U
1V
1W
0[
1_
1`
0D
0C
0+
1E
1B
1*
#4218750
1$
1=
1S
1U
1[
1D
1C
1+
#4250000
0$
0#
0"
1!
0=
0<
0;
1:
1J
0N
0O
0S
0Q
0V
0\
0U
1X
1Y
0[
0]
0W
0_
0a
1Z
1b
0`
0D
0C
0F
0+
0A
0E
1G
0)
0B
1@
0*
1(
#4281250
1$
1=
1S
1U
1[
1D
1C
1+
#4312500
0$
1#
0=
1<
1O
0S
0U
1V
1W
0[
1_
1`
0D
0C
0+
1E
1B
1*
#4343750
1$
1=
1S
1U
1[
1D
1C
1+
#4375000
0$
0#
1"
0=
0<
1;
1N
0O
0S
0U
1Q
0V
1\
1]
0W
0[
0_
1a
0`
0D
0C
1F
0+
1A
0E
1)
0B
0*
#4406250
1$
1=
1S
1U
1[
1D
1C
1+
#4437500
0$
1#
0=
1<
1O
0S
0U
1V
1W
0[
1_
1`
0D
0C
0+
1E
1B
1*
#4468750
1$
1=
1S
1U
1[
1D
1C
1+
#4500000
0$
0#
0"
0!
1'
0=
0<
0;
0:
1?
1P
0J
0N
0O
0S
0\
0U
0X
0Q
1T
0V
0W
0Y
0Z
0_
0[
0]
0`
0a
0b
0D
0C
0G
0F
0E
0+
0@
0A
0B
0*
0)
0(
#4531250
1$
1=
1S
1W
1_
1`
1E
1B
1*
#4562500
0$
1#
0=
1<
1O
0S
0W
1Q
1\
1]
0_
0`
1a
1F
0E
1A
0B
0*
1)
#4593750
1$
1=
1S
1W
1_
1`
1E
1B
1*
#4625000
0$
0#
1"
0=
0<
1;
1N
0O
0S
0W
0Q
0\
0]
0_
0`
0a
0F
0E
0A
0B
0*
0)
#4656250
1$
1=
1S
1W
1_
1`
1E
1B
1*
#4687500
0$
1#
0=
1<
1O
0S
0W
1Q
1\
1]
0_
0`
1a
1F
0E
1A
0B
0*
1)
#4718750
1$
1=
1S
1W
1_
1`
1E
1B
1*
#4750000
0$
0#
0"
1!
0=
0<
0;
1:
1J
0N
0O
0S
0Q
0\
1U
0W
1X
0_
1[
0]
0`
0a
1D
1C
0F
0E
1+
0A
0B
0*
0)
#4781250
1$
1=
1S
1W
1_
1`
1E
1B
1*
#4812500
0$
1#
0=
1<
1O
0S
0W
1Q
1\
1]
0_
0`
1a
1F
0E
1A
0B
0*
1)
#4843750
1$
1=
1S
1W
1_
1`
1E
1B
1*
#4875000
0$
0#
1"
0=
0<
1;
1N
0O
0S
0W
0Q
0\
0]
0_
0`
0a
0F
0E
0A
0B
0*
0)
#4906250
1$
1=
1S
1W
1_
1`
1E
1B
1*
#4937500
0$
1#
0=
1<
1O
0S
0W
1Q
1\
1]
0_
0`
1a
1F
0E
1A
0B
0*
1)
#4968750
1$
1=
1S
1W
1_
1`
1E
1B
1*
#5000000
0$
0#
0"
0!
0'
1&
0=
0<
0;
0:
0?
1>
1H
0P
0J
0N
0O
0S
0X
0Q
0T
0W
1Y
0U
1Z
0]
0_
0`
0a
0[
1b
0Z
0\
0Y
0b
1G
0D
0F
0E
1@
0C
0A
0B
0G
0+
0*
0)
1(
0@
0(
#5031250
1$
1=
1S
1]
1a
1F
1A
1)
#5062500
0$
1#
0=
1<
1O
0S
0]
1V
1W
0a
1Z
1b
0F
0A
0)
1G
1@
1(
#5093750
1$
1=
1S
1]
1a
1F
1A
1)
#5125000
0$
0#
1"
0=
0<
1;
1N
0O
0S
0]
1Q
0V
0W
0a
0Z
0b
0F
0A
0)
0G
0@
0(
#5156250
1$
1=
1S
1]
1a
1F
1A
1)
#5187500
0$
1#
0=
1<
1O
0S
0]
1V
1W
0a
1Z
1b
0F
0A
0)
1G
1@
1(
#5218750
1$
1=
1S
1]
1a
1F
1A
1)
#5250000
0$
0#
0"
1!
0=
0<
0;
1:
1J
0N
0O
0S
0Q
0V
1X
0]
0a
1Y
0W
0Z
0b
0F
0A
0)
0G
0@
0(
#5281250
1$
1=
1S
1]
1a
1F
1A
1)
#5312500
0$
1#
0=
1<
1O
0S
0]
1V
1W
0a
1Z
1b
0F
0A
0)
1G
1@
1(
#5343750
1$
1=
1S
1]
1a
1F
1A
1)
#5375000
0$
0#
1"
0=
0<
1;
1N
0O
0S
0]
1Q
0V
0W
0a
0Z
0b
0F
0A
0)
0G
0@
0(
#5406250
1$
1=
1S
1]
1a
1F
1A
1)
#5437500
0$
1#
0=
1<
1O
0S
0]
1V
1W
0a
1Z
1b
0F
0A
0)
1G
1@
1(
#5468750
1$
1=
1S
1]
1a
1F
1A
1)
#5500000
0$
0#
0"
0!
1'
0=
0<
0;
0:
1?
1P
0J
0N
0O
0S
0X
0]
0Q
1T
0V
0W
0Y
0Z
1\
0a
0b
0F
0A
0G
0)
0@
0(
#5531250
1$
1=
1S
1W
1Z
1b
1G
1@
1(
#5562500
0$
1#
0=
1<
1O
0S
0W
1Q
0Z
0b
0G
0@
0(
#5593750
1$
1=
1S
1W
1Z
1b
1G
1@
1(
#5625000
0$
0#
1"
0=
0<
1;
1N
0O
0S
0W
0Q
0Z
0b
0G
0@
0(
#5656250
1$
1=
1S
1W
1Z
1b
1G
1@
1(
#5687500
0$
1#
0=
1<
1O
0S
0W
1Q
0Z
0b
0G
0@
0(
#5718750
1$
1=
1S
1W
1Z
1b
1G
1@
1(
#5750000
0$
0#
0"
1!
0=
0<
0;
1:
1J
0N
0O
0S
0Q
0W
1X
1]
1a
0Z
0b
1F
1A
0G
1)
0@
0(
#5781250
1$
1=
1S
1W
1Z
1b
1G
1@
1(
#5812500
0$
1#
0=
1<
1O
0S
0W
1Q
0Z
0b
0G
0@
0(
#5843750
1$
1=
1S
1W
1Z
1b
1G
1@
1(
#5875000
0$
0#
1"
0=
0<
1;
1N
0O
0S
0W
0Q
0Z
0b
0G
0@
0(
#5906250
1$
1=
1S
1W
1Z
1b
1G
1@
1(
#5937500
0$
1#
0=
1<
1O
0S
0W
1Q
0Z
0b
0G
0@
0(
#5968750
1$
1=
1S
1W
1Z
1b
1G
1@
1(
#6000000
0$
0#
0"
0!
0'
0&
1%
0=
0<
0;
0:
0?
0>
17
1K
0H
0P
0J
0N
0O
0S
0X
0Q
0T
0W
1Y
0Z
0\
1_
1`
0]
0b
1Z
0_
0Y
0Z
1b
0`
0a
0b
0G
1E
0@
1B
0F
0E
1G
1*
0(
0A
0B
1@
0G
0*
0)
1(
0@
0(
#6031250
1$
1=
1S
1U
1[
1D
1C
1+
#6062500
0$
1#
0=
1<
1O
0S
0U
1V
1W
0[
1_
1`
0D
0C
0+
1E
1B
1*
#6093750
1$
1=
1S
1U
1[
1D
1C
1+
#6125000
0$
0#
1"
0=
0<
1;
1N
0O
0S
0U
1Q
0V
1\
1]
0W
0[
0_
1a
0`
0D
0C
1F
0+
1A
0E
1)
0B
0*
#6156250
1$
1=
1S
1U
1[
1D
1C
1+
#6187500
0$
1#
0=
1<
1O
0S
0U
1V
1W
0[
1_
1`
0D
0C
0+
1E
1B
1*
#6218750
1$
1=
1S
1U
1[
1D
1C
1+
#6250000
0$
0#
0"
1!
0=
0<
0;
1:
1J
0N
0O
0S
0Q
0V
0\
0U
1X
1Y
0[
0]
0W
0_
0a
1Z
1b
0`
0D
0C
0F
0+
0A
0E
1G
0)
0B
1@
0*
1(
#6281250
1$
1=
1S
1U
1[
1D
1C
1+
#6312500
0$
1#
0=
1<
1O
0S
0U
1V
1W
0[
1_
1`
0D
0C
0+
1E
1B
1*
#6343750
1$
1=
1S
1U
1[
1D
1C
1+
#6375000
0$
0#
1"
0=
0<
1;
1N
0O
0S
0U
1Q
0V
1\
1]
0W
0[
0_
1a
0`
0D
0C
1F
0+
1A
0E
1)
0B
0*
#6406250
1$
1=
1S
1U
1[
1D
1C
1+
#6437500
0$
1#
0=
1<
1O
0S
0U
1V
1W
0[
1_
1`
0D
0C
0+
1E
1B
1*
#6468750
1$
1=
1S
1U
1[
1D
1C
1+
#6500000
0$
0#
0"
0!
1'
0=
0<
0;
0:
1?
1P
0J
0N
0O
0S
0\
0U
0X
0Q
1T
0V
0W
0Y
0Z
0_
0[
0]
0`
0a
0b
0D
0C
0G
0F
0E
0+
0@
0A
0B
0*
0)
0(
#6531250
1$
1=
1S
1W
1_
1`
1E
1B
1*
#6562500
0$
1#
0=
1<
1O
0S
0W
1Q
1\
1]
0_
0`
1a
1F
0E
1A
0B
0*
1)
#6593750
1$
1=
1S
1W
1_
1`
1E
1B
1*
#6625000
0$
0#
1"
0=
0<
1;
1N
0O
0S
0W
0Q
0\
0]
0_
0`
0a
0F
0E
0A
0B
0*
0)
#6656250
1$
1=
1S
1W
1_
1`
1E
1B
1*
#6687500
0$
1#
0=
1<
1O
0S
0W
1Q
1\
1]
0_
0`
1a
1F
0E
1A
0B
0*
1)
#6718750
1$
1=
1S
1W
1_
1`
1E
1B
1*
#6750000
0$
0#
0"
1!
0=
0<
0;
1:
1J
0N
0O
0S
0Q
0\
1U
0W
1X
0_
1[
0]
0`
0a
1D
1C
0F
0E
1+
0A
0B
0*
0)
#6781250
1$
1=
1S
1W
1_
1`
1E
1B
1*
#6812500
0$
1#
0=
1<
1O
0S
0W
1Q
1\
1]
0_
0`
1a
1F
0E
1A
0B
0*
1)
#6843750
1$
1=
1S
1W
1_
1`
1E
1B
1*
#6875000
0$
0#
1"
0=
0<
1;
1N
0O
0S
0W
0Q
0\
0]
0_
0`
0a
0F
0E
0A
0B
0*
0)
#6906250
1$
1=
1S
1W
1_
1`
1E
1B
1*
#6937500
0$
1#
0=
1<
1O
0S
0W
1Q
1\
1]
0_
0`
1a
1F
0E
1A
0B
0*
1)
#6968750
1$
1=
1S
1W
1_
1`
1E
1B
1*
#7000000
0$
0#
0"
0!
0'
1&
0=
0<
0;
0:
0?
1>
1H
0P
0J
0N
0O
0S
0X
0Q
0T
0W
1Y
0U
1Z
0]
0_
0`
0a
0[
1b
0Z
0\
0Y
0b
1G
0D
0F
0E
1@
0C
0A
0B
0G
0+
0*
0)
1(
0@
0(
#7031250
1$
1=
1S
1]
1a
1F
1A
1)
#7062500
0$
1#
0=
1<
1O
0S
0]
1V
1W
0a
1Z
1b
0F
0A
0)
1G
1@
1(
#7093750
1$
1=
1S
1]
1a
1F
1A
1)
#7125000
0$
0#
1"
0=
0<
1;
1N
0O
0S
0]
1Q
0V
0W
0a
0Z
0b
0F
0A
0)
0G
0@
0(
#7156250
1$
1=
1S
1]
1a
1F
1A
1)
#7187500
0$
1#
0=
1<
1O
0S
0]
1V
1W
0a
1Z
1b
0F
0A
0)
1G
1@
1(
#7218750
1$
1=
1S
1]
1a
1F
1A
1)
#7250000
0$
0#
0"
1!
0=
0<
0;
1:
1J
0N
0O
0S
0Q
0V
1X
0]
0a
1Y
0W
0Z
0b
0F
0A
0)
0G
0@
0(
#7281250
1$
1=
1S
1]
1a
1F
1A
1)
#7312500
0$
1#
0=
1<
1O
0S
0]
1V
1W
0a
1Z
1b
0F
0A
0)
1G
1@
1(
#7343750
1$
1=
1S
1]
1a
1F
1A
1)
#7375000
0$
0#
1"
0=
0<
1;
1N
0O
0S
0]
1Q
0V
0W
0a
0Z
0b
0F
0A
0)
0G
0@
0(
#7406250
1$
1=
1S
1]
1a
1F
1A
1)
#7437500
0$
1#
0=
1<
1O
0S
0]
1V
1W
0a
1Z
1b
0F
0A
0)
1G
1@
1(
#7468750
1$
1=
1S
1]
1a
1F
1A
1)
