Lab 1/lab1_task2/simulation/qsim/lab1_task2.msim.vcd
$comment
	File created using the following command:
		vcd file lab1_task2.msim.vcd -direction
$end
$date
	Wed Feb 07 09:51:28 2018
$end
$version
	ModelSim Version 10.5b
$end
$timescale
	1ps
$end

$scope module compare_2bit_vector_vhd_vec_tst $end
$var wire 1 ! A [1] $end
$var wire 1 " A [0] $end
$var wire 1 # B [1] $end
$var wire 1 $ B [0] $end
$var wire 1 % LG [1] $end
$var wire 1 & LG [0] $end

$scope module i1 $end
$var wire 1 ' gnd $end
$var wire 1 ( vcc $end
$var wire 1 ) unknown $end
$var wire 1 * devoe $end
$var wire 1 + devclrn $end
$var wire 1 , devpor $end
$var wire 1 - ww_devoe $end
$var wire 1 . ww_devclrn $end
$var wire 1 / ww_devpor $end
$var wire 1 0 ww_A [1] $end
$var wire 1 1 ww_A [0] $end
$var wire 1 2 ww_B [1] $end
$var wire 1 3 ww_B [0] $end
$var wire 1 4 ww_LG [1] $end
$var wire 1 5 ww_LG [0] $end
$var wire 1 6 \LG[0]~output_o\ $end
$var wire 1 7 \LG[1]~output_o\ $end
$var wire 1 8 \A[0]~input_o\ $end
$var wire 1 9 \B[1]~input_o\ $end
$var wire 1 : \B[0]~input_o\ $end
$var wire 1 ; \A[1]~input_o\ $end
$var wire 1 < \LG~0_combout\ $end
$var wire 1 = \LG~1_combout\ $end
$upscope $end
$upscope $end
$enddefinitions $end
#0
$dumpvars
0'
1(
x)
1*
1+
1,
1-
1.
1/
06
07
x8
x9
x:
x;
x<
x=
0!
0"
0#
0$
0%
0&
00
01
02
03
04
05
$end
#735
08
0;
#745
0:
#755
09
#3444
x7
x4
x%
#3450
x6
x5
x&
#4196
0<
#4734
0=
#7557
06
05
0&
#8092
07
04
0%
#62500
1$
13
#63139
1:
#66485
1=
#69929
17
14
1%
#125000
0$
1#
03
12
#125649
19
#125745
0:
#187500
1$
13
#188139
1:
#250000
0$
0#
1"
03
02
11
#250629
18
#250745
0:
#250755
09
#254734
0=
#254750
1<
#258092
07
04
0%
#258200
16
15
1&
#312500
1$
13
#313139
1:
#316479
0<
#319840
06
05
0&
#375000
0$
1#
03
12
#375649
19
#375745
0:
#379351
1=
#382795
17
14
1%
#437500
1$
13
#438139
1:
#500000
0$
0#
0"
1!
03
02
01
10
#500629
1;
#500735
08
#500745
0:
#500755
09
#503832
0=
#504750
1<
#507190
07
04
0%
#508200
16
15
1&
#562500
1$
13
#563139
1:
#625000
0$
1#
03
12
#625649
19
#625745
0:
#629344
0<
#632705
06
05
0&
#687500
1$
13
#688139
1:
#691485
1=
#694929
17
14
1%
#750000
0$
0#
1"
03
02
11
#750629
18
#750745
0:
#750755
09
#754064
0=
#754349
1<
#757422
07
04
0%
#757799
16
15
1&
#812500
1$
13
#813139
1:
#875000
0$
1#
03
12
#875649
19
#875745
0:
#937500
1$
13
#938139
1:
#941479
0<
#944840
06
05
0&
