Lab4/lab4_task4/simulation/qsim/lab4_task4.msim.vcd
$comment
	File created using the following command:
		vcd file lab4_task4.msim.vcd -direction
$end
$date
	Fri Mar 02 19:20:55 2018
$end
$version
	ModelSim Version 10.5b
$end
$timescale
	1ps
$end

$scope module sel_arbiter_nbit_vhd_vec_tst $end
$var wire 1 ! gnt [3] $end
$var wire 1 " gnt [2] $end
$var wire 1 # gnt [1] $end
$var wire 1 $ gnt [0] $end
$var wire 1 % msb $end
$var wire 1 & req [3] $end
$var wire 1 ' req [2] $end
$var wire 1 ( req [1] $end
$var wire 1 ) req [0] $end
$var wire 1 * zero $end

$scope module i1 $end
$var wire 1 + gnd $end
$var wire 1 , vcc $end
$var wire 1 - unknown $end
$var wire 1 . devoe $end
$var wire 1 / devclrn $end
$var wire 1 0 devpor $end
$var wire 1 1 ww_devoe $end
$var wire 1 2 ww_devclrn $end
$var wire 1 3 ww_devpor $end
$var wire 1 4 ww_msb $end
$var wire 1 5 ww_req [3] $end
$var wire 1 6 ww_req [2] $end
$var wire 1 7 ww_req [1] $end
$var wire 1 8 ww_req [0] $end
$var wire 1 9 ww_gnt [3] $end
$var wire 1 : ww_gnt [2] $end
$var wire 1 ; ww_gnt [1] $end
$var wire 1 < ww_gnt [0] $end
$var wire 1 = ww_zero $end
$var wire 1 > \gnt[0]~output_o\ $end
$var wire 1 ? \gnt[1]~output_o\ $end
$var wire 1 @ \gnt[2]~output_o\ $end
$var wire 1 A \gnt[3]~output_o\ $end
$var wire 1 B \zero~output_o\ $end
$var wire 1 C \req[0]~input_o\ $end
$var wire 1 D \msb~input_o\ $end
$var wire 1 E \req[3]~input_o\ $end
$var wire 1 F \req[2]~input_o\ $end
$var wire 1 G \req[1]~input_o\ $end
$var wire 1 H \a[0]~0_combout\ $end
$var wire 1 I \gnt~0_combout\ $end
$var wire 1 J \gnt~1_combout\ $end
$var wire 1 K \gnt~2_combout\ $end
$var wire 1 L \gnt~3_combout\ $end
$var wire 1 M \gnt~4_combout\ $end
$var wire 1 N \gnt~5_combout\ $end
$var wire 1 O \zero~0_combout\ $end
$var wire 1 P \ALT_INV_zero~0_combout\ $end
$upscope $end
$upscope $end
$enddefinitions $end
#0
$dumpvars
0%
1*
0+
1,
x-
1.
1/
10
11
12
13
04
1=
0>
0?
0@
0A
1B
0C
0D
0E
0F
0G
1H
0I
0J
0K
0L
0M
0N
0O
1P
0&
0'
0(
0)
05
06
07
08
09
0:
0;
0<
0!
0"
0#
0$
$end
#62500
1)
18
1C
1I
1O
0P
1>
0B
1<
0=
1$
0*
#125000
0)
1(
08
17
1G
0C
0I
0O
0H
1K
1P
1O
0P
1?
0>
1B
1;
0<
1=
0$
1#
0B
1*
0=
0*
#187500
1)
18
1C
1I
0K
0?
1>
0;
1<
1$
0#
#250000
0)
0(
1'
08
07
16
1F
0G
0C
0I
1L
1M
0>
0<
1@
0$
1:
1"
#312500
1)
18
1C
1I
0L
0M
1>
1<
0@
1$
0:
0"
#375000
0)
1(
08
17
1G
0C
0I
1K
1?
0>
1;
0<
0$
1#
#437500
1)
18
1C
1I
0K
0?
1>
0;
1<
1$
0#
#500000
0)
0(
0'
1%
1&
08
07
06
15
14
1D
1E
0F
0G
0C
0I
1N
1A
0>
19
0<
0$
1!
#562500
1)
18
1C
#625000
0)
1(
08
17
1G
0C
#687500
1)
18
1C
#750000
0)
0(
1'
08
07
16
1F
0G
0C
#812500
1)
18
1C
#875000
0)
1(
08
17
1G
0C
#937500
1)
18
1C
