lab6/lab6_task2/simulation/qsim/lab6_task2.msim.vcd
$comment
	File created using the following command:
		vcd file lab6_task2.msim.vcd -direction
$end
$date
	Fri Mar 23 21:33:25 2018
$end
$version
	ModelSim Version 10.5b
$end
$timescale
	1ps
$end

$scope module ones_counter_8to4_vhd_vec_tst $end
$var wire 1 ! x [7] $end
$var wire 1 " x [6] $end
$var wire 1 # x [5] $end
$var wire 1 $ x [4] $end
$var wire 1 % x [3] $end
$var wire 1 & x [2] $end
$var wire 1 ' x [1] $end
$var wire 1 ( x [0] $end
$var wire 1 ) y [3] $end
$var wire 1 * y [2] $end
$var wire 1 + y [1] $end
$var wire 1 , y [0] $end

$scope module i1 $end
$var wire 1 - gnd $end
$var wire 1 . vcc $end
$var wire 1 / unknown $end
$var wire 1 0 devoe $end
$var wire 1 1 devclrn $end
$var wire 1 2 devpor $end
$var wire 1 3 ww_devoe $end
$var wire 1 4 ww_devclrn $end
$var wire 1 5 ww_devpor $end
$var wire 1 6 ww_x [7] $end
$var wire 1 7 ww_x [6] $end
$var wire 1 8 ww_x [5] $end
$var wire 1 9 ww_x [4] $end
$var wire 1 : ww_x [3] $end
$var wire 1 ; ww_x [2] $end
$var wire 1 < ww_x [1] $end
$var wire 1 = ww_x [0] $end
$var wire 1 > ww_y [3] $end
$var wire 1 ? ww_y [2] $end
$var wire 1 @ ww_y [1] $end
$var wire 1 A ww_y [0] $end
$var wire 1 B \y[0]~output_o\ $end
$var wire 1 C \y[1]~output_o\ $end
$var wire 1 D \y[2]~output_o\ $end
$var wire 1 E \y[3]~output_o\ $end
$var wire 1 F \x[2]~input_o\ $end
$var wire 1 G \x[3]~input_o\ $end
$var wire 1 H \x[4]~input_o\ $end
$var wire 1 I \FA1|sum~0_combout\ $end
$var wire 1 J \x[0]~input_o\ $end
$var wire 1 K \x[1]~input_o\ $end
$var wire 1 L \x[5]~input_o\ $end
$var wire 1 M \x[6]~input_o\ $end
$var wire 1 N \x[7]~input_o\ $end
$var wire 1 O \FA2|sum~0_combout\ $end
$var wire 1 P \FA3|sum~0_combout\ $end
$var wire 1 Q \FA3|cout~0_combout\ $end
$var wire 1 R \FA2|cout~0_combout\ $end
$var wire 1 S \FA0|Equal1~0_combout\ $end
$var wire 1 T \FA1|cout~0_combout\ $end
$var wire 1 U \FA5|sum~0_combout\ $end
$var wire 1 V \FA6|sum~0_combout\ $end
$var wire 1 W \FA6|Equal1~0_combout\ $end
$upscope $end
$upscope $end
$enddefinitions $end
#0
$dumpvars
0-
1.
x/
10
11
12
13
14
15
1B
0C
0D
0E
0F
0G
0H
0I
0J
0K
1L
0M
0N
1O
1P
0Q
0R
0S
0T
0U
0V
0W
0!
0"
1#
0$
0%
0&
0'
0(
0)
0*
0+
1,
06
07
18
09
0:
0;
0<
0=
0>
0?
0@
1A
$end
#31250
1(
1=
1J
0P
1Q
1U
0B
0A
1C
0,
1@
1+
#62500
0(
1'
0=
1<
1K
0J
#93750
1(
1=
1J
1P
0Q
1S
1B
1A
1,
#125000
0(
0'
1&
0=
0<
1;
1F
0K
0J
0S
1I
0P
1Q
0U
1U
0C
0B
0@
0A
1C
0,
0+
1@
1+
#156250
1(
1=
1J
1P
1B
1A
1,
#187500
0(
1'
0=
1<
1K
0J
#218750
1(
1=
1J
0P
1S
0U
1V
0B
0A
1D
0C
0,
1?
0@
0+
1*
#250000
0(
0'
0&
1%
0=
0<
0;
1:
1G
0F
0K
0J
0S
1U
0V
0D
1C
0?
1@
1+
0*
#281250
1(
1=
1J
1P
1B
1A
1,
#312500
0(
1'
0=
1<
1K
0J
#343750
1(
1=
1J
0P
1S
0U
1V
0B
0A
1D
0C
0,
1?
0@
0+
1*
#375000
0(
0'
1&
0=
0<
1;
1F
0K
0J
0S
0I
1T
1P
0Q
1U
0V
1B
1A
0D
1C
1,
0?
1@
1+
0*
#406250
1(
1=
1J
0P
1Q
0U
1V
0B
0A
1D
0C
0,
1?
0@
0+
1*
#437500
0(
1'
0=
1<
1K
0J
#468750
1(
1=
1J
1P
0Q
1S
1B
1A
1,
#500000
0(
0'
0&
0%
1$
0=
0<
0;
0:
19
1H
0G
0F
0K
0J
0S
1I
0T
0P
1Q
0V
1U
0D
0B
0?
0A
1C
0,
0*
1@
1+
#531250
1(
1=
1J
1P
1B
1A
1,
#562500
0(
1'
0=
1<
1K
0J
#593750
1(
1=
1J
0P
1S
0U
1V
0B
0A
1D
0C
0,
1?
0@
0+
1*
#625000
0(
0'
1&
0=
0<
1;
1F
0K
0J
0S
0I
1T
1P
0Q
1U
0V
1B
1A
0D
1C
1,
0?
1@
1+
0*
#656250
1(
1=
1J
0P
1Q
0U
1V
0B
0A
1D
0C
0,
1?
0@
0+
1*
#687500
0(
1'
0=
1<
1K
0J
#718750
1(
1=
1J
1P
0Q
1S
1B
1A
1,
#750000
0(
0'
0&
1%
0=
0<
0;
1:
1G
0F
0K
0J
0S
1U
0V
0D
1C
0?
1@
1+
0*
#781250
1(
1=
1J
0P
1Q
0U
1V
0B
0A
1D
0C
0,
1?
0@
0+
1*
#812500
0(
1'
0=
1<
1K
0J
#843750
1(
1=
1J
1P
0Q
1S
1B
1A
1,
#875000
0(
0'
1&
0=
0<
1;
1F
0K
0J
0S
1I
0P
1Q
1U
0V
0U
1V
0D
1C
0B
0?
1@
0A
1D
0C
0,
1+
0*
1?
0@
0+
1*
#906250
1(
1=
1J
1P
1B
1A
1,
#937500
0(
1'
0=
1<
1K
0J
#968750
1(
1=
1J
0P
1S
1U
0B
0A
1C
0,
1@
1+
#1000000
0(
0'
0&
0%
0$
0#
0=
0<
0;
0:
09
08
0L
0H
0G
0F
0K
0J
0S
0I
0T
0O
0Q
0V
0U
0D
0?
0C
0*
0@
0+
#1031250
1(
1=
1J
1P
1B
1A
1,
#1062500
0(
1'
0=
1<
1K
0J
#1093750
1(
1=
1J
0P
1S
1U
0B
0A
1C
0,
1@
1+
#1125000
0(
0'
1&
0=
0<
1;
1F
0K
0J
0S
1I
1P
0U
0C
1B
0@
1A
1,
0+
#1156250
1(
1=
1J
0P
1Q
1U
0B
0A
1C
0,
1@
1+
#1187500
0(
1'
0=
1<
1K
0J
#1218750
1(
1=
1J
1P
0Q
1S
1B
1A
1,
#1250000
0(
0'
0&
1%
0=
0<
0;
1:
1G
0F
0K
0J
0S
0U
0C
0@
0+
#1281250
1(
1=
1J
0P
1Q
1U
0B
0A
1C
0,
1@
1+
#1312500
0(
1'
0=
1<
1K
0J
#1343750
1(
1=
1J
1P
0Q
1S
1B
1A
1,
#1375000
0(
0'
1&
0=
0<
1;
1F
0K
0J
0S
0I
1T
0P
0B
0A
0,
#1406250
1(
1=
1J
1P
1B
1A
1,
#1437500
0(
1'
0=
1<
1K
0J
#1468750
1(
1=
1J
0P
1S
0U
1V
0B
0A
1D
0C
0,
1?
0@
0+
1*
#1500000
0(
0'
0&
0%
1$
0=
0<
0;
0:
19
1H
0G
0F
0K
0J
0S
1I
0T
1P
0V
0D
1B
0?
1A
1,
0*
#1531250
1(
1=
1J
0P
1Q
1U
0B
0A
1C
0,
1@
1+
#1562500
0(
1'
0=
1<
1K
0J
#1593750
1(
1=
1J
1P
0Q
1S
1B
1A
1,
#1625000
0(
0'
1&
0=
0<
1;
1F
0K
0J
0S
0I
1T
0P
0B
0A
0,
#1656250
1(
1=
1J
1P
1B
1A
1,
#1687500
0(
1'
0=
1<
1K
0J
#1718750
1(
1=
1J
0P
1S
0U
1V
0B
0A
1D
0C
0,
1?
0@
0+
1*
#1750000
0(
0'
0&
1%
0=
0<
0;
1:
1G
0F
0K
0J
0S
1U
0V
0D
1C
0?
1@
1+
0*
#1781250
1(
1=
1J
1P
1B
1A
1,
#1812500
0(
1'
0=
1<
1K
0J
#1843750
1(
1=
1J
0P
1S
0U
1V
0B
0A
1D
0C
0,
1?
0@
0+
1*
#1875000
0(
0'
1&
0=
0<
1;
1F
0K
0J
0S
1I
1P
1U
0V
0D
1C
1B
0?
1@
1A
1,
1+
0*
#1906250
1(
1=
1J
0P
1Q
0U
1V
0B
0A
1D
0C
0,
1?
0@
0+
1*
#1937500
0(
1'
0=
1<
1K
0J
#1968750
1(
1=
1J
1P
0Q
1S
1B
1A
1,
#2000000
0(
0'
0&
0%
0$
1#
1"
0=
0<
0;
0:
09
18
17
1M
1L
0H
0G
0F
0K
0J
0S
0I
0T
1R
0P
1U
0V
0D
1C
0B
0?
1@
0A
0,
1+
0*
#2031250
1(
1=
1J
1P
1B
1A
1,
#2062500
0(
1'
0=
1<
1K
0J
#2093750
1(
1=
1J
0P
1S
0U
1V
0B
0A
1D
0C
0,
1?
0@
0+
1*
#2125000
0(
0'
1&
0=
0<
1;
1F
0K
0J
0S
1I
1P
1U
0V
0D
1C
1B
0?
1@
1A
1,
1+
0*
#2156250
1(
1=
1J
0P
1Q
0U
1V
0B
0A
1D
0C
0,
1?
0@
0+
1*
#2187500
0(
1'
0=
1<
1K
0J
#2218750
1(
1=
1J
1P
0Q
1S
1B
1A
1,
#2250000
0(
0'
0&
1%
0=
0<
0;
1:
1G
0F
0K
0J
0S
1U
0V
0D
1C
0?
1@
1+
0*
#2281250
1(
1=
1J
0P
1Q
0U
1V
0B
0A
1D
0C
0,
1?
0@
0+
1*
#2312500
0(
1'
0=
1<
1K
0J
#2343750
1(
1=
1J
1P
0Q
1S
1B
1A
1,
#2375000
0(
0'
1&
0=
0<
1;
1F
0K
0J
0S
0I
1T
0P
0B
0A
0,
#2406250
1(
1=
1J
1P
1B
1A
1,
#2437500
0(
1'
0=
1<
1K
0J
#2468750
1(
1=
1J
0P
1S
1U
0B
0A
1C
0,
1@
1+
#2500000
0(
0'
0&
0%
1$
0=
0<
0;
0:
19
1H
0G
0F
0K
0J
0S
1I
0T
1P
0V
0D
1B
0?
1A
1,
0*
#2531250
1(
1=
1J
0P
1Q
0U
1V
0B
0A
1D
0C
0,
1?
0@
0+
1*
#2562500
0(
1'
0=
1<
1K
0J
#2593750
1(
1=
1J
1P
0Q
1S
1B
1A
1,
#2625000
0(
0'
1&
0=
0<
1;
1F
0K
0J
0S
0I
1T
0P
0B
0A
0,
#2656250
1(
1=
1J
1P
1B
1A
1,
#2687500
0(
1'
0=
1<
1K
0J
#2718750
1(
1=
1J
0P
1S
1U
0B
0A
1C
0,
1@
1+
#2750000
0(
0'
0&
1%
0=
0<
0;
1:
1G
0F
0K
0J
0S
0U
0C
0@
0+
#2781250
1(
1=
1J
1P
1B
1A
1,
#2812500
0(
1'
0=
1<
1K
0J
#2843750
1(
1=
1J
0P
1S
1U
0B
0A
1C
0,
1@
1+
#2875000
0(
0'
1&
0=
0<
1;
1F
0K
0J
0S
1I
1P
0U
0C
1B
0@
1A
1,
0+
#2906250
1(
1=
1J
0P
1Q
1U
0B
0A
1C
0,
1@
1+
#2937500
0(
1'
0=
1<
1K
0J
#2968750
1(
1=
1J
1P
0Q
1S
1B
1A
1,
#3000000
0(
0'
0&
0%
0$
0#
0=
0<
0;
0:
09
08
0L
0H
0G
0F
0K
0J
0S
0I
0T
1O
0R
0U
0V
0D
0C
0?
0@
0+
0*
#3031250
1(
1=
1J
0P
1Q
1U
0B
0A
1C
0,
1@
1+
#3062500
0(
1'
0=
1<
1K
0J
#3093750
1(
1=
1J
1P
0Q
1S
1B
1A
1,
#3125000
0(
0'
1&
0=
0<
1;
1F
0K
0J
0S
1I
0P
1Q
0U
1U
0C
0B
0@
0A
1C
0,
0+
1@
1+
#3156250
1(
1=
1J
1P
1B
1A
1,
#3187500
0(
1'
0=
1<
1K
0J
#3218750
1(
1=
1J
0P
1S
0U
1V
0B
0A
1D
0C
0,
1?
0@
0+
1*
#3250000
0(
0'
0&
1%
0=
0<
0;
1:
1G
0F
0K
0J
0S
1U
0V
0D
1C
0?
1@
1+
0*
#3281250
1(
1=
1J
1P
1B
1A
1,
#3312500
0(
1'
0=
1<
1K
0J
#3343750
1(
1=
1J
0P
1S
0U
1V
0B
0A
1D
0C
0,
1?
0@
0+
1*
#3375000
0(
0'
1&
0=
0<
1;
1F
0K
0J
0S
0I
1T
1P
0Q
1U
0V
1B
1A
0D
1C
1,
0?
1@
1+
0*
#3406250
1(
1=
1J
0P
1Q
0U
1V
0B
0A
1D
0C
0,
1?
0@
0+
1*
#3437500
0(
1'
0=
1<
1K
0J
#3468750
1(
1=
1J
1P
0Q
1S
1B
1A
1,
#3500000
0(
0'
0&
0%
1$
0=
0<
0;
0:
19
1H
0G
0F
0K
0J
0S
1I
0T
0P
1Q
0V
1U
0D
0B
0?
0A
1C
0,
0*
1@
1+
#3531250
1(
1=
1J
1P
1B
1A
1,
#3562500
0(
1'
0=
1<
1K
0J
#3593750
1(
1=
1J
0P
1S
0U
1V
0B
0A
1D
0C
0,
1?
0@
0+
1*
#3625000
0(
0'
1&
0=
0<
1;
1F
0K
0J
0S
0I
1T
1P
0Q
1U
0V
1B
1A
0D
1C
1,
0?
1@
1+
0*
#3656250
1(
1=
1J
0P
1Q
0U
1V
0B
0A
1D
0C
0,
1?
0@
0+
1*
#3687500
0(
1'
0=
1<
1K
0J
#3718750
1(
1=
1J
1P
0Q
1S
1B
1A
1,
#3750000
0(
0'
0&
1%
0=
0<
0;
1:
1G
0F
0K
0J
0S
1U
0V
0D
1C
0?
1@
1+
0*
#3781250
1(
1=
1J
0P
1Q
0U
1V
0B
0A
1D
0C
0,
1?
0@
0+
1*
#3812500
0(
1'
0=
1<
1K
0J
#3843750
1(
1=
1J
1P
0Q
1S
1B
1A
1,
#3875000
0(
0'
1&
0=
0<
1;
1F
0K
0J
0S
1I
0P
1Q
1U
0V
0U
1V
0D
1C
0B
0?
1@
0A
1D
0C
0,
1+
0*
1?
0@
0+
1*
#3906250
1(
1=
1J
1P
1B
1A
1,
#3937500
0(
1'
0=
1<
1K
0J
#3968750
1(
1=
1J
0P
1S
1U
0B
0A
1C
0,
1@
1+
#4000000
0(
0'
0&
0%
0$
1#
0"
1!
0=
0<
0;
0:
09
18
07
16
1N
0M
1L
0H
0G
0F
0K
0J
0S
0I
0T
0O
1R
0Q
0U
1U
0V
0C
0@
0D
1C
0+
0?
1@
1+
0*
#4031250
1(
1=
1J
1P
1B
1A
1,
#4062500
0(
1'
0=
1<
1K
0J
#4093750
1(
1=
1J
0P
1S
0U
1V
0B
0A
1D
0C
0,
1?
0@
0+
1*
#4125000
0(
0'
1&
0=
0<
1;
1F
0K
0J
0S
1I
1P
1U
0V
0D
1C
1B
0?
1@
1A
1,
1+
0*
#4156250
1(
1=
1J
0P
1Q
0U
1V
0B
0A
1D
0C
0,
1?
0@
0+
1*
#4187500
0(
1'
0=
1<
1K
0J
#4218750
1(
1=
1J
1P
0Q
1S
1B
1A
1,
#4250000
0(
0'
0&
1%
0=
0<
0;
1:
1G
0F
0K
0J
0S
1U
0V
0D
1C
0?
1@
1+
0*
#4281250
1(
1=
1J
0P
1Q
0U
1V
0B
0A
1D
0C
0,
1?
0@
0+
1*
#4312500
0(
1'
0=
1<
1K
0J
#4343750
1(
1=
1J
1P
0Q
1S
1B
1A
1,
#4375000
0(
0'
1&
0=
0<
1;
1F
0K
0J
0S
0I
1T
0P
0B
0A
0,
#4406250
1(
1=
1J
1P
1B
1A
1,
#4437500
0(
1'
0=
1<
1K
0J
#4468750
1(
1=
1J
0P
1S
1U
0B
0A
1C
0,
1@
1+
#4500000
0(
0'
0&
0%
1$
0=
0<
0;
0:
19
1H
0G
0F
0K
0J
0S
1I
0T
1P
0V
0D
1B
0?
1A
1,
0*
#4531250
1(
1=
1J
0P
1Q
0U
1V
0B
0A
1D
0C
0,
1?
0@
0+
1*
#4562500
0(
1'
0=
1<
1K
0J
#4593750
1(
1=
1J
1P
0Q
1S
1B
1A
1,
#4625000
0(
0'
1&
0=
0<
1;
1F
0K
0J
0S
0I
1T
0P
0B
0A
0,
#4656250
1(
1=
1J
1P
1B
1A
1,
#4687500
0(
1'
0=
1<
1K
0J
#4718750
1(
1=
1J
0P
1S
1U
0B
0A
1C
0,
1@
1+
#4750000
0(
0'
0&
1%
0=
0<
0;
1:
1G
0F
0K
0J
0S
0U
0C
0@
0+
#4781250
1(
1=
1J
1P
1B
1A
1,
#4812500
0(
1'
0=
1<
1K
0J
#4843750
1(
1=
1J
0P
1S
1U
0B
0A
1C
0,
1@
1+
#4875000
0(
0'
1&
0=
0<
1;
1F
0K
0J
0S
1I
1P
0U
0C
1B
0@
1A
1,
0+
#4906250
1(
1=
1J
0P
1Q
1U
0B
0A
1C
0,
1@
1+
#4937500
0(
1'
0=
1<
1K
0J
#4968750
1(
1=
1J
1P
0Q
1S
1B
1A
1,
#5000000
0(
0'
0&
0%
0$
0#
0=
0<
0;
0:
09
08
0L
0H
0G
0F
0K
0J
0S
0I
0T
1O
0R
0U
0V
0D
0C
0?
0@
0+
0*
#5031250
1(
1=
1J
0P
1Q
1U
0B
0A
1C
0,
1@
1+
#5062500
0(
1'
0=
1<
1K
0J
#5093750
1(
1=
1J
1P
0Q
1S
1B
1A
1,
#5125000
0(
0'
1&
0=
0<
1;
1F
0K
0J
0S
1I
0P
1Q
0U
1U
0C
0B
0@
0A
1C
0,
0+
1@
1+
#5156250
1(
1=
1J
1P
1B
1A
1,
#5187500
0(
1'
0=
1<
1K
0J
#5218750
1(
1=
1J
0P
1S
0U
1V
0B
0A
1D
0C
0,
1?
0@
0+
1*
#5250000
0(
0'
0&
1%
0=
0<
0;
1:
1G
0F
0K
0J
0S
1U
0V
0D
1C
0?
1@
1+
0*
#5281250
1(
1=
1J
1P
1B
1A
1,
#5312500
0(
1'
0=
1<
1K
0J
#5343750
1(
1=
1J
0P
1S
0U
1V
0B
0A
1D
0C
0,
1?
0@
0+
1*
#5375000
0(
0'
1&
0=
0<
1;
1F
0K
0J
0S
0I
1T
1P
0Q
1U
0V
1B
1A
0D
1C
1,
0?
1@
1+
0*
#5406250
1(
1=
1J
0P
1Q
0U
1V
0B
0A
1D
0C
0,
1?
0@
0+
1*
#5437500
0(
1'
0=
1<
1K
0J
#5468750
1(
1=
1J
1P
0Q
1S
1B
1A
1,
#5500000
0(
0'
0&
0%
1$
0=
0<
0;
0:
19
1H
0G
0F
0K
0J
0S
1I
0T
0P
1Q
0V
1U
0D
0B
0?
0A
1C
0,
0*
1@
1+
#5531250
1(
1=
1J
1P
1B
1A
1,
#5562500
0(
1'
0=
1<
1K
0J
#5593750
1(
1=
1J
0P
1S
0U
1V
0B
0A
1D
0C
0,
1?
0@
0+
1*
#5625000
0(
0'
1&
0=
0<
1;
1F
0K
0J
0S
0I
1T
1P
0Q
1U
0V
1B
1A
0D
1C
1,
0?
1@
1+
0*
#5656250
1(
1=
1J
0P
1Q
0U
1V
0B
0A
1D
0C
0,
1?
0@
0+
1*
#5687500
0(
1'
0=
1<
1K
0J
#5718750
1(
1=
1J
1P
0Q
1S
1B
1A
1,
#5750000
0(
0'
0&
1%
0=
0<
0;
1:
1G
0F
0K
0J
0S
1U
0V
0D
1C
0?
1@
1+
0*
#5781250
1(
1=
1J
0P
1Q
0U
1V
0B
0A
1D
0C
0,
1?
0@
0+
1*
#5812500
0(
1'
0=
1<
1K
0J
#5843750
1(
1=
1J
1P
0Q
1S
1B
1A
1,
#5875000
0(
0'
1&
0=
0<
1;
1F
0K
0J
0S
1I
0P
1Q
1U
0V
0U
1V
0D
1C
0B
0?
1@
0A
1D
0C
0,
1+
0*
1?
0@
0+
1*
#5906250
1(
1=
1J
1P
1B
1A
1,
#5937500
0(
1'
0=
1<
1K
0J
#5968750
1(
1=
1J
0P
1S
1U
0B
0A
1C
0,
1@
1+
#6000000
0(
0'
0&
0%
0$
1#
1"
0=
0<
0;
0:
09
18
17
1M
1L
0H
0G
0F
0K
0J
0S
0I
0T
1R
1P
0Q
0U
1U
0V
0C
1B
0@
1A
0D
1C
1,
0+
0?
1@
1+
0*
#6031250
1(
1=
1J
0P
1Q
0U
1V
0B
0A
1D
0C
0,
1?
0@
0+
1*
#6062500
0(
1'
0=
1<
1K
0J
#6093750
1(
1=
1J
1P
0Q
1S
1B
1A
1,
#6125000
0(
0'
1&
0=
0<
1;
1F
0K
0J
0S
1I
0P
1Q
1U
0V
0U
1V
0D
1C
0B
0?
1@
0A
1D
0C
0,
1+
0*
1?
0@
0+
1*
#6156250
1(
1=
1J
1P
1B
1A
1,
#6187500
0(
1'
0=
1<
1K
0J
#6218750
1(
1=
1J
0P
1S
1U
0B
0A
1C
0,
1@
1+
#6250000
0(
0'
0&
1%
0=
0<
0;
1:
1G
0F
0K
0J
0S
0U
0C
0@
0+
#6281250
1(
1=
1J
1P
1B
1A
1,
#6312500
0(
1'
0=
1<
1K
0J
#6343750
1(
1=
1J
0P
1S
1U
0B
0A
1C
0,
1@
1+
#6375000
0(
0'
1&
0=
0<
1;
1F
0K
0J
0S
0I
1T
1P
0Q
0U
1B
1A
0C
1,
0@
0+
#6406250
1(
1=
1J
0P
1Q
1U
0B
0A
1C
0,
1@
1+
#6437500
0(
1'
0=
1<
1K
0J
#6468750
1(
1=
1J
1P
0Q
1S
1B
1A
1,
#6500000
0(
0'
0&
0%
1$
0=
0<
0;
0:
19
1H
0G
0F
0K
0J
0S
1I
0T
0P
1Q
0V
0U
1V
0D
0B
0?
0A
1D
0C
0,
0*
1?
0@
0+
1*
#6531250
1(
1=
1J
1P
1B
1A
1,
#6562500
0(
1'
0=
1<
1K
0J
#6593750
1(
1=
1J
0P
1S
1U
0B
0A
1C
0,
1@
1+
#6625000
0(
0'
1&
0=
0<
1;
1F
0K
0J
0S
0I
1T
1P
0Q
0U
1B
1A
0C
1,
0@
0+
#6656250
1(
1=
1J
0P
1Q
1U
0B
0A
1C
0,
1@
1+
#6687500
0(
1'
0=
1<
1K
0J
#6718750
1(
1=
1J
1P
0Q
1S
1B
1A
1,
#6750000
0(
0'
0&
1%
0=
0<
0;
1:
1G
0F
0K
0J
0S
0U
0C
0@
0+
#6781250
1(
1=
1J
0P
1Q
1U
0B
0A
1C
0,
1@
1+
#6812500
0(
1'
0=
1<
1K
0J
#6843750
1(
1=
1J
1P
0Q
1S
1B
1A
1,
#6875000
0(
0'
1&
0=
0<
1;
1F
0K
0J
0S
1I
0P
1Q
0U
1U
0C
0B
0@
0A
1C
0,
0+
1@
1+
#6906250
1(
1=
1J
1P
1B
1A
1,
#6937500
0(
1'
0=
1<
1K
0J
#6968750
1(
1=
1J
0P
1S
0U
0V
1W
0B
0A
1E
0D
0C
0,
1>
0?
0@
0+
0*
1)
#7000000
0(
0'
0&
0%
0$
0#
0=
0<
0;
0:
09
08
0L
0H
0G
0F
0K
0J
0S
0I
0T
0O
0Q
1V
0W
1U
0V
0E
1D
0>
1?
0D
1C
1*
0)
0?
1@
1+
0*
#7031250
1(
1=
1J
1P
1B
1A
1,
#7062500
0(
1'
0=
1<
1K
0J
#7093750
1(
1=
1J
0P
1S
0U
1V
0B
0A
1D
0C
0,
1?
0@
0+
1*
#7125000
0(
0'
1&
0=
0<
1;
1F
0K
0J
0S
1I
1P
1U
0V
0D
1C
1B
0?
1@
1A
1,
1+
0*
#7156250
1(
1=
1J
0P
1Q
0U
1V
0B
0A
1D
0C
0,
1?
0@
0+
1*
#7187500
0(
1'
0=
1<
1K
0J
#7218750
1(
1=
1J
1P
0Q
1S
1B
1A
1,
#7250000
0(
0'
0&
1%
0=
0<
0;
1:
1G
0F
0K
0J
0S
1U
0V
0D
1C
0?
1@
1+
0*
#7281250
1(
1=
1J
0P
1Q
0U
1V
0B
0A
1D
0C
0,
1?
0@
0+
1*
#7312500
0(
1'
0=
1<
1K
0J
#7343750
1(
1=
1J
1P
0Q
1S
1B
1A
1,
#7375000
0(
0'
1&
0=
0<
1;
1F
0K
0J
0S
0I
1T
0P
0B
0A
0,
#7406250
1(
1=
1J
1P
1B
1A
1,
#7437500
0(
1'
0=
1<
1K
0J
#7468750
1(
1=
1J
0P
1S
1U
0B
0A
1C
0,
1@
1+
#7500000
0(
0'
0&
0%
1$
0=
0<
0;
0:
19
1H
0G
0F
0K
0J
0S
1I
0T
1P
0V
0D
1B
0?
1A
1,
0*
#7531250
1(
1=
1J
0P
1Q
0U
1V
0B
0A
1D
0C
0,
1?
0@
0+
1*
#7562500
0(
1'
0=
1<
1K
0J
#7593750
1(
1=
1J
1P
0Q
1S
1B
1A
1,
#7625000
0(
0'
1&
0=
0<
1;
1F
0K
0J
0S
0I
1T
0P
0B
0A
0,
#7656250
1(
1=
1J
1P
1B
1A
1,
#7687500
0(
1'
0=
1<
1K
0J
#7718750
1(
1=
1J
0P
1S
1U
0B
0A
1C
0,
1@
1+
#7750000
0(
0'
0&
1%
0=
0<
0;
1:
1G
0F
0K
0J
0S
0U
0C
0@
0+
#7781250
1(
1=
1J
1P
1B
1A
1,
#7812500
0(
1'
0=
1<
1K
0J
#7843750
1(
1=
1J
0P
1S
1U
0B
0A
1C
0,
1@
1+
#7875000
0(
0'
1&
0=
0<
1;
1F
0K
0J
0S
1I
1P
0U
0C
1B
0@
1A
1,
0+
#7906250
1(
1=
1J
0P
1Q
1U
0B
0A
1C
0,
1@
1+
#7937500
0(
1'
0=
1<
1K
0J
#7968750
1(
1=
1J
1P
0Q
1S
1B
1A
1,
