Lab 5/lab5_task2/simulation/qsim/lab5_task2.msim.vcd
$comment
	File created using the following command:
		vcd file lab5_task2.msim.vcd -direction
$end
$date
	Fri Mar 09 21:45:58 2018
$end
$version
	ModelSim Version 10.5b
$end
$timescale
	1ps
$end

$scope module bin_to_therm_decoder_4to15_vhd_vec_tst $end
$var wire 1 ! bin [3] $end
$var wire 1 " bin [2] $end
$var wire 1 # bin [1] $end
$var wire 1 $ bin [0] $end
$var wire 1 % therm [14] $end
$var wire 1 & therm [13] $end
$var wire 1 ' therm [12] $end
$var wire 1 ( therm [11] $end
$var wire 1 ) therm [10] $end
$var wire 1 * therm [9] $end
$var wire 1 + therm [8] $end
$var wire 1 , therm [7] $end
$var wire 1 - therm [6] $end
$var wire 1 . therm [5] $end
$var wire 1 / therm [4] $end
$var wire 1 0 therm [3] $end
$var wire 1 1 therm [2] $end
$var wire 1 2 therm [1] $end
$var wire 1 3 therm [0] $end

$scope module i1 $end
$var wire 1 4 gnd $end
$var wire 1 5 vcc $end
$var wire 1 6 unknown $end
$var wire 1 7 devoe $end
$var wire 1 8 devclrn $end
$var wire 1 9 devpor $end
$var wire 1 : ww_devoe $end
$var wire 1 ; ww_devclrn $end
$var wire 1 < ww_devpor $end
$var wire 1 = ww_bin [3] $end
$var wire 1 > ww_bin [2] $end
$var wire 1 ? ww_bin [1] $end
$var wire 1 @ ww_bin [0] $end
$var wire 1 A ww_therm [14] $end
$var wire 1 B ww_therm [13] $end
$var wire 1 C ww_therm [12] $end
$var wire 1 D ww_therm [11] $end
$var wire 1 E ww_therm [10] $end
$var wire 1 F ww_therm [9] $end
$var wire 1 G ww_therm [8] $end
$var wire 1 H ww_therm [7] $end
$var wire 1 I ww_therm [6] $end
$var wire 1 J ww_therm [5] $end
$var wire 1 K ww_therm [4] $end
$var wire 1 L ww_therm [3] $end
$var wire 1 M ww_therm [2] $end
$var wire 1 N ww_therm [1] $end
$var wire 1 O ww_therm [0] $end
$var wire 1 P \therm[0]~output_o\ $end
$var wire 1 Q \therm[1]~output_o\ $end
$var wire 1 R \therm[2]~output_o\ $end
$var wire 1 S \therm[3]~output_o\ $end
$var wire 1 T \therm[4]~output_o\ $end
$var wire 1 U \therm[5]~output_o\ $end
$var wire 1 V \therm[6]~output_o\ $end
$var wire 1 W \therm[7]~output_o\ $end
$var wire 1 X \therm[8]~output_o\ $end
$var wire 1 Y \therm[9]~output_o\ $end
$var wire 1 Z \therm[10]~output_o\ $end
$var wire 1 [ \therm[11]~output_o\ $end
$var wire 1 \ \therm[12]~output_o\ $end
$var wire 1 ] \therm[13]~output_o\ $end
$var wire 1 ^ \therm[14]~output_o\ $end
$var wire 1 _ \bin[3]~input_o\ $end
$var wire 1 ` \bin[2]~input_o\ $end
$var wire 1 a \bin[1]~input_o\ $end
$var wire 1 b \bin[0]~input_o\ $end
$var wire 1 c \Equal0~0_combout\ $end
$var wire 1 d \therm~42_combout\ $end
$var wire 1 e \therm~50_combout\ $end
$var wire 1 f \therm~51_combout\ $end
$var wire 1 g \therm~52_combout\ $end
$var wire 1 h \therm~54_combout\ $end
$var wire 1 i \therm~53_combout\ $end
$var wire 1 j \therm~43_combout\ $end
$var wire 1 k \therm~44_combout\ $end
$var wire 1 l \therm~48_combout\ $end
$var wire 1 m \therm~45_combout\ $end
$var wire 1 n \therm~49_combout\ $end
$var wire 1 o \therm~46_combout\ $end
$var wire 1 p \therm~47_combout\ $end
$var wire 1 q \ALT_INV_therm~51_combout\ $end
$var wire 1 r \ALT_INV_therm~50_combout\ $end
$var wire 1 s \ALT_INV_therm~49_combout\ $end
$var wire 1 t \ALT_INV_therm~47_combout\ $end
$var wire 1 u \ALT_INV_therm~44_combout\ $end
$var wire 1 v \ALT_INV_therm~42_combout\ $end
$var wire 1 w \ALT_INV_Equal0~0_combout\ $end
$upscope $end
$upscope $end
$enddefinitions $end
#0
$dumpvars
04
15
x6
17
18
19
1:
1;
1<
0P
0Q
0R
0S
0T
0U
0V
0W
0X
0Y
0Z
0[
0\
0]
0^
0_
0`
0a
0b
1c
1d
1e
1f
0g
0h
0i
0j
1k
0l
0m
1n
0o
1p
0q
0r
0s
0t
0u
0v
0w
0!
0"
0#
0$
0%
0&
0'
0(
0)
0*
0+
0,
0-
0.
0/
00
01
02
03
0=
0>
0?
0@
0A
0B
0C
0D
0E
0F
0G
0H
0I
0J
0K
0L
0M
0N
0O
$end
#62500
1$
1@
1b
0c
1w
1P
1O
13
#125000
0$
1#
0@
1?
1a
0b
0d
1v
1Q
1N
12
#187500
1$
1@
1b
0e
1r
1R
1M
11
#250000
0$
0#
1"
0@
0?
1>
1`
0a
0b
0f
1q
1S
1L
10
#312500
1$
1@
1b
1g
1T
1K
1/
#375000
0$
1#
0@
1?
1a
0b
1h
1U
1J
1.
#437500
1$
1@
1b
1i
1V
1I
1-
#500000
0$
0#
0"
1!
0@
0?
0>
1=
1_
0`
0a
0b
1W
1H
1,
#562500
1$
1@
1b
1j
1X
1G
1+
#625000
0$
1#
0@
1?
1a
0b
0k
1u
1Y
1F
1*
#687500
1$
1@
1b
1l
1Z
1E
1)
#750000
0$
0#
1"
0@
0?
1>
1`
0a
0b
1m
1[
1D
1(
#812500
1$
1@
1b
0n
1s
1\
1C
1'
#875000
0$
1#
0@
1?
1a
0b
1o
1]
1B
1&
#937500
1$
1@
1b
0p
1t
1^
1A
1%
