lab6/lab6_task3/simulation/qsim/lab6_task3.msim.vcd
$comment
	File created using the following command:
		vcd file lab6_task3.msim.vcd -direction
$end
$date
	Fri Mar 23 21:50:11 2018
$end
$version
	ModelSim Version 10.5b
$end
$timescale
	1ps
$end

$scope module rc_asu_nbit_vhd_vec_tst $end
$var wire 1 ! arith $end
$var wire 1 " ovf $end
$var wire 1 # r [1] $end
$var wire 1 $ r [0] $end
$var wire 1 % sub $end
$var wire 1 & x [1] $end
$var wire 1 ' x [0] $end
$var wire 1 ( y [1] $end
$var wire 1 ) y [0] $end

$scope module i1 $end
$var wire 1 * gnd $end
$var wire 1 + vcc $end
$var wire 1 , unknown $end
$var wire 1 - devoe $end
$var wire 1 . devclrn $end
$var wire 1 / devpor $end
$var wire 1 0 ww_devoe $end
$var wire 1 1 ww_devclrn $end
$var wire 1 2 ww_devpor $end
$var wire 1 3 ww_arith $end
$var wire 1 4 ww_sub $end
$var wire 1 5 ww_x [1] $end
$var wire 1 6 ww_x [0] $end
$var wire 1 7 ww_y [1] $end
$var wire 1 8 ww_y [0] $end
$var wire 1 9 ww_ovf $end
$var wire 1 : ww_r [1] $end
$var wire 1 ; ww_r [0] $end
$var wire 1 < \ovf~output_o\ $end
$var wire 1 = \r[0]~output_o\ $end
$var wire 1 > \r[1]~output_o\ $end
$var wire 1 ? \x[0]~input_o\ $end
$var wire 1 @ \sub~input_o\ $end
$var wire 1 A \y[0]~input_o\ $end
$var wire 1 B \FA|cout~0_combout\ $end
$var wire 1 C \x[1]~input_o\ $end
$var wire 1 D \arith~input_o\ $end
$var wire 1 E \ovf~0_combout\ $end
$var wire 1 F \y[1]~input_o\ $end
$var wire 1 G \ovf~1_combout\ $end
$var wire 1 H \FA|sum~0_combout\ $end
$var wire 1 I \RCA:1:FA|sum~combout\ $end
$upscope $end
$upscope $end
$enddefinitions $end
#0
$dumpvars
0!
0"
0%
0*
1+
x,
1-
1.
1/
10
11
12
03
04
09
0<
0=
0>
0?
0@
0A
0B
0C
0D
0E
0F
0G
0H
0I
0&
0'
0(
0)
05
06
07
08
0:
0;
0#
0$
$end
#31250
1)
18
1A
1H
1=
1;
1$
#62250
1(
17
1F
1I
1>
1:
1#
#62500
0)
08
0A
0H
0=
0;
0$
#93750
1)
18
1A
1H
1=
1;
1$
#124500
0(
07
0F
0I
0>
0:
0#
#125000
0)
1'
08
16
1?
0A
#156250
1)
18
1A
1B
0H
1E
1I
0=
0;
1>
0$
1:
1#
#186750
1(
17
1F
1G
0I
0>
1<
0:
19
0#
1"
#187500
0)
08
0A
0B
1H
0E
1I
0G
1=
1;
1>
1$
1:
0<
1#
09
0"
#218750
1)
18
1A
1B
0H
1E
0I
1G
0=
0;
0>
0$
0:
1<
0#
19
1"
#249000
0(
07
0F
0G
1I
1>
0<
1:
09
1#
0"
#250000
0)
0'
1&
08
06
15
1C
0?
0A
0B
1G
0I
0E
1I
0G
0>
1<
0:
19
1>
0#
1"
1:
0<
1#
09
0"
#281250
1)
18
1A
1H
1=
1;
1$
#311250
1(
17
1F
1G
0I
0>
1<
0:
19
0#
1"
#312500
0)
08
0A
0H
0=
0;
0$
#343750
1)
18
1A
1H
1=
1;
1$
#373500
0(
07
0F
0G
1I
1>
0<
1:
09
1#
0"
#375000
0)
1'
08
16
1?
0A
#406250
1)
18
1A
1B
0H
1E
0I
1G
0=
0;
0>
0$
0:
1<
0#
19
1"
#435750
1(
17
1F
1I
1>
1:
1#
#437500
0)
08
0A
0B
1H
0E
0G
0I
1G
1=
1;
0>
0<
1$
0:
09
1<
0#
0"
19
1"
#468750
1)
18
1A
1B
0H
1E
0G
1I
1G
0=
0;
1>
0<
0$
1:
09
1<
1#
0"
19
1"
#498000
0(
07
0F
0I
0>
0:
0#
