Lab 3/lab3_task4/simulation/qsim/lab3_task4.msim.vcd
$comment
	File created using the following command:
		vcd file lab3_task4.msim.vcd -direction
$end
$date
	Sun Feb 25 05:31:46 2018
$end
$version
	ModelSim Version 10.5b
$end
$timescale
	1ps
$end

$scope module mux_8to1_mbit_vhd_vec_tst $end
$var wire 1 ! f [1] $end
$var wire 1 " f [0] $end
$var wire 1 # s [2] $end
$var wire 1 $ s [1] $end
$var wire 1 % s [0] $end
$var wire 1 & w0 [1] $end
$var wire 1 ' w0 [0] $end
$var wire 1 ( w1 [1] $end
$var wire 1 ) w1 [0] $end
$var wire 1 * w2 [1] $end
$var wire 1 + w2 [0] $end
$var wire 1 , w3 [1] $end
$var wire 1 - w3 [0] $end
$var wire 1 . w4 [1] $end
$var wire 1 / w4 [0] $end
$var wire 1 0 w5 [1] $end
$var wire 1 1 w5 [0] $end
$var wire 1 2 w6 [1] $end
$var wire 1 3 w6 [0] $end
$var wire 1 4 w7 [1] $end
$var wire 1 5 w7 [0] $end

$scope module i1 $end
$var wire 1 6 gnd $end
$var wire 1 7 vcc $end
$var wire 1 8 unknown $end
$var wire 1 9 devoe $end
$var wire 1 : devclrn $end
$var wire 1 ; devpor $end
$var wire 1 < ww_devoe $end
$var wire 1 = ww_devclrn $end
$var wire 1 > ww_devpor $end
$var wire 1 ? ww_w0 [1] $end
$var wire 1 @ ww_w0 [0] $end
$var wire 1 A ww_w1 [1] $end
$var wire 1 B ww_w1 [0] $end
$var wire 1 C ww_w2 [1] $end
$var wire 1 D ww_w2 [0] $end
$var wire 1 E ww_w3 [1] $end
$var wire 1 F ww_w3 [0] $end
$var wire 1 G ww_w4 [1] $end
$var wire 1 H ww_w4 [0] $end
$var wire 1 I ww_w5 [1] $end
$var wire 1 J ww_w5 [0] $end
$var wire 1 K ww_w6 [1] $end
$var wire 1 L ww_w6 [0] $end
$var wire 1 M ww_w7 [1] $end
$var wire 1 N ww_w7 [0] $end
$var wire 1 O ww_s [2] $end
$var wire 1 P ww_s [1] $end
$var wire 1 Q ww_s [0] $end
$var wire 1 R ww_f [1] $end
$var wire 1 S ww_f [0] $end
$var wire 1 T \f[0]~output_o\ $end
$var wire 1 U \f[1]~output_o\ $end
$var wire 1 V \w5[0]~input_o\ $end
$var wire 1 W \s[0]~input_o\ $end
$var wire 1 X \w6[0]~input_o\ $end
$var wire 1 Y \s[1]~input_o\ $end
$var wire 1 Z \w4[0]~input_o\ $end
$var wire 1 [ \f~0_combout\ $end
$var wire 1 \ \w7[0]~input_o\ $end
$var wire 1 ] \f~1_combout\ $end
$var wire 1 ^ \w2[0]~input_o\ $end
$var wire 1 _ \w1[0]~input_o\ $end
$var wire 1 ` \w0[0]~input_o\ $end
$var wire 1 a \f~2_combout\ $end
$var wire 1 b \w3[0]~input_o\ $end
$var wire 1 c \f~3_combout\ $end
$var wire 1 d \s[2]~input_o\ $end
$var wire 1 e \f~4_combout\ $end
$var wire 1 f \w5[1]~input_o\ $end
$var wire 1 g \w6[1]~input_o\ $end
$var wire 1 h \w4[1]~input_o\ $end
$var wire 1 i \f~5_combout\ $end
$var wire 1 j \w7[1]~input_o\ $end
$var wire 1 k \f~6_combout\ $end
$var wire 1 l \w2[1]~input_o\ $end
$var wire 1 m \w1[1]~input_o\ $end
$var wire 1 n \w0[1]~input_o\ $end
$var wire 1 o \f~7_combout\ $end
$var wire 1 p \w3[1]~input_o\ $end
$var wire 1 q \f~8_combout\ $end
$var wire 1 r \f~9_combout\ $end
$upscope $end
$upscope $end
$enddefinitions $end
#0
$dumpvars
06
17
x8
19
1:
1;
1<
1=
1>
1T
1U
0V
0W
0X
0Y
0Z
0[
1\
0]
0^
1_
1`
1a
0b
1c
0d
1e
0f
1g
1h
1i
0j
1k
1l
1m
1n
1o
1p
1q
1r
0#
0$
0%
1&
1'
1(
1)
1*
0+
1,
0-
1.
0/
00
01
12
03
04
15
1?
1@
1A
1B
1C
0D
1E
0F
1G
0H
0I
0J
1K
0L
0M
1N
0O
0P
0Q
1R
1S
1!
1"
$end
#62500
0'
0*
0,
1-
1/
10
11
02
13
14
0@
0C
1F
0E
1H
1J
1I
1L
0K
1M
1j
0g
1X
1f
1V
1Z
0p
1b
0l
0`
0a
1[
1]
0c
0e
0T
0S
0"
#125000
0-
0/
01
03
04
0&
0(
0)
1+
0.
05
0F
0H
0G
0J
0L
0N
0M
0?
0B
0A
1D
1^
0m
0_
0n
0j
0\
0X
0V
0h
0Z
0b
0i
0[
0o
0q
0]
0k
0r
0U
0R
0!
#187500
1-
1/
11
1(
1)
1.
1*
1,
12
1F
1E
1H
1G
1J
1B
1A
1C
1K
1g
1l
1m
1_
1V
1h
1Z
1p
1b
1[
1i
1k
1]
#250000
0-
0/
0(
0)
0.
0,
0+
15
1'
00
1%
0F
0E
0H
0G
0B
0A
0D
1N
1@
0I
1Q
1W
0f
1`
1\
0^
0m
0_
0h
0Z
0p
0b
0[
0i
0k
#312500
1/
1)
10
0*
02
13
14
1H
1B
1I
0C
1L
0K
1M
1j
0g
1X
0l
1f
1_
1Z
1a
1k
1c
1e
1T
1S
1"
#375000
0)
1*
03
04
1-
1,
1+
0'
01
1&
0B
1D
1C
0L
0M
1F
1E
0@
1?
0J
0V
1n
0`
1p
1b
0j
0X
1l
1^
0_
0a
0]
0c
0e
0T
0S
0"
#437500
1)
0*
14
0-
1'
0&
00
12
05
1B
0C
0N
1M
0F
1@
0?
0I
1K
1g
0f
0n
1`
0b
1j
0\
0l
1_
1a
0k
1c
1e
1T
1S
1"
#500000
0)
04
1-
10
02
0+
11
0/
0%
1$
0B
0M
1F
1J
1I
0K
0D
0H
0Q
1P
1Y
0W
0Z
0^
0g
1f
1V
1b
0j
0_
0a
0c
0e
0T
0S
0"
#562500
14
0-
00
12
01
1*
0'
1&
13
1.
1M
0F
0J
0I
1L
1K
1C
0@
1?
1G
1h
1n
0`
1l
1g
1X
0f
0V
0b
1j
1[
1q
1i
1k
1r
1]
1U
1R
1!
#625000
04
02
11
0*
0.
1/
0,
1(
0M
0K
1J
0C
1H
0G
0E
1A
1m
0p
0h
1Z
0l
1V
0g
0j
0i
0q
0r
0k
0U
0R
0!
#687500
14
01
1,
0(
1'
1)
1+
15
1N
1M
0J
1E
1B
0A
1@
1D
1^
1`
0m
1_
1p
0V
1j
1\
1c
1e
1T
1S
1"
#750000
04
0,
1(
0'
0+
12
1.
1-
1%
0M
1F
0E
1A
0@
0D
1K
1G
1Q
1W
1h
1g
0^
0`
1m
0p
1b
0j
0c
1a
1i
1o
1c
0e
1e
0T
0S
1T
0"
1S
1"
#812500
1,
1'
0/
10
1E
1@
0H
1I
1f
0Z
1`
1p
1q
1r
1U
1R
1!
#875000
1/
14
1+
02
11
05
1*
1H
0N
1M
1D
1C
0K
1J
1V
0g
1l
1^
1j
0\
1Z
1k
0]
#937500
04
0+
01
15
0'
0.
0&
03
1N
0M
0D
0J
0@
0?
0G
0L
0X
0h
0n
0`
0V
0^
0j
1\
0k
1]
#1000000
14
1'
1.
1&
12
0*
0%
0)
0$
1#
1M
1@
1?
1G
1K
0C
0Q
0P
1O
0B
0_
1d
0Y
0W
0l
1g
1h
1n
1`
1j
1k
0r
1r
0U
0R
1U
0!
1R
1!
#1062500
0'
0&
1*
1)
1+
0,
0-
0@
0?
1D
1C
1B
0F
0E
0p
0b
1_
1l
1^
0n
0`
0o
0a
0c
0q
#1125000
0+
1-
0.
11
0/
0(
0D
1F
0H
0G
1J
0A
0m
1V
0h
0Z
1b
0^
0[
0i
0k
0]
0e
0r
0U
0T
0R
0S
0"
0!
#1187500
0-
1/
0)
1,
02
05
13
00
0F
1E
1H
0B
1L
0K
0N
0I
0f
0\
0g
1X
0_
1Z
1p
0b
1[
1]
1e
1T
1S
1"
#1250000
1-
0/
12
10
1.
1'
1%
1F
0H
1G
1K
1I
1@
1Q
1W
1`
1f
1g
1h
0Z
1b
0[
0]
1k
1r
0e
1]
1e
0T
1U
0S
1R
1T
0"
1!
1S
1"
#1312500
00
0.
0'
0,
15
03
1+
01
1(
0*
04
0J
0I
0G
0@
0E
1N
0M
0L
1D
0C
1A
1m
0l
1^
0X
0j
1\
0p
0`
0h
0f
0V
0]
0k
1o
1q
0r
0e
0T
0U
0S
0R
0"
0!
#1375000
10
1'
1,
13
11
0(
14
0-
1/
1J
1I
1@
0F
1E
1L
0A
1M
1H
1Z
1j
0m
1X
1p
0b
1`
1f
1V
1]
0o
1k
1r
0q
1e
1T
1U
1S
1R
1"
1!
#1437500
00
01
1(
04
1-
0/
1.
05
0+
1*
02
1)
0J
0I
1B
1A
0N
0M
1F
0H
1G
0D
1C
0K
0g
1l
0^
1h
0Z
1b
0j
0\
1m
1_
0f
0V
1a
1o
0]
0k
0r
0e
1q
1c
0T
0U
0S
0R
0"
0!
#1500000
11
0(
14
0-
1/
1+
0*
0%
1$
1J
0A
1M
0F
1H
1D
0C
0Q
1P
1Y
0W
0l
1^
1Z
0b
1j
0m
1V
1[
0a
0c
0o
0q
1c
1]
1e
1T
1S
1"
#1562500
1(
1-
0/
1*
12
0)
0,
03
1&
0B
1A
1F
0E
0H
1C
0L
1K
1?
1n
1g
0X
1l
0Z
0p
1b
1m
0_
1q
0[
1i
1k
0]
0e
1r
1U
0T
1R
0S
0"
1!
#1625000
0(
1)
13
01
0+
0.
1B
0A
1L
0J
0D
0G
0h
0^
0V
1X
0m
1_
1[
0c
1]
1e
1T
1S
1"
#1687500
1(
0)
11
0*
15
0B
1A
1J
0C
1N
1\
0l
1V
1m
0_
0q
#1750000
01
03
1+
1.
1%
0'
0J
0L
1D
1G
1Q
0@
0`
1W
1h
1^
0X
0V
1c
1o
1a
#1812500
11
13
0+
0.
1'
0(
0-
1/
1,
0&
04
1J
1L
0D
1H
0G
1@
0?
0A
0F
1E
0M
0j
1p
0b
0m
0n
1`
0h
1Z
0^
1X
1V
0c
1q
0k
0r
0U
0R
0!
#1875000
01
03
1+
1.
0'
1(
0/
1&
1*
02
10
0J
1I
0L
0K
1D
1C
0H
1G
0@
1?
1A
1m
1n
0`
1h
0Z
1l
1^
0g
0X
1f
0V
#1937500
11
0+
1'
0(
1/
0&
0*
12
14
05
1J
0D
0C
1@
0?
0A
1H
1K
0N
1M
1j
0\
1g
1Z
0m
0n
1`
0l
0^
1V
0]
1k
1r
0e
0T
1U
0S
1R
0"
1!
