Lab 2/task1/simulation/qsim/lab2_task1.msim.vcd
$comment
	File created using the following command:
		vcd file lab2_task1.msim.vcd -direction
$end
$date
	Sun Feb 11 20:50:03 2018
$end
$version
	ModelSim Version 10.5b
$end
$timescale
	1ps
$end

$scope module hex_to_7seg_decoder_vhd_vec_tst $end
$var wire 1 ! en $end
$var wire 1 " hex [3] $end
$var wire 1 # hex [2] $end
$var wire 1 $ hex [1] $end
$var wire 1 % hex [0] $end
$var wire 1 & leds [0] $end
$var wire 1 ' leds [1] $end
$var wire 1 ( leds [2] $end
$var wire 1 ) leds [3] $end
$var wire 1 * leds [4] $end
$var wire 1 + leds [5] $end
$var wire 1 , leds [6] $end

$scope module i1 $end
$var wire 1 - gnd $end
$var wire 1 . vcc $end
$var wire 1 / unknown $end
$var wire 1 0 devoe $end
$var wire 1 1 devclrn $end
$var wire 1 2 devpor $end
$var wire 1 3 ww_devoe $end
$var wire 1 4 ww_devclrn $end
$var wire 1 5 ww_devpor $end
$var wire 1 6 ww_hex [3] $end
$var wire 1 7 ww_hex [2] $end
$var wire 1 8 ww_hex [1] $end
$var wire 1 9 ww_hex [0] $end
$var wire 1 : ww_en $end
$var wire 1 ; ww_leds [0] $end
$var wire 1 < ww_leds [1] $end
$var wire 1 = ww_leds [2] $end
$var wire 1 > ww_leds [3] $end
$var wire 1 ? ww_leds [4] $end
$var wire 1 @ ww_leds [5] $end
$var wire 1 A ww_leds [6] $end
$var wire 1 B \leds[6]~output_o\ $end
$var wire 1 C \leds[5]~output_o\ $end
$var wire 1 D \leds[4]~output_o\ $end
$var wire 1 E \leds[3]~output_o\ $end
$var wire 1 F \leds[2]~output_o\ $end
$var wire 1 G \leds[1]~output_o\ $end
$var wire 1 H \leds[0]~output_o\ $end
$var wire 1 I \hex[3]~input_o\ $end
$var wire 1 J \hex[0]~input_o\ $end
$var wire 1 K \hex[2]~input_o\ $end
$var wire 1 L \hex[1]~input_o\ $end
$var wire 1 M \Mux6~0_combout\ $end
$var wire 1 N \en~input_o\ $end
$var wire 1 O \Mux6~1_combout\ $end
$var wire 1 P \Mux5~0_combout\ $end
$var wire 1 Q \Mux5~1_combout\ $end
$var wire 1 R \Mux4~0_combout\ $end
$var wire 1 S \Mux4~1_combout\ $end
$var wire 1 T \Mux3~0_combout\ $end
$var wire 1 U \Mux3~1_combout\ $end
$var wire 1 V \Mux2~0_combout\ $end
$var wire 1 W \Mux2~1_combout\ $end
$var wire 1 X \Mux1~0_combout\ $end
$var wire 1 Y \Mux1~1_combout\ $end
$var wire 1 Z \Mux0~0_combout\ $end
$var wire 1 [ \Mux0~1_combout\ $end
$upscope $end
$upscope $end
$enddefinitions $end
#0
$dumpvars
0!
0-
1.
x/
10
11
12
13
14
15
0:
0B
0C
0D
0E
0F
0G
0H
xI
xJ
xK
xL
xM
xN
xO
xP
xQ
xR
xS
xT
xU
xV
xW
xX
xY
xZ
x[
0"
0#
0$
0%
0&
0'
0(
0)
0*
0+
0,
06
07
08
09
0;
0<
0=
0>
0?
0@
0A
$end
#756
0N
#796
0L
#806
0I
0J
0K
#3151
xE
x>
x)
#3524
xD
x?
x*
#3624
xH
x;
x&
#4779
xB
xA
x,
#5270
xF
x=
x(
#5363
0Q
#5364
0[
#5365
0Y
#5366
0S
#5369
0U
#5370
0O
#5372
0W
#5588
0X
#5592
0V
#5955
0P
#5956
0Z
#5957
0T
#5967
0R
#6111
xC
x@
x+
#6302
0M
#6919
xG
x<
x'
#8477
0E
0>
0)
#8846
0D
0?
0*
#8946
0H
0;
0&
#10076
0B
0A
0,
#10600
0F
0=
0(
#11506
0C
0@
0+
#12236
0G
0<
0'
#62500
1%
19
#63200
1J
#68060
1R
#68063
1Z
#68064
1T
#68067
1P
#125000
0%
1$
09
18
#125690
1L
#125806
0J
#129916
0T
#129917
0Z
#129931
1M
#130962
1V
#130967
0R
#187500
1%
19
#188200
1J
#193060
1R
#193073
0V
#250000
0%
0$
1#
09
08
17
#250700
1K
#250796
0L
#250806
0J
#255159
0M
#255167
1T
#255330
0P
#255333
0T
#255347
1M
#255352
1X
#255965
1Z
#255966
1T
#255978
0X
#312500
1%
19
#313200
1J
#318054
0Z
#318055
0T
#318066
1X
#375000
0%
1$
09
18
#375690
1L
#375806
0J
#379915
0M
#379919
0X
#379930
1P
#379932
1T
#380937
1M
#380955
0P
#380957
0T
#380967
0R
1X
#437500
1%
19
#438200
1J
#443041
0M
#443060
1R
#443064
1T
#443067
1P
#443077
0X
#500000
0%
0$
0#
1"
09
08
07
16
#500700
1I
#500796
0L
#500806
0K
0J
#505330
0P
#505333
0T
#505347
1M
#505352
1X
#505581
0M
#505587
1P
#505588
0X
#505590
1T
#505591
1Z
#505890
1M
#505909
0P
#505912
0T
#505913
0Z
#505967
0R
#562500
1%
19
#563200
1J
#568060
1R
#625000
0%
1$
09
18
#625690
1L
#625806
0J
#629920
0R
#629933
1Z
#629935
1X
#630956
0Z
#630966
1T
#630978
0X
#687500
1%
19
#688200
1J
#693055
0T
#693063
1Z
#693066
1X
#750000
0%
0$
1#
09
08
17
#750700
1K
#750796
0L
#750806
0J
#755162
0Z
#755167
1T
#755174
1V
#755333
0T
#755336
0X
#755340
0V
#755346
1P
#755350
1Z
#755942
0M
#755955
0P
#755956
0Z
#755962
1V
#755967
1X
#812500
1%
19
#813200
1J
#818036
1M
#818063
1Z
#818067
1P
#818073
0V
#818077
0X
#875000
0%
1$
09
18
#875690
1L
#875806
0J
#879914
0P
#879917
0Z
#879932
1T
#879935
1X
#879939
1V
#880957
0T
#937500
1%
19
#938200
1J
#943064
1T
#1000000
0%
0$
0#
0"
1!
09
08
07
06
1:
#1000650
1N
#1000796
0L
#1000806
0I
0K
0J
#1004957
1Y
#1004960
1U
#1004964
1W
#1005333
0T
#1005336
0X
#1005340
0V
#1005346
1P
#1005350
1Z
#1005580
0P
#1005584
0Z
#1005595
1R
#1005944
1Q
#1005950
1[
#1005967
0R
#1005969
0U
#1005973
0W
0Y
#1006086
1S
#1006214
0Q
#1006220
0[
#1006302
0M
#1006486
0S
#1006966
1O
#1008111
1E
1>
1)
#1009077
0E
0>
0)
#1009574
1H
1;
1&
#1009610
1D
1?
1*
#1009802
0H
0;
0&
#1009966
0D
0?
0*
#1010173
1F
1=
1(
#1011201
0F
0=
0(
#1011745
1B
1A
1,
#1011876
1G
1<
1'
#1012055
1C
1@
1+
#1012357
0C
0@
0+
#1012844
0G
0<
0'
#1062500
1%
19
#1063200
1J
#1068060
1R
#1068063
1Z
#1068064
1T
#1068067
1P
#1068551
1S
#1068663
1[
#1068664
1U
#1068665
1Q
#1071815
1E
1>
1)
#1072075
1D
1?
1*
#1072287
1H
1;
1&
#1074776
1C
1@
1+
#1125000
0%
1$
09
18
#1125690
1L
#1125806
0J
#1129916
0T
#1129917
0Z
#1129931
1M
#1130552
0U
#1130553
0[
#1130557
0O
#1130962
1V
#1130967
0R
#1131486
0S
#1131560
1W
#1133660
0E
0>
0)
#1134135
0H
0;
0&
#1134966
0D
0?
0*
#1135263
0B
0A
0,
#1136769
1F
1=
1(
#1187500
1%
19
#1188200
1J
#1193060
1R
#1193073
0V
#1193551
1S
#1193706
0W
#1197075
1D
1?
1*
#1198934
0F
0=
0(
#1250000
0%
0$
1#
09
08
17
#1250700
1K
#1250796
0L
#1250806
0J
#1255159
0M
#1255167
1T
#1255330
0P
#1255333
0T
#1255347
1M
#1255352
1X
#1255767
1U
#1255823
1O
#1255951
1Y
#1255964
0Q
#1255965
1Z
#1255966
1T
#1255969
0U
#1255973
0O
#1255978
0X
#1256565
1[
#1256566
1U
#1256615
0Y
#1258918
1E
1>
1)
#1259077
0E
0>
0)
#1259717
1E
1>
1)
#1260189
1H
1;
1&
#1260602
1B
1A
1,
#1260679
0B
0A
0,
#1262107
0C
0@
0+
#1262870
1G
1<
1'
#1263486
0G
0<
0'
#1312500
1%
19
#1313200
1J
#1318054
0Z
#1318055
0T
#1318066
1X
#1318665
1Y
#1318690
0[
#1318691
0U
#1321799
0E
0>
0)
#1322272
0H
0;
0&
#1325584
1G
1<
1'
#1375000
0%
1$
09
18
#1375690
1L
#1375806
0J
#1379915
0M
#1379919
0X
#1379930
1P
#1379932
1T
#1380528
1Q
#1380532
1U
#1380556
0Y
#1380579
1O
#1380937
1M
#1380955
0P
#1380957
0T
#1380967
0R
1X
#1381486
0S
#1381563
0O
#1381566
1Y
#1381589
0Q
#1381593
0U
#1383683
1E
1>
1)
#1384701
0E
0>
0)
#1384966
0D
0?
0*
#1385358
1B
1A
1,
#1386269
0B
0A
0,
#1386639
1C
1@
1+
#1387427
0G
0<
0'
#1387732
0C
0@
0+
#1388485
1G
1<
1'
#1437500
1%
19
#1438200
1J
#1443041
0M
#1443060
1R
#1443064
1T
#1443067
1P
#1443077
0X
#1443551
1S
#1443664
1U
#1443665
1Q
#1443705
1O
#1443714
0Y
#1446815
1E
1>
1)
#1447075
1D
1?
1*
#1448484
1B
1A
1,
#1449776
1C
1@
1+
#1450585
0G
0<
0'
#1500000
0%
0$
0#
1"
09
08
07
16
#1500700
1I
#1500796
0L
#1500806
0K
0J
#1505330
0P
#1505333
0T
#1505347
1M
#1505352
1X
#1505581
0M
#1505587
1P
#1505588
0X
#1505590
1T
#1505591
1Z
#1505890
1M
#1505909
0P
#1505912
0T
#1505913
0Z
#1505951
1Y
#1505964
0Q
#1505967
0R
#1505969
0U
#1505973
0O
#1506185
1Q
#1506190
1U
#1506191
1[
#1506225
0Y
#1506245
1O
#1506486
0S
#1506516
0O
#1506543
0Q
#1506548
0U
#1506549
0[
#1509077
0E
0>
0)
#1509341
1E
1>
1)
#1509656
0E
0>
0)
#1509815
1H
1;
1&
#1509966
0D
0?
0*
#1510131
0H
0;
0&
#1510679
0B
0A
0,
#1511024
1B
1A
1,
#1511222
0B
0A
0,
#1512107
0C
0@
0+
#1512296
1C
1@
1+
#1512686
0C
0@
0+
#1512870
1G
1<
1'
#1513096
0G
0<
0'
#1562500
1%
19
#1563200
1J
#1568060
1R
#1568551
1S
#1572075
1D
1?
1*
#1625000
0%
1$
09
18
#1625690
1L
#1625806
0J
#1629920
0R
#1629933
1Z
#1629935
1X
#1630439
0S
#1630533
1[
#1630534
1Y
#1630956
0Z
#1630966
1T
#1630978
0X
#1631566
1U
#1631592
0[
#1631615
0Y
#1633919
0D
0?
0*
#1634157
1H
1;
1&
#1634717
1E
1>
1)
#1635174
0H
0;
0&
#1637453
1G
1<
1'
#1638486
0G
0<
0'
#1687500
1%
19
#1688200
1J
#1693055
0T
#1693063
1Z
#1693066
1X
#1693663
1[
#1693665
1Y
#1693691
0U
#1696799
0E
0>
0)
#1697287
1H
1;
1&
#1700584
1G
1<
1'
#1750000
0%
0$
1#
09
08
17
#1750700
1K
#1750796
0L
#1750806
0J
#1755162
0Z
#1755167
1T
#1755174
1V
#1755333
0T
#1755336
0X
#1755340
0V
#1755346
1P
#1755350
1Z
#1755767
1U
#1755772
1W
#1755798
0[
#1755942
0M
#1755944
1Q
#1755950
1[
#1755955
0P
#1755956
0Z
#1755962
1V
#1755967
1X
#1755969
0U
#1755973
0Y
0W
#1756560
1W
#1756566
1Y
#1756589
0Q
#1756592
0[
#1756606
1O
#1758918
1E
1>
1)
#1759077
0E
0>
0)
#1759380
0H
0;
0&
#1759574
1H
1;
1&
#1760174
0H
0;
0&
#1760981
1F
1=
1(
#1761201
0F
0=
0(
#1761385
1B
1A
1,
#1761769
1F
1=
1(
#1762055
1C
1@
1+
#1762732
0C
0@
0+
#1762844
0G
0<
0'
#1763485
1G
1<
1'
#1812500
1%
19
#1813200
1J
#1818036
1M
#1818063
1Z
#1818067
1P
#1818073
0V
#1818077
0X
#1818662
0O
#1818663
1[
#1818665
1Q
#1818706
0W
#1818714
0Y
#1822287
1H
1;
1&
#1823368
0B
0A
0,
#1823934
0F
0=
0(
#1824776
1C
1@
1+
#1825585
0G
0<
0'
#1875000
0%
1$
09
18
#1875690
1L
#1875806
0J
#1879914
0P
#1879917
0Z
#1879932
1T
#1879935
1X
#1879939
1V
#1880532
1U
#1880534
1Y
#1880537
1W
#1880548
0Q
#1880553
0[
#1880957
0T
#1881593
0U
#1883683
1E
1>
1)
#1884135
0H
0;
0&
#1884701
0E
0>
0)
#1885746
1F
1=
1(
#1886691
0C
0@
0+
#1887453
1G
1<
1'
#1937500
1%
19
#1938200
1J
#1943064
1T
#1943664
1U
#1946815
1E
1>
1)
