Lab 5/lab5_task3/simulation/qsim/lab5_task3.msim.vcd
$comment
	File created using the following command:
		vcd file lab5_task3.msim.vcd -direction
$end
$date
	Fri Mar 09 22:05:38 2018
$end
$version
	ModelSim Version 10.5b
$end
$timescale
	1ps
$end

$scope module range_extender_vhd_vec_tst $end
$var wire 1 ! arith $end
$var wire 1 " dim $end
$var wire 1 # x [1] $end
$var wire 1 $ x [0] $end
$var wire 1 % y [7] $end
$var wire 1 & y [6] $end
$var wire 1 ' y [5] $end
$var wire 1 ( y [4] $end
$var wire 1 ) y [3] $end
$var wire 1 * y [2] $end
$var wire 1 + y [1] $end
$var wire 1 , y [0] $end

$scope module i1 $end
$var wire 1 - gnd $end
$var wire 1 . vcc $end
$var wire 1 / unknown $end
$var wire 1 0 devoe $end
$var wire 1 1 devclrn $end
$var wire 1 2 devpor $end
$var wire 1 3 ww_devoe $end
$var wire 1 4 ww_devclrn $end
$var wire 1 5 ww_devpor $end
$var wire 1 6 ww_arith $end
$var wire 1 7 ww_dim $end
$var wire 1 8 ww_x [1] $end
$var wire 1 9 ww_x [0] $end
$var wire 1 : ww_y [7] $end
$var wire 1 ; ww_y [6] $end
$var wire 1 < ww_y [5] $end
$var wire 1 = ww_y [4] $end
$var wire 1 > ww_y [3] $end
$var wire 1 ? ww_y [2] $end
$var wire 1 @ ww_y [1] $end
$var wire 1 A ww_y [0] $end
$var wire 1 B \dim~input_o\ $end
$var wire 1 C \y[0]~output_o\ $end
$var wire 1 D \y[1]~output_o\ $end
$var wire 1 E \y[2]~output_o\ $end
$var wire 1 F \y[3]~output_o\ $end
$var wire 1 G \y[4]~output_o\ $end
$var wire 1 H \y[5]~output_o\ $end
$var wire 1 I \y[6]~output_o\ $end
$var wire 1 J \y[7]~output_o\ $end
$var wire 1 K \x[0]~input_o\ $end
$var wire 1 L \x[1]~input_o\ $end
$var wire 1 M \arith~input_o\ $end
$var wire 1 N \y~0_combout\ $end
$upscope $end
$upscope $end
$enddefinitions $end
#0
$dumpvars
0!
0"
0-
1.
x/
10
11
12
13
14
15
06
07
0B
0C
0D
0E
0F
0G
0H
0I
0J
0K
0L
0M
0N
0#
0$
08
09
0:
0;
0<
0=
0>
0?
0@
0A
0%
0&
0'
0(
0)
0*
0+
0,
$end
#500000
1$
19
1K
1F
1>
1)
#1000000
0$
1#
09
18
1L
0K
0F
1G
0>
1=
0)
1(
#1500000
1$
19
1K
1F
1>
1)
#2000000
0$
0#
1"
09
08
17
1B
0L
0K
0F
0G
0>
0=
0)
0(
#2500000
1$
19
1K
1F
1>
1)
#3000000
0$
1#
09
18
1L
0K
0F
1G
0>
1=
0)
1(
#3500000
1$
19
1K
1F
1>
1)
#4000000
0$
0#
0"
1!
09
08
07
16
1M
0B
0L
0K
0F
0G
0>
0=
0)
0(
#4500000
1$
19
1K
1F
1>
1)
#5000000
0$
1#
09
18
1L
0K
1N
0F
1G
0>
1=
1H
1I
1J
0)
1(
1<
1;
1:
1'
1&
1%
#5500000
1$
19
1K
1F
1>
1)
#6000000
0$
0#
1"
09
08
17
1B
0L
0K
0N
0F
0G
0>
0=
0H
0I
0J
0)
0(
0<
0;
0:
0'
0&
0%
#6500000
1$
19
1K
1F
1>
1)
#7000000
0$
1#
09
18
1L
0K
1N
0F
1G
0>
1=
1H
1I
1J
0)
1(
1<
1;
1:
1'
1&
1%
#7500000
1$
19
1K
1F
1>
1)
