Lab 11/lab11_task2/simulation/qsim/lab11_task2.msim.vcd
$comment
	File created using the following command:
		vcd file lab11_task2.msim.vcd -direction
$end
$date
	Sun Apr 29 18:30:13 2018
$end
$version
	ModelSim Version 10.5b
$end
$timescale
	1ps
$end

$scope module vending_controller_vhd_vec_tst $end
$var wire 1 ! clk $end
$var wire 1 " dc $end
$var wire 1 # dd $end
$var wire 1 $ dn $end
$var wire 1 % m [1] $end
$var wire 1 & m [0] $end
$var wire 1 ' rst $end

$scope module i1 $end
$var wire 1 ( gnd $end
$var wire 1 ) vcc $end
$var wire 1 * unknown $end
$var wire 1 + devoe $end
$var wire 1 , devclrn $end
$var wire 1 - devpor $end
$var wire 1 . ww_devoe $end
$var wire 1 / ww_devclrn $end
$var wire 1 0 ww_devpor $end
$var wire 1 1 ww_rst $end
$var wire 1 2 ww_clk $end
$var wire 1 3 ww_m [1] $end
$var wire 1 4 ww_m [0] $end
$var wire 1 5 ww_dc $end
$var wire 1 6 ww_dd $end
$var wire 1 7 ww_dn $end
$var wire 1 8 \dc~output_o\ $end
$var wire 1 9 \dd~output_o\ $end
$var wire 1 : \dn~output_o\ $end
$var wire 1 ; \clk~input_o\ $end
$var wire 1 < \m[0]~input_o\ $end
$var wire 1 = \m[1]~input_o\ $end
$var wire 1 > \Selector2~0_combout\ $end
$var wire 1 ? \Selector2~1_combout\ $end
$var wire 1 @ \rst~input_o\ $end
$var wire 1 A \presentState.GOT_10C~q\ $end
$var wire 1 B \Selector4~0_combout\ $end
$var wire 1 C \Selector4~1_combout\ $end
$var wire 1 D \presentState.GOT_20C~q\ $end
$var wire 1 E \Selector5~0_combout\ $end
$var wire 1 F \Selector5~1_combout\ $end
$var wire 1 G \presentState.GOT_25C~q\ $end
$var wire 1 H \nextState.RTN_20C~0_combout\ $end
$var wire 1 I \presentState.RTN_20C~q\ $end
$var wire 1 J \Selector7~0_combout\ $end
$var wire 1 K \presentState.RTN_10C~q\ $end
$var wire 1 L \Selector8~0_combout\ $end
$var wire 1 M \presentState.RTN_15C~q\ $end
$var wire 1 N \Selector6~0_combout\ $end
$var wire 1 O \presentState.RTN_5C~q\ $end
$var wire 1 P \Selector0~0_combout\ $end
$var wire 1 Q \Selector0~1_combout\ $end
$var wire 1 R \presentState.IDLE~q\ $end
$var wire 1 S \Selector1~0_combout\ $end
$var wire 1 T \presentState.GOT_5C~q\ $end
$var wire 1 U \Selector3~0_combout\ $end
$var wire 1 V \Selector3~1_combout\ $end
$var wire 1 W \presentState.GOT_15C~q\ $end
$var wire 1 X \dc~0_combout\ $end
$var wire 1 Y \dc~1_combout\ $end
$var wire 1 Z \dc~2_combout\ $end
$var wire 1 [ \dc~3_combout\ $end
$var wire 1 \ \WideNor0~0_combout\ $end
$var wire 1 ] \ALT_INV_rst~input_o\ $end
$upscope $end
$upscope $end
$enddefinitions $end
#0
$dumpvars
0!
0"
0#
0$
1'
0(
1)
x*
1+
1,
1-
1.
1/
10
11
02
05
06
07
08
09
0:
0;
1<
1=
0>
0?
1@
0A
0B
0C
0D
1E
1F
0G
0H
0I
0J
0K
0L
0M
0N
0O
0P
1Q
0R
0S
0T
0U
0V
0W
0X
0Y
0Z
0[
0\
0]
1%
1&
13
14
$end
#62500
1!
12
1;
#125000
0!
0&
02
04
0<
0;
1>
0E
0F
1?
#130000
0'
01
0@
1]
#187500
1!
12
1;
1A
1R
0>
1B
1C
0?
#250000
0!
1&
0%
02
14
03
0=
1<
0;
0B
1U
1V
0C
#312500
1!
12
1;
0A
1W
1B
0U
0V
1C
#375000
0!
0&
02
04
0<
0;
0B
1V
0C
#437500
1!
12
1;
#500000
0!
1&
1%
02
14
13
1=
1<
0;
1E
1F
1J
0V
1X
1[
0F
18
15
1"
#562500
1!
12
1;
1K
0W
0J
0X
0Q
1\
0[
19
16
08
1#
05
0"
#625000
0!
02
0;
#687500
1!
12
1;
0K
0R
1F
1Q
0\
09
06
0#
#750000
0!
02
0;
#812500
1!
12
1;
1G
1R
0F
1H
1Y
1[
18
15
1"
#875000
0!
0%
02
03
0=
0;
0E
1F
0H
1P
0Q
0F
#937500
1!
12
1;
0G
0R
1S
0P
0Y
0[
1Q
08
05
0"
#1000000
0!
02
0;
#1062500
1!
12
1;
1R
1T
1>
0S
1?
#1125000
0!
0&
02
04
0<
0;
0>
1S
0?
#1187500
1!
12
1;
#1250000
0!
02
0;
#1312500
1!
12
1;
#1375000
0!
1%
02
13
1=
0;
0S
1U
1V
#1437500
1!
12
1;
0T
1W
1F
0U
0V
#1500000
0!
1&
02
14
1<
0;
1E
1J
1X
1[
0F
18
15
1"
#1562500
1!
12
1;
1K
0W
0J
0X
0Q
1\
0[
19
16
08
1#
05
0"
#1625000
0!
0%
02
03
0=
0;
0E
1F
0F
#1687500
1!
12
1;
0K
0R
1S
1Q
0\
09
06
0#
#1750000
0!
1%
02
13
1=
0;
1E
0S
1F
#1812500
1!
12
1;
1G
1R
0F
1H
1Y
1[
18
15
1"
#1875000
0!
0&
02
04
0<
0;
0E
0H
1L
#1937500
1!
12
1;
0G
1M
1N
1\
0L
0Y
0[
19
16
08
1#
05
0"
#2000000
0!
0%
02
03
0=
0;
#2062500
1!
12
1;
0M
1O
0Q
0N
0\
1:
17
09
1$
06
0#
#2125000
0!
1%
1&
02
14
13
1=
1<
0;
1E
#2187500
1!
12
1;
0O
0R
1F
1Q
0:
07
0$
#2250000
0!
02
0;
#2312500
1!
12
1;
1G
1R
0F
1H
1Y
1[
18
15
1"
#2375000
0!
0%
02
03
0=
0;
0E
1F
0H
1P
0Q
0F
#2437500
1!
12
1;
0G
0R
1S
0P
0Y
0[
1Q
08
05
0"
#2500000
0!
1%
0&
02
04
13
1=
0<
0;
1>
0S
1?
#2562500
1!
12
1;
1A
1R
0>
1B
1C
0?
#2625000
0!
02
0;
#2687500
1!
12
1;
0A
1D
1Y
0B
1[
18
15
1"
#2750000
0!
02
0;
#2812500
1!
12
1;
#2875000
0!
1&
02
14
1<
0;
0C
1E
1L
#2937500
1!
12
1;
0D
1M
1N
1\
0L
0Y
0[
19
16
08
1#
05
0"
#3000000
0!
0%
02
03
0=
0;
0E
1F
0F
#3062500
1!
12
1;
0M
1O
0Q
0N
0\
1:
17
09
1$
06
0#
#3125000
0!
1%
02
13
1=
0;
1E
#3187500
1!
12
1;
0O
0R
1F
1Q
0:
07
0$
#3250000
0!
02
0;
#3312500
1!
12
1;
1G
1R
0F
1H
1Y
1[
18
15
1"
#3375000
0!
02
0;
#3437500
1!
12
1;
0G
1I
1J
1\
0H
0Y
0[
19
16
08
1#
05
0"
#3500000
0!
02
0;
#3562500
1!
12
1;
0I
1K
0Q
0J
#3625000
0!
0%
0&
02
04
03
0=
0<
0;
0E
1F
0F
#3687500
1!
12
1;
0K
0R
1P
1Q
0\
0Q
09
06
0#
#3750000
0!
1&
02
14
1<
0;
0P
1S
1Q
#3812500
1!
12
1;
1R
1T
1>
0S
1?
#3875000
0!
0&
1%
02
04
13
1=
0<
0;
0>
1U
1V
0?
#3937500
1!
12
1;
0T
1W
1F
0U
0V
#4000000
0!
02
0;
#4062500
1!
12
1;
1G
0W
0F
1L
1Y
1[
18
15
1"
#4125000
0!
0%
02
03
0=
0;
1E
0L
0Y
0[
1F
08
05
0"
#4187500
1!
12
1;
#4250000
0!
1%
02
13
1=
0;
0E
0F
1L
1Y
1[
18
15
1"
#4312500
1!
12
1;
0G
1M
1N
1\
0L
0Y
0[
19
16
08
1#
05
0"
#4375000
0!
1&
02
14
1<
0;
1E
#4437500
1!
12
1;
0M
1O
0Q
0N
0\
1:
17
09
1$
06
0#
#4500000
0!
0&
02
04
0<
0;
0E
#4562500
1!
12
1;
0O
0R
1>
1Q
1?
0:
07
0$
#4625000
0!
02
0;
#4687500
1!
12
1;
1A
1R
0>
1B
1C
0?
#4750000
0!
1&
02
14
1<
0;
0B
1E
1N
1Z
1[
0C
18
15
1"
#4812500
1!
12
1;
0A
1O
0Q
0N
0Z
0[
1:
17
1$
08
05
0"
#4875000
0!
02
0;
#4937500
1!
12
1;
0O
0R
1F
1Q
0:
07
0$
#5000000
0!
0&
02
04
0<
0;
1>
0E
0F
1?
#5062500
1!
12
1;
1A
1R
0>
1B
1C
0?
#5125000
0!
02
0;
#5187500
1!
12
1;
0A
1D
1Y
0B
1[
18
15
1"
#5250000
0!
02
0;
#5312500
1!
12
1;
#5375000
0!
1&
0%
02
14
03
0=
1<
0;
0C
1E
0Y
0[
1F
08
05
0"
#5437500
1!
12
1;
0D
1G
1P
0E
1Y
1[
0F
0Q
18
15
1"
#5500000
0!
02
0;
#5562500
1!
12
1;
0G
0R
1S
0P
0Y
0[
1Q
08
05
0"
#5625000
0!
0&
02
04
0<
0;
1P
0S
0Q
#5687500
1!
12
1;
#5750000
0!
1%
02
13
1=
0;
1>
0P
1Q
1?
#5812500
1!
12
1;
1A
1R
0>
1B
1C
0?
#5875000
0!
02
0;
#5937500
1!
12
1;
0A
1D
1Y
0B
1[
18
15
1"
#6000000
0!
0%
1&
02
14
03
0=
1<
0;
0C
1E
0Y
0[
1F
08
05
0"
#6062500
1!
12
1;
0D
1G
1P
0E
1Y
1[
0F
0Q
18
15
1"
#6125000
0!
1%
02
13
1=
0;
1E
1H
0P
1Q
#6187500
1!
12
1;
0G
1I
1J
1\
0H
0Y
0[
19
16
08
1#
05
0"
#6250000
0!
0%
02
03
0=
0;
0E
1F
0F
#6312500
1!
12
1;
0I
1K
0Q
0J
#6375000
0!
1%
0&
02
04
13
1=
0<
0;
#6437500
1!
12
1;
0K
0R
1>
1Q
0\
1?
09
06
0#
#6500000
0!
02
0;
#6562500
1!
12
1;
1A
1R
0>
1B
1C
0?
#6625000
0!
1&
02
14
1<
0;
0B
1E
1N
1Z
1[
0C
18
15
1"
#6687500
1!
12
1;
0A
1O
0Q
0N
0Z
0[
1:
17
1$
08
05
0"
#6750000
0!
0&
0%
02
04
03
0=
0<
0;
0E
1F
0F
#6812500
1!
12
1;
0O
0R
1P
1Q
0Q
0:
07
0$
#6875000
0!
1&
1%
02
14
13
1=
1<
0;
1E
0P
1Q
1F
#6937500
1!
12
1;
1G
1R
0F
1H
1Y
1[
18
15
1"
#7000000
0!
1'
02
11
1@
0;
0]
0G
0R
1F
0H
0Y
0[
08
05
0"
#7062500
1!
12
1;
#7125000
0!
0'
02
01
0@
0;
1]
#7187500
1!
12
1;
1G
1R
0F
1H
1Y
1[
18
15
1"
#7250000
0!
0&
02
04
0<
0;
0E
0H
1L
#7312500
1!
12
1;
0G
1M
1N
1\
0L
0Y
0[
19
16
08
1#
05
0"
#7375000
0!
1&
02
14
1<
0;
1E
#7437500
1!
12
1;
0M
1O
0Q
0N
0\
1:
17
09
1$
06
0#
#7500000
0!
0&
02
04
0<
0;
0E
#7562500
1!
12
1;
0O
0R
1>
1Q
1?
0:
07
0$
#7625000
0!
1&
0%
02
14
03
0=
1<
0;
0>
1S
0?
#7687500
1!
12
1;
1R
1T
1>
0S
1?
#7750000
0!
0&
02
04
0<
0;
0>
1S
0?
#7812500
1!
12
1;
#7875000
0!
1&
1%
02
14
13
1=
1<
0;
1E
1Z
1[
18
15
1"
#7937500
1!
12
1;
