lab6/lab6_task1/simulation/qsim/lab6_task1.msim.vcd
$comment
	File created using the following command:
		vcd file lab6_task1.msim.vcd -direction
$end
$date
	Fri Mar 23 21:22:04 2018
$end
$version
	ModelSim Version 10.5b
$end
$timescale
	1ps
$end

$scope module full_adder_vhd_vec_tst $end
$var wire 1 ! cin $end
$var wire 1 " cout $end
$var wire 1 # sum $end
$var wire 1 $ x $end
$var wire 1 % y $end

$scope module i1 $end
$var wire 1 & gnd $end
$var wire 1 ' vcc $end
$var wire 1 ( unknown $end
$var wire 1 ) devoe $end
$var wire 1 * devclrn $end
$var wire 1 + devpor $end
$var wire 1 , ww_devoe $end
$var wire 1 - ww_devclrn $end
$var wire 1 . ww_devpor $end
$var wire 1 / ww_x $end
$var wire 1 0 ww_y $end
$var wire 1 1 ww_cin $end
$var wire 1 2 ww_sum $end
$var wire 1 3 ww_cout $end
$var wire 1 4 \sum~output_o\ $end
$var wire 1 5 \cout~output_o\ $end
$var wire 1 6 \x~input_o\ $end
$var wire 1 7 \y~input_o\ $end
$var wire 1 8 \cin~input_o\ $end
$var wire 1 9 \Mux0~0_combout\ $end
$var wire 1 : \process_1~0_combout\ $end
$var wire 1 ; \ALT_INV_process_1~0_combout\ $end
$upscope $end
$upscope $end
$enddefinitions $end
#0
$dumpvars
0!
0"
0#
0$
0%
0&
1'
x(
1)
1*
1+
1,
1-
1.
0/
00
01
02
03
04
05
06
07
08
09
1:
0;
$end
#125000
1%
10
17
19
14
12
1#
#250000
0%
1$
00
1/
16
07
#375000
1%
10
17
09
0:
1;
04
15
02
13
0#
1"
#500000
0%
0$
1!
00
0/
11
18
06
07
19
1:
0;
14
05
12
03
1#
0"
#625000
1%
10
17
09
0:
1;
04
15
02
13
0#
1"
#750000
0%
1$
00
1/
16
07
#875000
1%
10
17
19
14
12
1#
