Lab5/lab5_task1/simulation/qsim/lab5_task1.msim.vcd
$comment
	File created using the following command:
		vcd file lab5_task1.msim.vcd -direction
$end
$date
	Fri Mar 09 21:38:00 2018
$end
$version
	ModelSim Version 10.5b
$end
$timescale
	1ps
$end

$scope module int_4bit_to_7seg_vhd_vec_tst $end
$var wire 1 ! arith $end
$var wire 1 " en $end
$var wire 1 # mag_leds [6] $end
$var wire 1 $ mag_leds [5] $end
$var wire 1 % mag_leds [4] $end
$var wire 1 & mag_leds [3] $end
$var wire 1 ' mag_leds [2] $end
$var wire 1 ( mag_leds [1] $end
$var wire 1 ) mag_leds [0] $end
$var wire 1 * sign_leds [6] $end
$var wire 1 + sign_leds [5] $end
$var wire 1 , sign_leds [4] $end
$var wire 1 - sign_leds [3] $end
$var wire 1 . sign_leds [2] $end
$var wire 1 / sign_leds [1] $end
$var wire 1 0 sign_leds [0] $end
$var wire 1 1 x [3] $end
$var wire 1 2 x [2] $end
$var wire 1 3 x [1] $end
$var wire 1 4 x [0] $end

$scope module i1 $end
$var wire 1 5 gnd $end
$var wire 1 6 vcc $end
$var wire 1 7 unknown $end
$var wire 1 8 devoe $end
$var wire 1 9 devclrn $end
$var wire 1 : devpor $end
$var wire 1 ; ww_devoe $end
$var wire 1 < ww_devclrn $end
$var wire 1 = ww_devpor $end
$var wire 1 > ww_en $end
$var wire 1 ? ww_arith $end
$var wire 1 @ ww_x [3] $end
$var wire 1 A ww_x [2] $end
$var wire 1 B ww_x [1] $end
$var wire 1 C ww_x [0] $end
$var wire 1 D ww_mag_leds [6] $end
$var wire 1 E ww_mag_leds [5] $end
$var wire 1 F ww_mag_leds [4] $end
$var wire 1 G ww_mag_leds [3] $end
$var wire 1 H ww_mag_leds [2] $end
$var wire 1 I ww_mag_leds [1] $end
$var wire 1 J ww_mag_leds [0] $end
$var wire 1 K ww_sign_leds [6] $end
$var wire 1 L ww_sign_leds [5] $end
$var wire 1 M ww_sign_leds [4] $end
$var wire 1 N ww_sign_leds [3] $end
$var wire 1 O ww_sign_leds [2] $end
$var wire 1 P ww_sign_leds [1] $end
$var wire 1 Q ww_sign_leds [0] $end
$var wire 1 R \mag_leds[0]~output_o\ $end
$var wire 1 S \mag_leds[1]~output_o\ $end
$var wire 1 T \mag_leds[2]~output_o\ $end
$var wire 1 U \mag_leds[3]~output_o\ $end
$var wire 1 V \mag_leds[4]~output_o\ $end
$var wire 1 W \mag_leds[5]~output_o\ $end
$var wire 1 X \mag_leds[6]~output_o\ $end
$var wire 1 Y \sign_leds[0]~output_o\ $end
$var wire 1 Z \sign_leds[1]~output_o\ $end
$var wire 1 [ \sign_leds[2]~output_o\ $end
$var wire 1 \ \sign_leds[3]~output_o\ $end
$var wire 1 ] \sign_leds[4]~output_o\ $end
$var wire 1 ^ \sign_leds[5]~output_o\ $end
$var wire 1 _ \sign_leds[6]~output_o\ $end
$var wire 1 ` \arith~input_o\ $end
$var wire 1 a \en~input_o\ $end
$var wire 1 b \x[3]~input_o\ $end
$var wire 1 c \x[0]~input_o\ $end
$var wire 1 d \x[1]~input_o\ $end
$var wire 1 e \x[2]~input_o\ $end
$var wire 1 f \Mux6~0_combout\ $end
$var wire 1 g \mag_leds_signed[0]~0_combout\ $end
$var wire 1 h \Mux13~0_combout\ $end
$var wire 1 i \Mux12~4_combout\ $end
$var wire 1 j \Mux12~3_combout\ $end
$var wire 1 k \Mux12~7_combout\ $end
$var wire 1 l \Mux11~7_combout\ $end
$var wire 1 m \Mux11~8_combout\ $end
$var wire 1 n \Mux10~0_combout\ $end
$var wire 1 o \Mux10~1_combout\ $end
$var wire 1 p \Mux10~2_combout\ $end
$var wire 1 q \Mux9~0_combout\ $end
$var wire 1 r \Mux2~0_combout\ $end
$var wire 1 s \Mux9~1_combout\ $end
$var wire 1 t \Mux8~16_combout\ $end
$var wire 1 u \Mux8~17_combout\ $end
$var wire 1 v \Mux8~20_combout\ $end
$var wire 1 w \Mux7~5_combout\ $end
$var wire 1 x \Mux7~6_combout\ $end
$var wire 1 y \Mux7~9_combout\ $end
$var wire 1 z \sign_leds~2_combout\ $end
$var wire 1 { \sign_leds~3_combout\ $end
$var wire 1 | \sign_leds~4_combout\ $end
$upscope $end
$upscope $end
$enddefinitions $end
#0
$dumpvars
0!
1"
05
16
x7
18
19
1:
1;
1<
1=
1>
0?
0R
0S
0T
0U
0V
0W
0X
0Y
0Z
1[
1\
0]
0^
0_
x`
xa
xb
xc
xd
xe
xf
xg
xh
xi
xj
xk
xl
xm
xn
xo
xp
xq
xr
xs
xt
xu
xv
xw
xx
xy
xz
x{
x|
01
02
03
04
0#
0$
0%
0&
0'
0(
0)
0*
0+
0,
1-
1.
0/
00
0@
0A
0B
0C
0D
0E
0F
0G
0H
0I
0J
0K
0L
0M
1N
1O
0P
0Q
$end
#630
1a
#776
0b
#786
0`
#806
0c
0d
#826
0e
#3502
x^
xL
x+
#3512
x]
xM
x,
#3527
xR
xJ
x)
#3593
xV
xF
x%
#3599
xZ
xP
x/
#3609
xY
xQ
x0
#3632
xU
xG
x&
#3633
x_
xK
x*
#3675
xX
xD
x#
#3838
xW
xE
x$
#4002
xS
xI
x(
#4141
xT
xH
x'
#4215
0n
#4300
1{
#4334
1|
#4518
0q
#4656
0l
0j
#4658
0i
#4673
1x
#4677
1w
#4760
0u
#4920
0t
#4921
0g
#4930
0f
#4954
0z
#4955
0r
#4961
0o
#5026
0m
#5205
0k
#5376
1y
#5469
0h
#5485
0p
0s
#5569
0v
#7802
1^
1L
1+
#7812
1]
1M
1,
#7899
1Z
1P
1/
#7909
1Y
1Q
10
#7967
1_
1K
1*
#8959
0R
0J
0)
#9043
0V
0F
0%
#9051
1X
1D
1#
#9083
0U
0G
0&
#9101
0T
0H
0'
#9166
0S
0I
0(
#9351
0W
0E
0$
#125000
14
1C
#125700
1c
#129554
1t
#129555
1g
#129562
1f
#129564
1z
#129565
1r
#129569
1o
#130102
1p
1s
#130114
1h
#130193
1v
#133641
1R
1J
1)
#133695
1V
1F
1%
#133734
1U
1G
1&
#134031
1W
1E
1$
#250000
04
13
0C
1B
#250700
1d
#250806
0c
#254376
0o
0f
#254377
0w
#254380
0x
#254381
0g
#254388
1u
#254900
0p
#254929
0h
#254940
0u
#254942
1l
#254955
0r
#255079
0y
#255304
1m
#255485
0s
#258419
0R
0J
0)
#258498
0U
0G
0&
#258720
0X
0D
0#
#259043
0V
0F
0%
#259445
1T
1H
1'
#375000
14
1C
#375700
1c
#379537
1u
#379565
1r
#379573
0l
#379943
0m
#380102
1s
#383695
1V
1F
1%
#384018
0T
0H
0'
#500000
04
03
12
0C
0B
1A
#500720
1e
#500806
0d
0c
#504313
1x
1l
#504317
1w
1o
#504753
0o
#504754
0w
#504758
0x
0l
#504760
0u
#504763
1i
#504765
1j
#504850
1p
#504882
0i
#504911
0j
#504920
0t
#504935
1g
#504942
1l
#504944
1f
#504950
1o
#505016
1y
#505127
0v
#505277
0p
#505325
1k
#505456
0y
#505460
0k
#505483
1p
#505494
1h
#508482
1U
1G
1&
#508691
1X
1D
1#
#508875
0U
0G
0&
#508909
0W
0E
0$
#509021
1R
1J
1)
#509097
0X
0D
0#
#509115
1U
1G
1&
#509327
1S
1I
1(
#509421
0S
0I
0(
#625000
14
1C
#625700
1c
#629499
1i
#629527
1j
#629541
0g
#629548
0f
#629554
1t
#629573
0l
#629580
0o
#630087
1k
#630089
0h
#630104
0p
#633579
0R
0J
0)
#633702
0U
0G
0&
#634089
1S
1I
1(
#750000
04
13
0C
1B
#750700
1d
#750806
0c
#754379
0i
#754381
1w
0j
#754382
1o
#754384
1x
#754386
1l
#754388
1u
#754748
1v
#754880
1i
#754905
0w
#754907
1j
#754915
1p
#754930
0k
#754940
0u
#754945
0x
#754955
0r
#754961
0o
#755080
1y
#755307
0v
#755467
1k
#755485
0p
0s
#755492
0y
#758547
1U
1G
1&
#758586
1W
1E
1$
#758755
1X
1D
1#
#758891
0S
0I
0(
#759043
0V
0F
0%
#759083
0U
0G
0&
#759089
0W
0E
0$
#759133
0X
0D
0#
#759469
1S
1I
1(
#875000
14
1C
#875700
1c
#879501
0i
#879531
0j
#879534
1w
#879537
1u
#879541
1x
#879565
1r
#879569
1o
#879897
1v
#880080
0k
#880102
1p
1s
#880233
1y
#883695
1V
1F
1%
#883734
1U
1G
1&
#883735
1W
1E
1$
#883908
1X
1D
1#
#884041
0S
0I
0(
#1000000
04
03
02
11
0C
0B
0A
1@
#1000670
1b
#1000806
0d
0c
#1000826
0e
#1003861
1n
#1004096
1m
#1004132
1j
#1004171
0r
#1004178
1g
0u
#1004181
0w
#1004187
0t
#1004545
0v
#1004655
0g
#1004656
0l
0j
#1004662
0o
#1004679
1r
#1004692
1k
#1004701
0s
#1004766
1u
#1004883
0y
#1004931
0m
#1004940
0u
#1004945
0x
#1004954
0z
#1004955
0r
#1005186
0p
#1005205
0k
#1005216
1s
#1005485
0s
#1008237
1T
1H
1'
#1008259
0V
0F
0%
#1008327
0W
0E
0$
#1008524
0X
0D
0#
#1008694
1S
1I
1(
#1008784
0U
0G
0&
#1008809
1V
1F
1%
#1009006
0T
0H
0'
#1009043
0V
0F
0%
#1009166
0S
0I
0(
#1125000
14
1C
#1125700
1c
#1129537
1u
#1129541
1x
#1129564
1z
#1129565
1r
#1130102
1s
#1133695
1V
1F
1%
#1250000
04
13
0C
1B
#1250700
1d
#1250806
0c
#1254375
0r
#1254380
0x
#1254382
0u
#1254383
1f
#1254385
1i
#1254387
1j
#1254905
0s
#1254911
0j
#1254930
0f
#1254942
1l
#1254947
1k
#1254950
1o
#1255047
1h
#1255460
0k
#1255483
1p
#1255603
0h
#1258463
0V
0F
0%
#1258574
1R
1J
1)
#1258949
1S
1I
1(
#1259093
0R
0J
0)
#1259115
1U
1G
1&
#1259421
0S
0I
0(
#1375000
14
1C
#1375700
1c
#1379527
1j
#1379562
1f
#1379573
0l
#1379580
0o
#1380087
1k
#1380104
0p
#1380226
1h
#1383702
0U
0G
0&
#1383753
1R
1J
1)
#1384089
1S
1I
1(
#1500000
04
03
12
0C
0B
1A
#1500720
1e
#1500806
0d
0c
#1504298
0i
#1504300
0f
#1504312
1g
#1504313
1x
1l
#1504317
1o
#1504675
1m
#1504753
0o
#1504758
0x
0l
#1504759
0j
0g
#1504760
1f
#1504766
1u
#1504850
1p
#1504855
0h
#1504907
1j
#1504916
1w
#1504930
0f
#1504935
1g
#1504940
0u
#1504942
1l
#1505126
1v
#1505128
0m
#1505277
0p
#1505304
1m
#1505307
0v
#1505308
0k
#1505323
1h
#1505467
1k
#1505478
0h
#1505615
1y
#1508345
0R
0J
0)
#1508482
1U
1G
1&
#1508816
1T
1H
1'
#1508850
1R
1J
1)
#1508875
0U
0G
0&
#1508964
1W
1E
1$
#1508968
0R
0J
0)
#1509089
0W
0E
0$
#1509203
0T
0H
0'
#1509269
0S
0I
0(
#1509290
1X
1D
1#
#1509445
1T
1H
1'
#1509469
1S
1I
1(
#1625000
14
1C
#1625700
1c
#1629523
0w
#1629531
0j
#1629537
1u
#1629541
0g
#1629562
1f
#1629573
0l
#1629897
1v
#1629943
0m
#1630080
0k
#1630105
1h
#1630225
0y
#1633632
1R
1J
1)
#1633735
1W
1E
1$
#1633866
0X
0D
0#
#1634018
0T
0H
0'
#1634041
0S
0I
0(
#1750000
04
13
0C
1B
#1750700
1d
#1750806
0c
#1754376
0f
#1754382
1o
0u
#1754384
1x
#1754385
1g
#1754386
1l
#1754387
1j
#1754748
1m
#1754749
0v
#1754915
1p
#1754921
0g
#1754928
0h
#1754945
0x
#1754947
1k
#1754961
0o
#1755485
0p
#1758418
0R
0J
0)
#1758531
0W
0E
0$
#1758547
1U
1G
1&
#1758889
1T
1H
1'
#1758949
1S
1I
1(
#1759083
0U
0G
0&
#1875000
14
1C
#1875700
1c
#1879541
1x
#1879555
1g
#1879569
1o
#1880102
1p
#1883734
1U
1G
1&
#2000000
04
03
02
01
1!
0C
0B
0A
0@
1?
#2000680
1`
#2000776
0b
#2000806
0d
0c
#2000826
0e
#2003857
1u
#2003941
0k
#2003954
1h
#2003955
1y
#2003972
0|
#2004062
0{
#2004115
0n
#2004118
0l
#2004128
1q
#2004217
1v
#2004487
0m
#2004538
0j
#2004544
1r
#2004561
1w
#2004568
1t
#2004575
0g
#2004671
1g
#2004677
1f
#2004760
0u
#2004832
1s
#2004920
0t
#2004921
0g
#2004930
0f
#2004954
0z
#2004955
0r
#2004956
0q
#2004961
0o
#2004998
0v
#2005123
0h
#2005143
1v
#2005230
1h
#2005469
0h
#2005485
0p
#2005535
1|
#2005536
1{
#2005569
0v
#2005665
0s
#2007481
1R
1J
1)
#2007524
0^
0L
0+
#2007534
0]
0M
0,
#2007566
0_
0K
0*
#2007624
0Z
0P
0/
#2007630
1X
1D
1#
#2007634
0Y
0Q
00
#2007902
0S
0I
0(
#2008055
1W
1E
1$
#2008425
1V
1F
1%
#2008562
0T
0H
0'
#2008613
0R
0J
0)
#2008757
1R
1J
1)
#2008780
0W
0E
0$
#2008959
0R
0J
0)
#2008981
1W
1E
1$
#2009038
1^
1L
1+
#2009048
1]
1M
1,
#2009083
0U
0G
0&
#2009135
1Z
1P
1/
#2009145
1Y
1Q
10
#2009168
1_
1K
1*
#2009223
0V
0F
0%
#2009351
0W
0E
0$
#2125000
14
1C
#2125700
1c
#2129550
1q
#2129554
1t
#2129555
1g
#2129562
1f
#2129564
1z
#2129565
1r
#2129569
1o
#2130102
1p
#2130114
1h
#2130118
0|
#2130119
0{
#2130193
1v
#2130254
1s
#2133581
0^
0L
0+
#2133591
0]
0M
0,
#2133641
1R
1J
1)
#2133681
0Z
0P
0/
#2133691
0Y
0Q
00
#2133712
0_
0K
0*
#2133734
1U
1G
1&
#2133847
1V
1F
1%
#2134031
1W
1E
1$
#2250000
04
13
0C
1B
#2250700
1d
#2250806
0c
#2254376
0o
0f
#2254377
0w
#2254380
0x
#2254381
0g
#2254388
1u
#2254900
0p
#2254927
0y
#2254929
0h
#2254940
0u
#2254942
1l
#2254955
0r
#2254956
0q
#2255304
1m
#2255665
0s
#2258419
0R
0J
0)
#2258498
0U
0G
0&
#2258568
0X
0D
0#
#2259223
0V
0F
0%
#2259445
1T
1H
1'
#2375000
14
1C
#2375700
1c
#2379537
1u
#2379550
1q
#2379565
1r
#2379573
0l
#2379943
0m
#2380254
1s
#2383847
1V
1F
1%
#2384018
0T
0H
0'
#2500000
04
03
12
0C
0B
1A
#2500720
1e
#2500806
0d
0c
#2504313
1x
#2504317
1w
1o
#2504753
0o
#2504754
0w
#2504758
0x
#2504760
0u
#2504763
1i
#2504765
1j
#2504850
1p
#2504872
1y
#2504882
0i
#2504911
0j
#2504920
0t
#2504935
1g
#2504944
1f
#2504950
1o
#2505127
0v
#2505277
0p
#2505305
0y
#2505483
1p
#2505494
1h
#2508482
1U
1G
1&
#2508547
1X
1D
1#
#2508875
0U
0G
0&
#2508909
0W
0E
0$
#2508946
0X
0D
0#
#2509021
1R
1J
1)
#2509115
1U
1G
1&
#2625000
14
1C
#2625700
1c
#2629499
1i
#2629527
1j
#2629541
0g
#2629548
0f
#2629554
1t
#2629580
0o
#2630087
1k
#2630089
0h
#2630104
0p
#2633579
0R
0J
0)
#2633702
0U
0G
0&
#2634089
1S
1I
1(
#2750000
04
13
0C
1B
#2750700
1d
#2750806
0c
#2754379
0i
#2754381
1w
0j
#2754382
1o
#2754384
1x
#2754388
1u
#2754748
1v
#2754880
1i
#2754905
0w
#2754907
1j
#2754915
1p
#2754940
0u
#2754942
1l
#2754943
1y
#2754945
0x
#2754955
0r
#2754956
0q
#2754961
0o
#2755198
0k
#2755307
0v
#2755467
1k
#2755485
0p
#2755492
0y
#2755665
0s
#2758547
1U
1G
1&
#2758586
1W
1E
1$
#2758618
1X
1D
1#
#2759083
0U
0G
0&
#2759089
0W
0E
0$
#2759133
0X
0D
0#
#2759159
0S
0I
0(
#2759223
0V
0F
0%
#2759469
1S
1I
1(
#2875000
14
1C
#2875700
1c
#2879501
0i
#2879531
0j
#2879534
1w
#2879537
1u
#2879541
1x
#2879550
1q
#2879565
1r
#2879569
1o
#2879573
0l
#2879897
1v
#2880080
0k
#2880100
1y
#2880102
1p
#2880254
1s
#2883734
1U
1G
1&
#2883735
1W
1E
1$
#2883775
1X
1D
1#
#2883847
1V
1F
1%
#2884041
0S
0I
0(
#3000000
04
03
02
11
0C
0B
0A
1@
#3000670
1b
#3000806
0d
0c
#3000826
0e
#3003695
1{
#3004132
1j
#3004171
0r
#3004178
1g
#3004181
0w
#3004187
0t
#3004655
0g
#3004656
0j
#3004679
1r
#3004737
1h
#3004766
1t
#3004920
0t
#3004940
0u
#3004945
0x
#3004954
0z
#3004955
0r
#3004956
0q
#3004961
0o
#3004998
0v
#3005203
0h
#3005323
1v
#3005485
0p
#3005492
0y
#3005569
0v
#3005665
0s
#3007197
1^
1L
1+
#3007207
1]
1M
1,
#3007294
1Z
1P
1/
#3007304
1Y
1Q
10
#3008264
1R
1J
1)
#3008693
0R
0J
0)
#3008780
0W
0E
0$
#3009083
0U
0G
0&
#3009133
0X
0D
0#
#3009161
1W
1E
1$
#3009223
0V
0F
0%
#3009351
0W
0E
0$
#3125000
14
1C
#3125700
1c
#3129537
1u
#3129541
1x
#3129550
1q
#3129554
1t
#3129564
1z
#3129565
1r
#3129569
1o
#3130100
1y
#3130102
1p
#3130193
1v
#3130254
1s
#3133734
1U
1G
1&
#3133775
1X
1D
1#
#3133847
1V
1F
1%
#3134031
1W
1E
1$
#3250000
04
13
0C
1B
#3250700
1d
#3250806
0c
#3254375
0r
#3254376
0o
#3254380
0x
#3254382
0t
#3254383
1f
#3254385
1i
#3254387
1j
#3254900
0p
#3254911
0j
#3254927
0y
#3254930
0f
#3254942
1l
#3254956
0q
#3255031
0v
#3255181
1k
#3255665
0s
#3258498
0U
0G
0&
#3258568
0X
0D
0#
#3258813
0W
0E
0$
#3259183
1S
1I
1(
#3259223
0V
0F
0%
#3375000
14
1C
#3375700
1c
#3379527
1j
#3379550
1q
#3379562
1f
#3379573
0l
#3380254
1s
#3383847
1V
1F
1%
#3500000
04
03
12
0C
0B
1A
#3500720
1e
#3500806
0d
0c
#3504298
0i
#3504300
0f
#3504312
1g
#3504313
1x
#3504317
1o
#3504628
1v
#3504753
0o
#3504758
0x
#3504759
0j
0g
#3504760
1f
#3504766
1t
#3504850
1p
#3504871
1h
#3504872
1y
#3504907
1j
#3504916
1w
#3504920
0t
#3504930
0f
#3504935
1g
#3504940
0u
#3504950
1o
#3505117
0k
#3505277
0p
#3505305
0y
#3505307
0v
0h
#3505483
1p
#3505494
1h
#3508398
1R
1J
1)
#3508466
1W
1E
1$
#3508482
1U
1G
1&
#3508547
1X
1D
1#
#3508797
0R
0J
0)
#3508875
0U
0G
0&
#3508946
0X
0D
0#
#3509021
1R
1J
1)
#3509078
0S
0I
0(
#3509089
0W
0E
0$
#3509115
1U
1G
1&
#3625000
14
1C
#3625700
1c
#3629523
0w
#3629531
0j
#3629537
1u
#3629541
0g
#3629554
1t
#3629562
1f
#3629580
0o
#3629897
1v
#3630089
0h
#3630104
0p
#3633579
0R
0J
0)
#3633702
0U
0G
0&
#3633735
1W
1E
1$
#3750000
04
13
0C
1B
#3750700
1d
#3750806
0c
#3754376
0f
#3754382
1o
0t
#3754384
1x
#3754385
1g
#3754387
1j
#3754915
1p
#3754921
0g
#3754942
1l
#3754943
1y
#3754944
1h
#3754945
0x
#3754956
0q
#3754961
0o
#3755304
1m
#3755469
0h
#3755485
0p
#3755492
0y
#3755665
0s
#3758471
1R
1J
1)
#3758547
1U
1G
1&
#3758618
1X
1D
1#
#3758959
0R
0J
0)
#3759083
0U
0G
0&
#3759133
0X
0D
0#
#3759223
0V
0F
0%
#3759445
1T
1H
1'
#3875000
14
1C
#3875700
1c
#3879541
1x
#3879550
1q
#3879555
1g
#3879569
1o
#3879573
0l
#3879943
0m
#3880100
1y
#3880102
1p
#3880114
1h
#3880254
1s
#3883641
1R
1J
1)
#3883734
1U
1G
1&
#3883775
1X
1D
1#
#3883847
1V
1F
1%
#3884018
0T
0H
0'
