Lab 1/lab1_task 1/simulation/qsim/lab1_task1.msim.vcd
$comment
	File created using the following command:
		vcd file lab1_task1.msim.vcd -direction
$end
$date
	Wed Feb 07 08:57:40 2018
$end
$version
	ModelSim Version 10.5b
$end
$timescale
	1ps
$end

$scope module compare_2bit_scalar_vhd_vec_tst $end
$var wire 1 ! a0 $end
$var wire 1 " a1 $end
$var wire 1 # b0 $end
$var wire 1 $ b1 $end
$var wire 1 % G $end
$var wire 1 & L $end

$scope module i1 $end
$var wire 1 ' gnd $end
$var wire 1 ( vcc $end
$var wire 1 ) unknown $end
$var wire 1 * devoe $end
$var wire 1 + devclrn $end
$var wire 1 , devpor $end
$var wire 1 - ww_devoe $end
$var wire 1 . ww_devclrn $end
$var wire 1 / ww_devpor $end
$var wire 1 0 ww_a1 $end
$var wire 1 1 ww_a0 $end
$var wire 1 2 ww_b1 $end
$var wire 1 3 ww_b0 $end
$var wire 1 4 ww_L $end
$var wire 1 5 ww_G $end
$var wire 1 6 \L~output_o\ $end
$var wire 1 7 \G~output_o\ $end
$var wire 1 8 \b0~input_o\ $end
$var wire 1 9 \a1~input_o\ $end
$var wire 1 : \a0~input_o\ $end
$var wire 1 ; \b1~input_o\ $end
$var wire 1 < \L~0_combout\ $end
$var wire 1 = \G~0_combout\ $end
$upscope $end
$upscope $end
$enddefinitions $end
#0
$dumpvars
0!
0"
0#
0$
0%
0&
0'
1(
x)
1*
1+
1,
1-
1.
1/
00
01
02
03
04
05
06
07
x8
x9
x:
x;
x<
x=
$end
#735
08
0;
#745
0:
#755
09
#3444
x7
x5
x%
#3450
x6
x4
x&
#4196
0<
#4734
0=
#7557
06
04
0&
#8092
07
05
0%
#62500
1#
13
#63129
18
#66586
1<
#70036
16
14
1&
#125000
0#
1$
03
12
#125629
1;
#125735
08
#187500
1#
13
#188129
18
#250000
0#
0$
1!
03
02
11
#250639
1:
#250735
0;
08
#254196
0<
#254448
1=
#257557
06
04
0&
#257892
17
15
1%
#312500
1#
13
#313129
18
#316564
0=
#319922
07
05
0%
#375000
0#
1$
03
12
#375629
1;
#375735
08
#378849
1<
#382299
16
14
1&
#437500
1#
13
#438129
18
#500000
0#
0$
0!
1"
03
02
01
10
#500649
19
#500735
0;
08
#500745
0:
#504196
0<
#504211
1=
#507557
06
04
0&
#507655
17
15
1%
#562500
1#
13
#563129
18
#625000
0#
1$
03
12
#625629
1;
#625735
08
#628832
0=
#628849
1<
#629461
0<
#632190
07
05
0%
#632299
16
14
1&
#632822
06
04
0&
#687500
1#
13
#688129
18
#691586
1<
#695036
16
14
1&
#750000
0#
0$
1!
03
02
11
#750639
1:
#750735
0;
08
#753979
0<
#754211
1=
#757340
06
04
0&
#757655
17
15
1%
#812500
1#
13
#813129
18
#875000
0#
1$
03
12
#875629
1;
#875735
08
#878832
0=
#879448
1=
#882190
07
05
0%
#882892
17
15
1%
#937500
1#
13
#938129
18
#941564
0=
#944922
07
05
0%
