Lab 4/lab4_task2/simulation/qsim/lab4_task2.msim.vcd
$comment
	File created using the following command:
		vcd file lab4_task2.msim.vcd -direction
$end
$date
	Fri Mar 02 18:24:51 2018
$end
$version
	ModelSim Version 10.5b
$end
$timescale
	1ps
$end

$scope module priority_encoder_8to3_vhd_vec_tst $end
$var wire 1 ! any $end
$var wire 1 " w [7] $end
$var wire 1 # w [6] $end
$var wire 1 $ w [5] $end
$var wire 1 % w [4] $end
$var wire 1 & w [3] $end
$var wire 1 ' w [2] $end
$var wire 1 ( w [1] $end
$var wire 1 ) w [0] $end
$var wire 1 * y [2] $end
$var wire 1 + y [1] $end
$var wire 1 , y [0] $end

$scope module i1 $end
$var wire 1 - gnd $end
$var wire 1 . vcc $end
$var wire 1 / unknown $end
$var wire 1 0 devoe $end
$var wire 1 1 devclrn $end
$var wire 1 2 devpor $end
$var wire 1 3 ww_devoe $end
$var wire 1 4 ww_devclrn $end
$var wire 1 5 ww_devpor $end
$var wire 1 6 ww_w [7] $end
$var wire 1 7 ww_w [6] $end
$var wire 1 8 ww_w [5] $end
$var wire 1 9 ww_w [4] $end
$var wire 1 : ww_w [3] $end
$var wire 1 ; ww_w [2] $end
$var wire 1 < ww_w [1] $end
$var wire 1 = ww_w [0] $end
$var wire 1 > ww_y [2] $end
$var wire 1 ? ww_y [1] $end
$var wire 1 @ ww_y [0] $end
$var wire 1 A ww_any $end
$var wire 1 B \y[0]~output_o\ $end
$var wire 1 C \y[1]~output_o\ $end
$var wire 1 D \y[2]~output_o\ $end
$var wire 1 E \any~output_o\ $end
$var wire 1 F \w[0]~input_o\ $end
$var wire 1 G \w[1]~input_o\ $end
$var wire 1 H \w[3]~input_o\ $end
$var wire 1 I \w[6]~input_o\ $end
$var wire 1 J \w[5]~input_o\ $end
$var wire 1 K \w[2]~input_o\ $end
$var wire 1 L \w[4]~input_o\ $end
$var wire 1 M \any_y~0_combout\ $end
$var wire 1 N \any_y~1_combout\ $end
$var wire 1 O \any_y~2_combout\ $end
$var wire 1 P \any_y~3_combout\ $end
$var wire 1 Q \any_y~4_combout\ $end
$var wire 1 R \w[7]~input_o\ $end
$var wire 1 S \any_y~5_combout\ $end
$var wire 1 T \any_y~6_combout\ $end
$var wire 1 U \ALT_INV_any_y~4_combout\ $end
$upscope $end
$upscope $end
$enddefinitions $end
#0
$dumpvars
0!
0-
1.
x/
10
11
12
13
14
15
0A
0B
0C
0D
0E
0F
0G
0H
0I
0J
0K
0L
0M
0N
0O
0P
1Q
0R
0S
0T
0U
0"
0#
0$
0%
0&
0'
0(
0)
06
07
08
09
0:
0;
0<
0=
0>
0?
0@
0*
0+
0,
$end
#62500
1)
1=
1F
1N
1P
0Q
1U
1T
1C
1B
1D
1?
1@
1E
1>
1,
1+
1A
1*
1!
#125000
0)
1(
0=
1<
1G
0F
0N
0B
0@
0,
#187500
1)
1=
1F
1N
1B
1@
1,
#250000
0)
0(
1'
0=
0<
1;
1K
0G
0F
0N
0P
1M
1N
0C
0B
0?
0@
1B
0,
0+
1@
1,
#312500
1)
1=
1F
1P
1C
1?
1+
#375000
0)
1(
0=
1<
1G
0F
0N
0B
0@
0,
#437500
1)
1=
1F
1N
1B
1@
1,
#500000
0)
0(
0'
1&
0=
0<
0;
1:
1H
0K
0G
0F
0P
0M
0C
0?
0+
#562500
1)
1=
1F
1P
1C
1?
1+
#625000
0)
1(
0=
1<
1G
0F
0N
0B
0@
0,
#687500
1)
1=
1F
1N
1B
1@
1,
#750000
0)
0(
1'
0=
0<
1;
1K
0G
0F
0P
1M
0C
0?
0+
#812500
1)
1=
1F
1P
1C
1?
1+
#875000
0)
1(
0=
1<
1G
0F
0N
0B
0@
0,
#937500
1)
1=
1F
1N
1B
1@
1,
#1000000
0)
0(
0'
0&
1%
0=
0<
0;
0:
19
1L
0H
0K
0G
0F
0P
1Q
1O
1S
0U
1P
0C
0D
0?
1C
0>
0+
1?
0*
1+
#1062500
1)
1=
1F
0Q
1U
1D
1>
1*
#1125000
0)
1(
0=
1<
1G
0F
0N
0B
0@
0,
#1187500
1)
1=
1F
1N
1B
1@
1,
#1250000
0)
0(
1'
0=
0<
1;
1K
0G
0F
0O
0P
0C
0?
0+
#1312500
1)
1=
1F
1P
1C
1?
1+
#1375000
0)
1(
0=
1<
1G
0F
0N
0B
0@
0,
#1437500
1)
1=
1F
1N
1B
1@
1,
#1500000
0)
0(
0'
1&
0=
0<
0;
1:
1H
0K
0G
0F
0P
0C
0?
0+
#1562500
1)
1=
1F
1P
1C
1?
1+
#1625000
0)
1(
0=
1<
1G
0F
0N
0B
0@
0,
#1687500
1)
1=
1F
1N
1B
1@
1,
#1750000
0)
0(
1'
0=
0<
1;
1K
0G
0F
0P
0C
0?
0+
#1812500
1)
1=
1F
1P
1C
1?
1+
#1875000
0)
1(
0=
1<
1G
0F
0N
0B
0@
0,
#1937500
1)
1=
1F
1N
1B
1@
1,
#2000000
0)
0(
0'
0&
0%
1$
0=
0<
0;
0:
09
18
1J
0L
0H
0K
0G
0F
0P
1Q
0M
1O
0U
1P
0N
0C
0D
0?
0B
1C
0>
0+
0@
1?
0*
0,
1+
#2062500
1)
1=
1F
1N
0Q
1U
1B
1D
1@
1>
1,
1*
#2125000
0)
1(
0=
1<
1G
0F
0N
0B
0@
0,
#2187500
1)
1=
1F
1N
1B
1@
1,
#2250000
0)
0(
1'
0=
0<
1;
1K
0G
0F
0N
1M
0O
0P
1N
0B
0@
1B
0C
0,
1@
0?
1,
0+
#2312500
1)
1=
1F
1P
1C
1?
1+
#2375000
0)
1(
0=
1<
1G
0F
0N
0B
0@
0,
#2437500
1)
1=
1F
1N
1B
1@
1,
#2500000
0)
0(
0'
1&
0=
0<
0;
1:
1H
0K
0G
0F
0P
0M
0C
0?
0+
#2562500
1)
1=
1F
1P
1C
1?
1+
#2625000
0)
1(
0=
1<
1G
0F
0N
0B
0@
0,
#2687500
1)
1=
1F
1N
1B
1@
1,
#2750000
0)
0(
1'
0=
0<
1;
1K
0G
0F
0P
1M
0C
0?
0+
#2812500
1)
1=
1F
1P
1C
1?
1+
#2875000
0)
1(
0=
1<
1G
0F
0N
0B
0@
0,
#2937500
1)
1=
1F
1N
1B
1@
1,
#3000000
0)
0(
0'
0&
1%
0=
0<
0;
0:
19
1L
0H
0K
0G
0F
0P
1Q
1O
0U
1P
0C
0D
0?
1C
0>
0+
1?
0*
1+
#3062500
1)
1=
1F
0Q
1U
1D
1>
1*
#3125000
0)
1(
0=
1<
1G
0F
0N
0B
0@
0,
#3187500
1)
1=
1F
1N
1B
1@
1,
#3250000
0)
0(
1'
0=
0<
1;
1K
0G
0F
0O
0P
0C
0?
0+
#3312500
1)
1=
1F
1P
1C
1?
1+
#3375000
0)
1(
0=
1<
1G
0F
0N
0B
0@
0,
#3437500
1)
1=
1F
1N
1B
1@
1,
#3500000
0)
0(
0'
1&
0=
0<
0;
1:
1H
0K
0G
0F
0P
0C
0?
0+
#3562500
1)
1=
1F
1P
1C
1?
1+
#3625000
0)
1(
0=
1<
1G
0F
0N
0B
0@
0,
#3687500
1)
1=
1F
1N
1B
1@
1,
#3750000
0)
0(
1'
0=
0<
1;
1K
0G
0F
0P
0C
0?
0+
#3812500
1)
1=
1F
1P
1C
1?
1+
#3875000
0)
1(
0=
1<
1G
0F
0N
0B
0@
0,
#3937500
1)
1=
1F
1N
1B
1@
1,
#4000000
0)
0(
0'
0&
0%
0$
1#
0=
0<
0;
0:
09
08
17
1I
0J
0L
0H
0K
0G
0F
0P
1Q
0U
0C
0D
0?
0>
0+
0*
#4062500
1)
1=
1F
1P
0Q
1U
1C
1D
1?
1>
1+
1*
#4125000
0)
1(
0=
1<
1G
0F
0N
0B
0@
0,
#4187500
1)
1=
1F
1N
1B
1@
1,
#4250000
0)
0(
1'
0=
0<
1;
1K
0G
0F
0P
0C
0?
0+
#4312500
1)
1=
1F
1P
1C
1?
1+
#4375000
0)
1(
0=
1<
1G
0F
0N
0B
0@
0,
#4437500
1)
1=
1F
1N
1B
1@
1,
#4500000
0)
0(
0'
1&
0=
0<
0;
1:
1H
0K
0G
0F
0P
0C
0?
0+
#4562500
1)
1=
1F
1P
1C
1?
1+
#4625000
0)
1(
0=
1<
1G
0F
0N
0B
0@
0,
#4687500
1)
1=
1F
1N
1B
1@
1,
#4750000
0)
0(
1'
0=
0<
1;
1K
0G
0F
0P
0C
0?
0+
#4812500
1)
1=
1F
1P
1C
1?
1+
#4875000
0)
1(
0=
1<
1G
0F
0N
0B
0@
0,
#4937500
1)
1=
1F
1N
1B
1@
1,
#5000000
0)
0(
0'
0&
1%
0=
0<
0;
0:
19
1L
0H
0K
0G
0F
0P
1Q
1O
0U
1P
0C
0D
0?
1C
0>
0+
1?
0*
1+
#5062500
1)
1=
1F
0Q
1U
1D
1>
1*
#5125000
0)
1(
0=
1<
1G
0F
0N
0B
0@
0,
#5187500
1)
1=
1F
1N
1B
1@
1,
#5250000
0)
0(
1'
0=
0<
1;
1K
0G
0F
0O
0P
0C
0?
0+
#5312500
1)
1=
1F
1P
1C
1?
1+
#5375000
0)
1(
0=
1<
1G
0F
0N
0B
0@
0,
#5437500
1)
1=
1F
1N
1B
1@
1,
#5500000
0)
0(
0'
1&
0=
0<
0;
1:
1H
0K
0G
0F
0P
0C
0?
0+
#5562500
1)
1=
1F
1P
1C
1?
1+
#5625000
0)
1(
0=
1<
1G
0F
0N
0B
0@
0,
#5687500
1)
1=
1F
1N
1B
1@
1,
#5750000
0)
0(
1'
0=
0<
1;
1K
0G
0F
0P
0C
0?
0+
#5812500
1)
1=
1F
1P
1C
1?
1+
#5875000
0)
1(
0=
1<
1G
0F
0N
0B
0@
0,
#5937500
1)
1=
1F
1N
1B
1@
1,
#6000000
0)
0(
0'
0&
0%
1$
0=
0<
0;
0:
09
18
1J
0L
0H
0K
0G
0F
0P
1Q
0M
1O
0U
1P
0N
0C
0D
0?
0B
1C
0>
0+
0@
1?
0*
0,
1+
#6062500
1)
1=
1F
1N
0Q
1U
1B
1D
1@
1>
1,
1*
#6125000
0)
1(
0=
1<
1G
0F
0N
0B
0@
0,
#6187500
1)
1=
1F
1N
1B
1@
1,
#6250000
0)
0(
1'
0=
0<
1;
1K
0G
0F
0N
1M
0O
0P
1N
0B
0@
1B
0C
0,
1@
0?
1,
0+
#6312500
1)
1=
1F
1P
1C
1?
1+
#6375000
0)
1(
0=
1<
1G
0F
0N
0B
0@
0,
#6437500
1)
1=
1F
1N
1B
1@
1,
#6500000
0)
0(
0'
1&
0=
0<
0;
1:
1H
0K
0G
0F
0P
0M
0C
0?
0+
#6562500
1)
1=
1F
1P
1C
1?
1+
#6625000
0)
1(
0=
1<
1G
0F
0N
0B
0@
0,
#6687500
1)
1=
1F
1N
1B
1@
1,
#6750000
0)
0(
1'
0=
0<
1;
1K
0G
0F
0P
1M
0C
0?
0+
#6812500
1)
1=
1F
1P
1C
1?
1+
#6875000
0)
1(
0=
1<
1G
0F
0N
0B
0@
0,
#6937500
1)
1=
1F
1N
1B
1@
1,
#7000000
0)
0(
0'
0&
1%
0=
0<
0;
0:
19
1L
0H
0K
0G
0F
0P
1Q
1O
0U
1P
0C
0D
0?
1C
0>
0+
1?
0*
1+
#7062500
1)
1=
1F
0Q
1U
1D
1>
1*
#7125000
0)
1(
0=
1<
1G
0F
0N
0B
0@
0,
#7187500
1)
1=
1F
1N
1B
1@
1,
#7250000
0)
0(
1'
0=
0<
1;
1K
0G
0F
0O
0P
0C
0?
0+
#7312500
1)
1=
1F
1P
1C
1?
1+
#7375000
0)
1(
0=
1<
1G
0F
0N
0B
0@
0,
#7437500
1)
1=
1F
1N
1B
1@
1,
#7500000
0)
0(
0'
1&
0=
0<
0;
1:
1H
0K
0G
0F
0P
0C
0?
0+
#7562500
1)
1=
1F
1P
1C
1?
1+
#7625000
0)
1(
0=
1<
1G
0F
0N
0B
0@
0,
#7687500
1)
1=
1F
1N
1B
1@
1,
#7750000
0)
0(
1'
0=
0<
1;
1K
0G
0F
0P
0C
0?
0+
#7812500
1)
1=
1F
1P
1C
1?
1+
#7875000
0)
1(
0=
1<
1G
0F
0N
0B
0@
0,
#7937500
1)
1=
1F
1N
1B
1@
1,
#8000000
0)
0(
0'
0&
0%
0$
0#
1"
0=
0<
0;
0:
09
08
07
16
1R
0I
0J
0L
0H
0K
0G
0F
0P
1Q
0M
0U
0N
0C
0D
0?
0B
0>
0+
0@
0*
0,
#8062500
1)
1=
1F
1N
1P
0Q
1U
1C
1B
1D
1?
1@
1>
1,
1+
1*
#8125000
0)
1(
0=
1<
1G
0F
0N
0B
0@
0,
#8187500
1)
1=
1F
1N
1B
1@
1,
#8250000
0)
0(
1'
0=
0<
1;
1K
0G
0F
0N
0P
1M
1N
0C
0B
0?
0@
1B
0,
0+
1@
1,
#8312500
1)
1=
1F
1P
1C
1?
1+
#8375000
0)
1(
0=
1<
1G
0F
0N
0B
0@
0,
#8437500
1)
1=
1F
1N
1B
1@
1,
#8500000
0)
0(
0'
1&
0=
0<
0;
1:
1H
0K
0G
0F
0P
0M
0C
0?
0+
#8562500
1)
1=
1F
1P
1C
1?
1+
#8625000
0)
1(
0=
1<
1G
0F
0N
0B
0@
0,
#8687500
1)
1=
1F
1N
1B
1@
1,
#8750000
0)
0(
1'
0=
0<
1;
1K
0G
0F
0P
1M
0C
0?
0+
#8812500
1)
1=
1F
1P
1C
1?
1+
#8875000
0)
1(
0=
1<
1G
0F
0N
0B
0@
0,
#8937500
1)
1=
1F
1N
1B
1@
1,
#9000000
0)
0(
0'
0&
1%
0=
0<
0;
0:
19
1L
0H
0K
0G
0F
0P
1Q
1O
0U
1P
0C
0D
0?
1C
0>
0+
1?
0*
1+
#9062500
1)
1=
1F
0Q
1U
1D
1>
1*
#9125000
0)
1(
0=
1<
1G
0F
0N
0B
0@
0,
#9187500
1)
1=
1F
1N
1B
1@
1,
#9250000
0)
0(
1'
0=
0<
1;
1K
0G
0F
0O
0P
0C
0?
0+
#9312500
1)
1=
1F
1P
1C
1?
1+
#9375000
0)
1(
0=
1<
1G
0F
0N
0B
0@
0,
#9437500
1)
1=
1F
1N
1B
1@
1,
#9500000
0)
0(
0'
1&
0=
0<
0;
1:
1H
0K
0G
0F
0P
0C
0?
0+
#9562500
1)
1=
1F
1P
1C
1?
1+
#9625000
0)
1(
0=
1<
1G
0F
0N
0B
0@
0,
#9687500
1)
1=
1F
1N
1B
1@
1,
#9750000
0)
0(
1'
0=
0<
1;
1K
0G
0F
0P
0C
0?
0+
#9812500
1)
1=
1F
1P
1C
1?
1+
#9875000
0)
1(
0=
1<
1G
0F
0N
0B
0@
0,
#9937500
1)
1=
1F
1N
1B
1@
1,
#10000000
0)
0(
0'
0&
0%
1$
0=
0<
0;
0:
09
18
1J
0L
0H
0K
0G
0F
0P
1Q
0M
1O
0U
1P
0N
0C
0D
0?
0B
1C
0>
0+
0@
1?
0*
0,
1+
#10062500
1)
1=
1F
1N
0Q
1U
1B
1D
1@
1>
1,
1*
#10125000
0)
1(
0=
1<
1G
0F
0N
0B
0@
0,
#10187500
1)
1=
1F
1N
1B
1@
1,
#10250000
0)
0(
1'
0=
0<
1;
1K
0G
0F
0N
1M
0O
0P
1N
0B
0@
1B
0C
0,
1@
0?
1,
0+
#10312500
1)
1=
1F
1P
1C
1?
1+
#10375000
0)
1(
0=
1<
1G
0F
0N
0B
0@
0,
#10437500
1)
1=
1F
1N
1B
1@
1,
#10500000
0)
0(
0'
1&
0=
0<
0;
1:
1H
0K
0G
0F
0P
0M
0C
0?
0+
#10562500
1)
1=
1F
1P
1C
1?
1+
#10625000
0)
1(
0=
1<
1G
0F
0N
0B
0@
0,
#10687500
1)
1=
1F
1N
1B
1@
1,
#10750000
0)
0(
1'
0=
0<
1;
1K
0G
0F
0P
1M
0C
0?
0+
#10812500
1)
1=
1F
1P
1C
1?
1+
#10875000
0)
1(
0=
1<
1G
0F
0N
0B
0@
0,
#10937500
1)
1=
1F
1N
1B
1@
1,
#11000000
0)
0(
0'
0&
1%
0=
0<
0;
0:
19
1L
0H
0K
0G
0F
0P
1Q
1O
0U
1P
0C
0D
0?
1C
0>
0+
1?
0*
1+
#11062500
1)
1=
1F
0Q
1U
1D
1>
1*
#11125000
0)
1(
0=
1<
1G
0F
0N
0B
0@
0,
#11187500
1)
1=
1F
1N
1B
1@
1,
#11250000
0)
0(
1'
0=
0<
1;
1K
0G
0F
0O
0P
0C
0?
0+
#11312500
1)
1=
1F
1P
1C
1?
1+
#11375000
0)
1(
0=
1<
1G
0F
0N
0B
0@
0,
#11437500
1)
1=
1F
1N
1B
1@
1,
#11500000
0)
0(
0'
1&
0=
0<
0;
1:
1H
0K
0G
0F
0P
0C
0?
0+
#11562500
1)
1=
1F
1P
1C
1?
1+
#11625000
0)
1(
0=
1<
1G
0F
0N
0B
0@
0,
#11687500
1)
1=
1F
1N
1B
1@
1,
#11750000
0)
0(
1'
0=
0<
1;
1K
0G
0F
0P
0C
0?
0+
#11812500
1)
1=
1F
1P
1C
1?
1+
#11875000
0)
1(
0=
1<
1G
0F
0N
0B
0@
0,
#11937500
1)
1=
1F
1N
1B
1@
1,
#12000000
0)
0(
0'
0&
0%
0$
1#
0=
0<
0;
0:
09
08
17
1I
0J
0L
0H
0K
0G
0F
0P
1Q
0U
0C
0D
0?
0>
0+
0*
#12062500
1)
1=
1F
1P
0Q
1U
1C
1D
1?
1>
1+
1*
#12125000
0)
1(
0=
1<
1G
0F
0N
0B
0@
0,
#12187500
1)
1=
1F
1N
1B
1@
1,
#12250000
0)
0(
1'
0=
0<
1;
1K
0G
0F
0P
0C
0?
0+
#12312500
1)
1=
1F
1P
1C
1?
1+
#12375000
0)
1(
0=
1<
1G
0F
0N
0B
0@
0,
#12437500
1)
1=
1F
1N
1B
1@
1,
#12500000
0)
0(
0'
1&
0=
0<
0;
1:
1H
0K
0G
0F
0P
0C
0?
0+
#12562500
1)
1=
1F
1P
1C
1?
1+
#12625000
0)
1(
0=
1<
1G
0F
0N
0B
0@
0,
#12687500
1)
1=
1F
1N
1B
1@
1,
#12750000
0)
0(
1'
0=
0<
1;
1K
0G
0F
0P
0C
0?
0+
#12812500
1)
1=
1F
1P
1C
1?
1+
#12875000
0)
1(
0=
1<
1G
0F
0N
0B
0@
0,
#12937500
1)
1=
1F
1N
1B
1@
1,
#13000000
0)
0(
0'
0&
1%
0=
0<
0;
0:
19
1L
0H
0K
0G
0F
0P
1Q
1O
0U
1P
0C
0D
0?
1C
0>
0+
1?
0*
1+
#13062500
1)
1=
1F
0Q
1U
1D
1>
1*
#13125000
0)
1(
0=
1<
1G
0F
0N
0B
0@
0,
#13187500
1)
1=
1F
1N
1B
1@
1,
#13250000
0)
0(
1'
0=
0<
1;
1K
0G
0F
0O
0P
0C
0?
0+
#13312500
1)
1=
1F
1P
1C
1?
1+
#13375000
0)
1(
0=
1<
1G
0F
0N
0B
0@
0,
#13437500
1)
1=
1F
1N
1B
1@
1,
#13500000
0)
0(
0'
1&
0=
0<
0;
1:
1H
0K
0G
0F
0P
0C
0?
0+
#13562500
1)
1=
1F
1P
1C
1?
1+
#13625000
0)
1(
0=
1<
1G
0F
0N
0B
0@
0,
#13687500
1)
1=
1F
1N
1B
1@
1,
#13750000
0)
0(
1'
0=
0<
1;
1K
0G
0F
0P
0C
0?
0+
#13812500
1)
1=
1F
1P
1C
1?
1+
#13875000
0)
1(
0=
1<
1G
0F
0N
0B
0@
0,
#13937500
1)
1=
1F
1N
1B
1@
1,
#14000000
0)
0(
0'
0&
0%
1$
0=
0<
0;
0:
09
18
1J
0L
0H
0K
0G
0F
0P
1Q
0M
1O
0U
1P
0N
0C
0D
0?
0B
1C
0>
0+
0@
1?
0*
0,
1+
#14062500
1)
1=
1F
1N
0Q
1U
1B
1D
1@
1>
1,
1*
#14125000
0)
1(
0=
1<
1G
0F
0N
0B
0@
0,
#14187500
1)
1=
1F
1N
1B
1@
1,
#14250000
0)
0(
1'
0=
0<
1;
1K
0G
0F
0N
1M
0O
0P
1N
0B
0@
1B
0C
0,
1@
0?
1,
0+
#14312500
1)
1=
1F
1P
1C
1?
1+
#14375000
0)
1(
0=
1<
1G
0F
0N
0B
0@
0,
#14437500
1)
1=
1F
1N
1B
1@
1,
#14500000
0)
0(
0'
1&
0=
0<
0;
1:
1H
0K
0G
0F
0P
0M
0C
0?
0+
#14562500
1)
1=
1F
1P
1C
1?
1+
#14625000
0)
1(
0=
1<
1G
0F
0N
0B
0@
0,
#14687500
1)
1=
1F
1N
1B
1@
1,
#14750000
0)
0(
1'
0=
0<
1;
1K
0G
0F
0P
1M
0C
0?
0+
#14812500
1)
1=
1F
1P
1C
1?
1+
#14875000
0)
1(
0=
1<
1G
0F
0N
0B
0@
0,
#14937500
1)
1=
1F
1N
1B
1@
1,
#15000000
0)
0(
0'
0&
1%
0=
0<
0;
0:
19
1L
0H
0K
0G
0F
0P
1Q
1O
0U
1P
0C
0D
0?
1C
0>
0+
1?
0*
1+
#15062500
1)
1=
1F
0Q
1U
1D
1>
1*
#15125000
0)
1(
0=
1<
1G
0F
0N
0B
0@
0,
#15187500
1)
1=
1F
1N
1B
1@
1,
#15250000
0)
0(
1'
0=
0<
1;
1K
0G
0F
0O
0P
0C
0?
0+
#15312500
1)
1=
1F
1P
1C
1?
1+
#15375000
0)
1(
0=
1<
1G
0F
0N
0B
0@
0,
#15437500
1)
1=
1F
1N
1B
1@
1,
#15500000
0)
0(
0'
1&
0=
0<
0;
1:
1H
0K
0G
0F
0P
0C
0?
0+
#15562500
1)
1=
1F
1P
1C
1?
1+
#15625000
0)
1(
0=
1<
1G
0F
0N
0B
0@
0,
#15687500
1)
1=
1F
1N
1B
1@
1,
#15750000
0)
0(
1'
0=
0<
1;
1K
0G
0F
0P
0C
0?
0+
#15812500
1)
1=
1F
1P
1C
1?
1+
#15875000
0)
1(
0=
1<
1G
0F
0N
0B
0@
0,
#15937500
1)
1=
1F
1N
1B
1@
1,
