Lab 3/lab3_task3/simulation/qsim/lab3_task3.msim.vcd
$comment
	File created using the following command:
		vcd file lab3_task3.msim.vcd -direction
$end
$date
	Sun Feb 25 05:14:39 2018
$end
$version
	ModelSim Version 10.5b
$end
$timescale
	1ps
$end

$scope module mux_4to1_nbit_vhd_vec_tst $end
$var wire 1 ! f [1] $end
$var wire 1 " f [0] $end
$var wire 1 # s [1] $end
$var wire 1 $ s [0] $end
$var wire 1 % w0 [1] $end
$var wire 1 & w0 [0] $end
$var wire 1 ' w1 [1] $end
$var wire 1 ( w1 [0] $end
$var wire 1 ) w2 [1] $end
$var wire 1 * w2 [0] $end
$var wire 1 + w3 [1] $end
$var wire 1 , w3 [0] $end

$scope module i1 $end
$var wire 1 - gnd $end
$var wire 1 . vcc $end
$var wire 1 / unknown $end
$var wire 1 0 devoe $end
$var wire 1 1 devclrn $end
$var wire 1 2 devpor $end
$var wire 1 3 ww_devoe $end
$var wire 1 4 ww_devclrn $end
$var wire 1 5 ww_devpor $end
$var wire 1 6 ww_w3 [1] $end
$var wire 1 7 ww_w3 [0] $end
$var wire 1 8 ww_w2 [1] $end
$var wire 1 9 ww_w2 [0] $end
$var wire 1 : ww_w1 [1] $end
$var wire 1 ; ww_w1 [0] $end
$var wire 1 < ww_w0 [1] $end
$var wire 1 = ww_w0 [0] $end
$var wire 1 > ww_s [1] $end
$var wire 1 ? ww_s [0] $end
$var wire 1 @ ww_f [1] $end
$var wire 1 A ww_f [0] $end
$var wire 1 B \f[0]~output_o\ $end
$var wire 1 C \f[1]~output_o\ $end
$var wire 1 D \w2[0]~input_o\ $end
$var wire 1 E \s[1]~input_o\ $end
$var wire 1 F \w1[0]~input_o\ $end
$var wire 1 G \s[0]~input_o\ $end
$var wire 1 H \w0[0]~input_o\ $end
$var wire 1 I \f~0_combout\ $end
$var wire 1 J \w3[0]~input_o\ $end
$var wire 1 K \f~1_combout\ $end
$var wire 1 L \w1[1]~input_o\ $end
$var wire 1 M \w2[1]~input_o\ $end
$var wire 1 N \w0[1]~input_o\ $end
$var wire 1 O \f~2_combout\ $end
$var wire 1 P \w3[1]~input_o\ $end
$var wire 1 Q \f~3_combout\ $end
$upscope $end
$upscope $end
$enddefinitions $end
#0
$dumpvars
0-
1.
x/
10
11
12
13
14
15
0B
1C
1D
0E
0F
0G
0H
0I
0J
0K
1L
0M
1N
1O
0P
1Q
0#
0$
1%
0&
1'
0(
0)
1*
0+
0,
06
07
08
19
1:
0;
1<
0=
0>
0?
1@
0A
1!
0"
$end
#62500
0'
1(
1)
0*
1;
0:
09
18
1M
0D
0L
1F
#125000
1'
1*
1+
1,
1:
19
17
16
1P
1J
1D
1L
#187500
0'
0)
0%
0:
08
0<
0N
0M
0L
0O
0Q
0C
0@
0!
#250000
1'
1)
0,
0(
0;
1:
18
07
0J
1M
1L
0F
#312500
1%
0+
1<
06
0P
1N
1O
1Q
1C
1@
1!
#375000
0%
1+
0)
1,
1(
0*
1&
1=
0<
17
16
09
08
1;
1F
0M
0D
1P
1J
0N
1H
0O
1I
1K
0Q
0C
1B
0@
1A
1"
0!
#437500
1%
0+
0,
1<
07
06
0P
0J
1N
1O
1Q
1C
1@
1!
#500000
0%
1,
0'
1$
0<
17
0:
1?
1G
0L
1J
0N
0O
0Q
0C
0@
0!
#562500
1'
0(
1*
0&
0;
1:
19
0=
0H
1D
1L
0F
1Q
0I
0K
1C
1@
0B
1!
0A
0"
#625000
0'
1(
0*
1+
1)
1;
0:
09
18
16
1P
1M
0D
0L
1F
1I
0Q
1K
0C
0@
1B
0!
1A
1"
#687500
1'
1*
0+
1%
0,
1:
19
07
06
1<
1N
0P
0J
1D
1L
1Q
1C
1@
1!
#750000
0*
1+
0%
1,
0)
1&
09
08
17
16
1=
0<
0N
1H
1P
1J
0M
0D
#812500
1*
0+
0,
1)
0'
0(
19
18
07
06
0;
0:
0L
0F
0P
0J
1M
1D
0I
0Q
0K
0C
0@
0B
0!
0A
0"
#875000
0*
1+
1(
09
16
1;
1F
1P
0D
1I
1K
1B
1A
1"
#937500
1*
0(
0)
1%
0&
19
08
0;
0=
1<
1N
0H
0F
0M
1D
0I
0K
0B
0A
0"
#1000000
1(
0%
1&
0+
1'
0$
1#
1;
1:
1=
0<
06
0?
1>
1E
0G
0P
0N
1H
1L
1F
1K
1B
1A
1"
#1062500
0(
1%
0&
1+
0'
0*
1,
0;
0:
0=
1<
17
16
09
0D
1P
1J
1N
0H
0L
0F
0K
0B
0A
0"
#1125000
1&
1'
1*
0,
1)
1=
1:
19
18
07
0J
1M
1D
1L
1H
1O
1K
1Q
1B
1A
1C
1"
1@
1!
#1187500
0*
1,
0)
1(
0%
09
08
17
1;
0<
0N
1F
1J
0M
0D
0K
0O
0Q
0B
0A
0C
0"
0@
0!
#1250000
1*
0,
1)
1%
0&
0'
19
18
07
0=
1<
0:
0L
1N
0H
0J
1M
1D
1K
1O
1Q
1B
1A
1C
1"
1@
1!
#1312500
0)
1&
1'
0(
08
1=
0;
1:
1L
0F
1H
0M
0O
0Q
0C
0@
0!
#1375000
0&
1,
0=
17
1J
0H
#1437500
0'
1(
0*
0+
1;
0:
09
06
0P
0D
0L
1F
0K
0B
0A
0"
#1500000
1*
1+
0,
1)
0%
1$
19
18
07
16
0<
1?
1G
0N
1P
0J
1M
1D
1K
1I
1O
1Q
0K
1B
1A
0B
1C
1"
0A
1@
0"
1!
#1562500
0*
0+
1,
09
17
06
0P
1J
0D
1K
0Q
0C
1B
0@
1A
1"
0!
#1625000
1%
1'
0(
1<
0;
1:
1L
0F
1N
#1687500
0'
1*
1+
0,
1&
0:
19
07
16
1=
1H
1P
0J
1D
0L
0K
1Q
1C
0B
1@
0A
0"
1!
#1750000
1'
0*
1,
0&
0%
1(
1;
1:
09
17
0=
0<
0N
0H
1J
0D
1L
1F
1K
1B
1A
1"
#1812500
1&
0(
0+
1=
0;
06
0P
0F
1H
0Q
0C
0@
0!
#1875000
0&
1+
0,
1%
0)
0=
1<
07
16
08
0M
1P
0J
1N
0H
0K
1Q
1C
0B
1@
0A
0"
1!
#1937500
1)
0'
1*
19
18
0:
0L
1M
1D
