Lab 3/lab3_task1/simulation/qsim/lab3_task1.msim.vcd
$comment
	File created using the following command:
		vcd file lab3_task1.msim.vcd -direction
$end
$date
	Sun Feb 25 05:00:14 2018
$end
$version
	ModelSim Version 10.5b
$end
$timescale
	1ps
$end

$scope module compare_2bit_vhd_vec_tst $end
$var wire 1 ! E $end
$var wire 1 " G $end
$var wire 1 # L $end
$var wire 1 $ x [1] $end
$var wire 1 % x [0] $end
$var wire 1 & y [1] $end
$var wire 1 ' y [0] $end

$scope module i1 $end
$var wire 1 ( gnd $end
$var wire 1 ) vcc $end
$var wire 1 * unknown $end
$var wire 1 + devoe $end
$var wire 1 , devclrn $end
$var wire 1 - devpor $end
$var wire 1 . ww_devoe $end
$var wire 1 / ww_devclrn $end
$var wire 1 0 ww_devpor $end
$var wire 1 1 ww_x [1] $end
$var wire 1 2 ww_x [0] $end
$var wire 1 3 ww_y [1] $end
$var wire 1 4 ww_y [0] $end
$var wire 1 5 ww_L $end
$var wire 1 6 ww_G $end
$var wire 1 7 ww_E $end
$var wire 1 8 \L~output_o\ $end
$var wire 1 9 \G~output_o\ $end
$var wire 1 : \E~output_o\ $end
$var wire 1 ; \y[0]~input_o\ $end
$var wire 1 < \y[1]~input_o\ $end
$var wire 1 = \x[0]~input_o\ $end
$var wire 1 > \x[1]~input_o\ $end
$var wire 1 ? \L~0_combout\ $end
$var wire 1 @ \Mux0~0_combout\ $end
$var wire 1 A \E~0_combout\ $end
$var wire 1 B \ALT_INV_E~0_combout\ $end
$upscope $end
$upscope $end
$enddefinitions $end
#0
$dumpvars
0!
0"
0#
0(
1)
x*
1+
1,
1-
1.
1/
10
05
06
07
08
09
0:
x;
x<
x=
x>
x?
x@
xA
xB
0$
0%
0&
0'
01
02
03
04
$end
#736
0<
#766
0=
#786
0;
0>
#3260
x:
x7
x!
#3574
x8
x5
x#
#3591
x9
x6
x"
#4271
0A
1B
#4272
0@
0?
#7521
1:
17
1!
#7804
08
05
0#
#7826
09
06
0"
#62500
1'
14
#63180
1;
#66429
1?
#66430
1A
0B
#69715
0:
07
0!
#70003
18
15
1#
#125000
0'
1&
04
13
#125630
1<
#125786
0;
#187500
1'
14
#188180
1;
#250000
0'
0&
1%
04
03
12
#250660
1=
#250736
0<
#250786
0;
#254504
1@
#254516
0?
#258048
08
05
0#
#258095
19
16
1"
#312500
1'
14
#313180
1;
#316409
0@
#316417
0A
1B
#319667
1:
17
1!
#319963
09
06
0"
#375000
0'
1&
04
13
#375630
1<
#375786
0;
#379173
1A
1?
0B
#382458
0:
07
0!
#382747
18
15
1#
#437500
1'
14
#438180
1;
#500000
0'
0&
0%
1$
04
03
02
11
#500680
1>
#500736
0<
#500766
0=
#500786
0;
#503911
0A
1B
#503912
0?
#504270
1@
#504296
1A
0B
#507161
1:
17
1!
#507444
08
05
0#
#507581
0:
07
0!
#507861
19
16
1"
#562500
1'
14
#563180
1;
#625000
0'
1&
04
13
#625630
1<
#625786
0;
#629164
0@
#629173
1?
#629282
0?
#629283
0A
1B
#632533
1:
17
1!
#632718
09
06
0"
#632747
18
15
1#
#632814
08
05
0#
#687500
1'
14
#688180
1;
#691429
1?
#691430
1A
0B
#694715
0:
07
0!
#695003
18
15
1#
#750000
0'
0&
1%
04
03
12
#750660
1=
#750736
0<
#750786
0;
#754038
0?
#754039
0A
1B
#754270
1@
#754296
1A
0B
#757289
1:
17
1!
#757570
08
05
0#
#757581
0:
07
0!
#757861
19
16
1"
#812500
1'
14
#813180
1;
#875000
0'
1&
04
13
#875630
1<
#875786
0;
#879159
0A
1B
#879164
0@
#879270
1@
#879296
1A
0B
#882409
1:
17
1!
#882581
0:
07
0!
#882718
09
06
0"
#882861
19
16
1"
#937500
1'
14
#938180
1;
#941409
0@
#941417
0A
1B
#944667
1:
17
1!
#944963
09
06
0"
