Lab 4/lab4_task3/simulation/qsim/lab4_task3.msim.vcd
$comment
	File created using the following command:
		vcd file lab4_task3.msim.vcd -direction
$end
$date
	Fri Mar 02 18:48:40 2018
$end
$version
	ModelSim Version 10.5b
$end
$timescale
	1ps
$end

$scope module priority_encoder_8to3_vhd_vec_tst $end
$var wire 1 ! any $end
$var wire 1 " w [7] $end
$var wire 1 # w [6] $end
$var wire 1 $ w [5] $end
$var wire 1 % w [4] $end
$var wire 1 & w [3] $end
$var wire 1 ' w [2] $end
$var wire 1 ( w [1] $end
$var wire 1 ) w [0] $end
$var wire 1 * y [2] $end
$var wire 1 + y [1] $end
$var wire 1 , y [0] $end

$scope module i1 $end
$var wire 1 - gnd $end
$var wire 1 . vcc $end
$var wire 1 / unknown $end
$var wire 1 0 devoe $end
$var wire 1 1 devclrn $end
$var wire 1 2 devpor $end
$var wire 1 3 ww_devoe $end
$var wire 1 4 ww_devclrn $end
$var wire 1 5 ww_devpor $end
$var wire 1 6 ww_w [7] $end
$var wire 1 7 ww_w [6] $end
$var wire 1 8 ww_w [5] $end
$var wire 1 9 ww_w [4] $end
$var wire 1 : ww_w [3] $end
$var wire 1 ; ww_w [2] $end
$var wire 1 < ww_w [1] $end
$var wire 1 = ww_w [0] $end
$var wire 1 > ww_y [2] $end
$var wire 1 ? ww_y [1] $end
$var wire 1 @ ww_y [0] $end
$var wire 1 A ww_any $end
$var wire 1 B \y[0]~output_o\ $end
$var wire 1 C \y[1]~output_o\ $end
$var wire 1 D \y[2]~output_o\ $end
$var wire 1 E \any~output_o\ $end
$var wire 1 F \w[7]~input_o\ $end
$var wire 1 G \w[5]~input_o\ $end
$var wire 1 H \w[6]~input_o\ $end
$var wire 1 I \w[3]~input_o\ $end
$var wire 1 J \w[1]~input_o\ $end
$var wire 1 K \w[2]~input_o\ $end
$var wire 1 L \w[4]~input_o\ $end
$var wire 1 M \mux0|f[0]~0_combout\ $end
$var wire 1 N \mux0|f[0]~1_combout\ $end
$var wire 1 O \pri_enc2|y[0]~0_combout\ $end
$var wire 1 P \pri_enc2|y[0]~1_combout\ $end
$var wire 1 Q \pri_enc2|process_0~0_combout\ $end
$var wire 1 R \w[0]~input_o\ $end
$var wire 1 S \pri_enc2|a~0_combout\ $end
$var wire 1 T \pri_enc2|a~combout\ $end
$upscope $end
$upscope $end
$enddefinitions $end
#0
$dumpvars
0!
0-
1.
x/
10
11
12
13
14
15
0A
0B
0C
0D
0E
0F
0G
0H
0I
0J
0K
0L
0M
0N
0O
0P
0Q
0R
0S
0T
0"
0#
0$
0%
0&
0'
0(
0)
06
07
08
09
0:
0;
0<
0=
0>
0?
0@
0*
0+
0,
$end
#62500
1)
1=
1R
1S
1T
1E
1A
1!
#125000
0)
1(
0=
1<
1J
0R
1M
1N
1B
1@
1,
#187500
1)
1=
1R
#250000
0)
0(
1'
0=
0<
1;
1K
0J
0R
0M
1O
1P
0N
0B
1C
0@
1?
0,
1+
#312500
1)
1=
1R
#375000
0)
1(
0=
1<
1J
0R
#437500
1)
1=
1R
#500000
0)
0(
0'
1&
0=
0<
0;
1:
1I
0K
0J
0R
1M
1N
1B
1@
1,
#562500
1)
1=
1R
#625000
0)
1(
0=
1<
1J
0R
#687500
1)
1=
1R
#750000
0)
0(
1'
0=
0<
1;
1K
0J
0R
#812500
1)
1=
1R
#875000
0)
1(
0=
1<
1J
0R
#937500
1)
1=
1R
#1000000
0)
0(
0'
0&
1%
0=
0<
0;
0:
19
1L
0I
0K
0J
0R
0S
0M
0O
1Q
0P
0N
1D
1>
0B
0C
1*
0@
0?
0,
0+
#1062500
1)
1=
1R
1S
#1125000
0)
1(
0=
1<
1J
0R
#1187500
1)
1=
1R
#1250000
0)
0(
1'
0=
0<
1;
1K
0J
0R
#1312500
1)
1=
1R
#1375000
0)
1(
0=
1<
1J
0R
#1437500
1)
1=
1R
#1500000
0)
0(
0'
1&
0=
0<
0;
1:
1I
0K
0J
0R
#1562500
1)
1=
1R
#1625000
0)
1(
0=
1<
1J
0R
#1687500
1)
1=
1R
#1750000
0)
0(
1'
0=
0<
1;
1K
0J
0R
#1812500
1)
1=
1R
#1875000
0)
1(
0=
1<
1J
0R
#1937500
1)
1=
1R
#2000000
0)
0(
0'
0&
0%
1$
0=
0<
0;
0:
09
18
1G
0L
0I
0K
0J
0R
0S
1N
1B
1@
1,
#2062500
1)
1=
1R
1S
#2125000
0)
1(
0=
1<
1J
0R
1M
#2187500
1)
1=
1R
#2250000
0)
0(
1'
0=
0<
1;
1K
0J
0R
0M
#2312500
1)
1=
1R
#2375000
0)
1(
0=
1<
1J
0R
#2437500
1)
1=
1R
#2500000
0)
0(
0'
1&
0=
0<
0;
1:
1I
0K
0J
0R
1M
#2562500
1)
1=
1R
#2625000
0)
1(
0=
1<
1J
0R
#2687500
1)
1=
1R
#2750000
0)
0(
1'
0=
0<
1;
1K
0J
0R
#2812500
1)
1=
1R
#2875000
0)
1(
0=
1<
1J
0R
#2937500
1)
1=
1R
#3000000
0)
0(
0'
0&
1%
0=
0<
0;
0:
19
1L
0I
0K
0J
0R
0S
0M
#3062500
1)
1=
1R
1S
#3125000
0)
1(
0=
1<
1J
0R
#3187500
1)
1=
1R
#3250000
0)
0(
1'
0=
0<
1;
1K
0J
0R
#3312500
1)
1=
1R
#3375000
0)
1(
0=
1<
1J
0R
#3437500
1)
1=
1R
#3500000
0)
0(
0'
1&
0=
0<
0;
1:
1I
0K
0J
0R
#3562500
1)
1=
1R
#3625000
0)
1(
0=
1<
1J
0R
#3687500
1)
1=
1R
#3750000
0)
0(
1'
0=
0<
1;
1K
0J
0R
#3812500
1)
1=
1R
#3875000
0)
1(
0=
1<
1J
0R
#3937500
1)
1=
1R
#4000000
0)
0(
0'
0&
0%
0$
1#
0=
0<
0;
0:
09
08
17
1H
0G
0L
0I
0K
0J
0R
0S
0N
1P
1C
0B
1?
0@
0,
1+
#4062500
1)
1=
1R
1S
#4125000
0)
1(
0=
1<
1J
0R
1M
#4187500
1)
1=
1R
#4250000
0)
0(
1'
0=
0<
1;
1K
0J
0R
0M
1O
#4312500
1)
1=
1R
#4375000
0)
1(
0=
1<
1J
0R
#4437500
1)
1=
1R
#4500000
0)
0(
0'
1&
0=
0<
0;
1:
1I
0K
0J
0R
1M
#4562500
1)
1=
1R
#4625000
0)
1(
0=
1<
1J
0R
#4687500
1)
1=
1R
#4750000
0)
0(
1'
0=
0<
1;
1K
0J
0R
#4812500
1)
1=
1R
#4875000
0)
1(
0=
1<
1J
0R
#4937500
1)
1=
1R
#5000000
0)
0(
0'
0&
1%
0=
0<
0;
0:
19
1L
0I
0K
0J
0R
0S
0M
0O
#5062500
1)
1=
1R
1S
#5125000
0)
1(
0=
1<
1J
0R
#5187500
1)
1=
1R
#5250000
0)
0(
1'
0=
0<
1;
1K
0J
0R
#5312500
1)
1=
1R
#5375000
0)
1(
0=
1<
1J
0R
#5437500
1)
1=
1R
#5500000
0)
0(
0'
1&
0=
0<
0;
1:
1I
0K
0J
0R
#5562500
1)
1=
1R
#5625000
0)
1(
0=
1<
1J
0R
#5687500
1)
1=
1R
#5750000
0)
0(
1'
0=
0<
1;
1K
0J
0R
#5812500
1)
1=
1R
#5875000
0)
1(
0=
1<
1J
0R
#5937500
1)
1=
1R
#6000000
0)
0(
0'
0&
0%
1$
0=
0<
0;
0:
09
18
1G
0L
0I
0K
0J
0R
0S
#6062500
1)
1=
1R
1S
#6125000
0)
1(
0=
1<
1J
0R
1M
#6187500
1)
1=
1R
#6250000
0)
0(
1'
0=
0<
1;
1K
0J
0R
0M
#6312500
1)
1=
1R
#6375000
0)
1(
0=
1<
1J
0R
#6437500
1)
1=
1R
#6500000
0)
0(
0'
1&
0=
0<
0;
1:
1I
0K
0J
0R
1M
#6562500
1)
1=
1R
#6625000
0)
1(
0=
1<
1J
0R
#6687500
1)
1=
1R
#6750000
0)
0(
1'
0=
0<
1;
1K
0J
0R
#6812500
1)
1=
1R
#6875000
0)
1(
0=
1<
1J
0R
#6937500
1)
1=
1R
#7000000
0)
0(
0'
0&
1%
0=
0<
0;
0:
19
1L
0I
0K
0J
0R
0S
0M
#7062500
1)
1=
1R
1S
#7125000
0)
1(
0=
1<
1J
0R
#7187500
1)
1=
1R
#7250000
0)
0(
1'
0=
0<
1;
1K
0J
0R
#7312500
1)
1=
1R
#7375000
0)
1(
0=
1<
1J
0R
#7437500
1)
1=
1R
#7500000
0)
0(
0'
1&
0=
0<
0;
1:
1I
0K
0J
0R
#7562500
1)
1=
1R
#7625000
0)
1(
0=
1<
1J
0R
#7687500
1)
1=
1R
#7750000
0)
0(
1'
0=
0<
1;
1K
0J
0R
#7812500
1)
1=
1R
#7875000
0)
1(
0=
1<
1J
0R
#7937500
1)
1=
1R
#8000000
0)
0(
0'
0&
0%
0$
0#
1"
0=
0<
0;
0:
09
08
07
16
1F
0H
0G
0L
0I
0K
0J
0R
0S
1N
1B
1@
1,
#8062500
1)
1=
1R
1S
#8125000
0)
1(
0=
1<
1J
0R
1M
#8187500
1)
1=
1R
#8250000
0)
0(
1'
0=
0<
1;
1K
0J
0R
0M
1O
#8312500
1)
1=
1R
#8375000
0)
1(
0=
1<
1J
0R
#8437500
1)
1=
1R
#8500000
0)
0(
0'
1&
0=
0<
0;
1:
1I
0K
0J
0R
1M
#8562500
1)
1=
1R
#8625000
0)
1(
0=
1<
1J
0R
#8687500
1)
1=
1R
#8750000
0)
0(
1'
0=
0<
1;
1K
0J
0R
#8812500
1)
1=
1R
#8875000
0)
1(
0=
1<
1J
0R
#8937500
1)
1=
1R
#9000000
0)
0(
0'
0&
1%
0=
0<
0;
0:
19
1L
0I
0K
0J
0R
0S
0M
0O
#9062500
1)
1=
1R
1S
#9125000
0)
1(
0=
1<
1J
0R
#9187500
1)
1=
1R
#9250000
0)
0(
1'
0=
0<
1;
1K
0J
0R
#9312500
1)
1=
1R
#9375000
0)
1(
0=
1<
1J
0R
#9437500
1)
1=
1R
#9500000
0)
0(
0'
1&
0=
0<
0;
1:
1I
0K
0J
0R
#9562500
1)
1=
1R
#9625000
0)
1(
0=
1<
1J
0R
#9687500
1)
1=
1R
#9750000
0)
0(
1'
0=
0<
1;
1K
0J
0R
#9812500
1)
1=
1R
#9875000
0)
1(
0=
1<
1J
0R
#9937500
1)
1=
1R
#10000000
0)
0(
0'
0&
0%
1$
0=
0<
0;
0:
09
18
1G
0L
0I
0K
0J
0R
0S
#10062500
1)
1=
1R
1S
#10125000
0)
1(
0=
1<
1J
0R
1M
#10187500
1)
1=
1R
#10250000
0)
0(
1'
0=
0<
1;
1K
0J
0R
0M
#10312500
1)
1=
1R
#10375000
0)
1(
0=
1<
1J
0R
#10437500
1)
1=
1R
#10500000
0)
0(
0'
1&
0=
0<
0;
1:
1I
0K
0J
0R
1M
#10562500
1)
1=
1R
#10625000
0)
1(
0=
1<
1J
0R
#10687500
1)
1=
1R
#10750000
0)
0(
1'
0=
0<
1;
1K
0J
0R
#10812500
1)
1=
1R
#10875000
0)
1(
0=
1<
1J
0R
#10937500
1)
1=
1R
#11000000
0)
0(
0'
0&
1%
0=
0<
0;
0:
19
1L
0I
0K
0J
0R
0S
0M
#11062500
1)
1=
1R
1S
#11125000
0)
1(
0=
1<
1J
0R
#11187500
1)
1=
1R
#11250000
0)
0(
1'
0=
0<
1;
1K
0J
0R
#11312500
1)
1=
1R
#11375000
0)
1(
0=
1<
1J
0R
#11437500
1)
1=
1R
#11500000
0)
0(
0'
1&
0=
0<
0;
1:
1I
0K
0J
0R
#11562500
1)
1=
1R
#11625000
0)
1(
0=
1<
1J
0R
#11687500
1)
1=
1R
#11750000
0)
0(
1'
0=
0<
1;
1K
0J
0R
#11812500
1)
1=
1R
#11875000
0)
1(
0=
1<
1J
0R
#11937500
1)
1=
1R
#12000000
0)
0(
0'
0&
0%
0$
1#
0=
0<
0;
0:
09
08
17
1H
0G
0L
0I
0K
0J
0R
0S
#12062500
1)
1=
1R
1S
#12125000
0)
1(
0=
1<
1J
0R
1M
#12187500
1)
1=
1R
#12250000
0)
0(
1'
0=
0<
1;
1K
0J
0R
0M
1O
#12312500
1)
1=
1R
#12375000
0)
1(
0=
1<
1J
0R
#12437500
1)
1=
1R
#12500000
0)
0(
0'
1&
0=
0<
0;
1:
1I
0K
0J
0R
1M
#12562500
1)
1=
1R
#12625000
0)
1(
0=
1<
1J
0R
#12687500
1)
1=
1R
#12750000
0)
0(
1'
0=
0<
1;
1K
0J
0R
#12812500
1)
1=
1R
#12875000
0)
1(
0=
1<
1J
0R
#12937500
1)
1=
1R
#13000000
0)
0(
0'
0&
1%
0=
0<
0;
0:
19
1L
0I
0K
0J
0R
0S
0M
0O
#13062500
1)
1=
1R
1S
#13125000
0)
1(
0=
1<
1J
0R
#13187500
1)
1=
1R
#13250000
0)
0(
1'
0=
0<
1;
1K
0J
0R
#13312500
1)
1=
1R
#13375000
0)
1(
0=
1<
1J
0R
#13437500
1)
1=
1R
#13500000
0)
0(
0'
1&
0=
0<
0;
1:
1I
0K
0J
0R
#13562500
1)
1=
1R
#13625000
0)
1(
0=
1<
1J
0R
#13687500
1)
1=
1R
#13750000
0)
0(
1'
0=
0<
1;
1K
0J
0R
#13812500
1)
1=
1R
#13875000
0)
1(
0=
1<
1J
0R
#13937500
1)
1=
1R
#14000000
0)
0(
0'
0&
0%
1$
0=
0<
0;
0:
09
18
1G
0L
0I
0K
0J
0R
0S
#14062500
1)
1=
1R
1S
#14125000
0)
1(
0=
1<
1J
0R
1M
#14187500
1)
1=
1R
#14250000
0)
0(
1'
0=
0<
1;
1K
0J
0R
0M
#14312500
1)
1=
1R
#14375000
0)
1(
0=
1<
1J
0R
#14437500
1)
1=
1R
#14500000
0)
0(
0'
1&
0=
0<
0;
1:
1I
0K
0J
0R
1M
#14562500
1)
1=
1R
#14625000
0)
1(
0=
1<
1J
0R
#14687500
1)
1=
1R
#14750000
0)
0(
1'
0=
0<
1;
1K
0J
0R
#14812500
1)
1=
1R
#14875000
0)
1(
0=
1<
1J
0R
#14937500
1)
1=
1R
#15000000
0)
0(
0'
0&
1%
0=
0<
0;
0:
19
1L
0I
0K
0J
0R
0S
0M
#15062500
1)
1=
1R
1S
#15125000
0)
1(
0=
1<
1J
0R
#15187500
1)
1=
1R
#15250000
0)
0(
1'
0=
0<
1;
1K
0J
0R
#15312500
1)
1=
1R
#15375000
0)
1(
0=
1<
1J
0R
#15437500
1)
1=
1R
#15500000
0)
0(
0'
1&
0=
0<
0;
1:
1I
0K
0J
0R
#15562500
1)
1=
1R
#15625000
0)
1(
0=
1<
1J
0R
#15687500
1)
1=
1R
#15750000
0)
0(
1'
0=
0<
1;
1K
0J
0R
#15812500
1)
1=
1R
#15875000
0)
1(
0=
1<
1J
0R
#15937500
1)
1=
1R
